id	year
1a5kA	1998
1a8lA	1999
1abaA	1993
1ansA	1994
1aolA	1997
1arfA	1994
1auuA	1997
1b2pA	1999
1b9uA	1999
1bomB	1994
1c2aA	1999
1c41A	2000
1c44A	2000
1ci4B	2000
1ci6A	2000
1ckxA	1999
1co4A	1999
1cqkA	1999
1cqyA	1999
1cxqA	1999
1cxyA	1999
1d2iB	2000
1d4tA	1999
1danT	1997
1dg6A	2000
1dp7P	2000
1dptA	1999
1dtdB	2000
1duwA	2001
1e0fI	2000
1e42A	2000
1e8rA	2000
1ecaA	1979
1ehsA	1995
1erdA	1994
1ew4A	2000
1ewsA	2001
1ezvH	2001
1f00I	2000
1f3kA	2000
1f3uB	2000
1f4pA	2001
1f53A	2000
1fctA	1994
1fjgL	2000
1fkaR	2000
1fltY	1999
1fm0E	2001
1fpn4	2000
1ft8E	2000
1g12A	2001
1g1bA	2001
1g1pA	2000
1g61A	2000
1g6xA	2001
1g92A	2003
1gmlA	2002
1gmxA	2001
1gngX	2002
1gppA	2002
1gpsA	1993
1gvdA	2003
1gxmA	2002
1h2oA	2003
1h5pA	2001
1h7dA	2001
1ha8A	2001
1hnrA	1995
1hoeA	1989
1hxrB	2001
1i07A	2001
1i0rA	2001
1i24A	2003
1i26A	2001
1i85D	2001
1ijyA	2001
1iruN	2002
1iu3C	2003
1ixhA	1998
1ixtA	2003
1j2jB	2003
1j2lA	2003
1j7rA	2001
1jb0K	2001
1jbmD	2003
1jc4A	2001
1jd5A	2001
1jdmA	2002
1jeiA	2001
1jeoA	2002
1jhsA	2003
1jieA	2002
1jmuA	2002
1jovA	2003
1js1Y	2002
1jy2N	2001
1jy2O	2001
1jy2P	2001
1jztA	2001
1k0tA	2002
1k78I	2002
1k8uA	2002
1ki0A	2002
1kloA	1997
1kmxA	2002
1kx5D	2002
1kza2	2002
1l6hA	2002
1l6rA	2003
1lfcA	1998
1lg7A	2002
1ljmB	2002
1lr7A	2003
1lslA	2002
1lu0A	2002
1lv3A	2002
1lylB	1995
1lypA	1995
1m4fA	2002
1m56D	2002
1m8aA	2002
1m93C	2003
1m9zA	2002
1mk2B	2002
1mm0A	2003
1moxC	2003
1mp1A	2003
1muwA	2002
1mv4A	2003
1mxeE	2002
1n0wB	2002
1n1jA	2003
1n91A	2003
1nauA	2003
1ncsA	1996
1nd6B	2002
1nf9A	2003
1njqA	2003
1nnxA	2004
1no1A	2003
1nqjA	2003
1nr4C	2003
1ntmK	2003
1nx4A	2003
1nxmA	2003
1nz0C	2003
1nziB	2003
1o50A	2003
1o65C	2003
1o8xA	2003
1o9rC	2003
1ob9A	2004
1ojhA	2004
1oqjA	2003
1oqqA	2003
1or7C	2003
1ou0A	2003
1ou8A	2003
1p5uC	2003
1p5zB	2003
1p8bA	2003
1p94A	2004
1p9dS	2003
1pfbA	2003
1pfsA	1997
1plcA	1993
1pp9F	2004
1pq5A	2003
1pxqA	2004
1pyaA	1994
1q32D	2004
1q35A	2003
1q67B	2004
1q7lA	2004
1q90R	2003
1qb7A	1999
1qopB	2000
1qu0A	1999
1qypA	1997
1r79A	2004
1r7jA	2004
1r9lA	2004
1rfzD	2004
1rhfA	2004
1rjjA	2003
1rjuV	2004
1rk8C	2004
1rowA	2003
1rutX	2004
1s5lL	2004
1s72Z	2004
1sb0B	2004
1senA	2004
1sfkH	2004
1sg7A	2005
1sjwA	2004
1stmA	1997
1svfD	1999
1t0iB	2004
1t17A	2005
1t3jA	2004
1t5rF	2004
1t9hA	2004
1tgjA	1997
1ti5A	2005
1tjlA	2004
1tm5I	2004
1tm9A	2004
1tu7A	2005
1tvxB	1997
1tyjA	2005
1u02A	2004
1u5fA	2005
1u6lA	2004
1u7iB	2004
1ukkA	2004
1uozA	2004
1us0A	2004
1utgA	1989
1v8hA	2005
1vdiA	2005
1ve0A	2005
1vh5A	2003
1vigA	1996
1vioA	2003
1vjqA	2004
1vk1A	2004
1vk8C	2004
1vl0B	2004
1vm9A	2004
1vmbA	2004
1vs6Y	2006
1w0uA	2004
1w2qA	2005
1wg7A	2004
1whnA	2004
1wq6A	2005
1wthD	2005
1wwrD	2005
1wy3A	2005
1x32A	2005
1x41A	2005
1x60A	2005
1xdtR	1998
1xedC	2004
1xerA	1997
1xilA	2005
1xmkA	2005
1xvsA	2004
1y0nA	2004
1y3jA	2005
1y4eA	2005
1y6zB	2005
1y74B	2005
1ym0B	2005
1z4rA	2005
1z67A	2005
1zba4	2005
1zd0A	2005
1zecA	1998
1zedA	2005
1zi8A	2005
1zkhA	2005
1zmmA	2006
1znfA	1991
1zpvA	2005
1zs4D	2005
2a19A	2005
2a1lA	2005
2a26A	2005
2absA	2006
2agkA	2006
2ah5A	2005
2akfA	2005
2al3A	2006
2ao9I	2005
2aqlA	2006
2atrA	2005
2axcA	2006
2az0B	2005
2b18A	2006
2baiA	2006
2bf9A	2004
2bp3B	2005
2bpsA	2005
2bw4A	2005
2bwqA	2005
2cb8A	2006
2cm5A	2006
2cmwA	2006
2co7A	2006
2cs7A	2006
2ct7A	2005
2cu3A	2006
2cwsA	2005
2czlA	2006
2d2aA	2005
2d5kC	2006
2d7eD	2006
2d93A	2006
2d9gA	2006
2d9wA	2006
2da1A	2006
2dagA	2006
2ddxA	2007
2dfxI	2007
2dgwA	2006
2dkzA	2006
2ds2A	2007
2dsyD	2007
2dt7B	2006
2e0aB	2007
2e5rA	2007
2eanA	2007
2ecnA	2007
2eemA	2007
2egiI	2007
2ejxA	2008
2eouA	2007
2etjA	2005
2ewlA	2006
2ezhA	1997
2f0xD	2006
2f2fC	2006
2f4wA	2005
2f5kF	2006
2f5tX	2006
2fbwC	2005
2fcgF	2006
2ffcA	2006
2fiuA	2006
2fjcA	2006
2fk8A	2006
2fn3A	2006
2fpeF	2006
2fqcA	2006
2fteG	2006
2fufA	2006
2fzvB	2006
2g2cA	2006
2g3vA	2007
2g5rA	2006
2g9pA	2006
2gb4B	2006
2gcxA	2007
2gdlA	2007
2gecA	2006
2gefB	2006
2geyC	2006
2gkgA	2007
2gloA	2006
2glzA	2006
2gmgA	2006
2gmwA	2007
2gpiA	2006
2gqtA	2006
2greP	2006
2gsvA	2006
2gukB	2006
2gutA	2006
2guzB	2006
2gwpA	2006
2h29A	2006
2h8bA	2006
2hc1A	2006
2hdlA	2006
2hgaA	2006
2hlrA	2006
2htiA	2006
2hujA	2006
2hx5A	2006
2hzcA	2006
2i15A	2006
2i4aA	2007
2ibfB	2007
2iimA	2006
2iizA	2006
2ip6A	2007
2iu1A	2006
2iybE	2007
2j05B	2007
2j4mA	2007
2jc5A	2007
2jdcA	2007
2jgsA	2008
2jh1A	2007
2jkhL	2009
2jm2A	2007
2jmxB	2007
2jo8A	2007
2jpjA	2008
2jroA	2007
2jveA	2008
2jvuA	2008
2jw6A	2007
2jx8A	2008
2k03B	2008
2k1nA	2008
2k2wA	2008
2k3cA	2008
2k3rA	2008
2k42B	2008
2k53A	2008
2k7yA	2009
2k84A	2009
2kamA	2009
2kb8A	2009
2kddA	2009
2kdrX	2009
2kdxA	2009
2kiwA	2009
2kkcA	2009
2kkeA	2009
2kkgA	2009
2kkvA	2009
2kl5A	2009
2kl6A	2009
2kn8A	2010
2knoA	2010
2knpA	2009
2kpyA	2010
2kswA	2010
2kvfA	2010
2kvgA	2010
2kvtA	2010
2kvxA	2011
2kx7A	2011
2kxcA	2010
2kxhB	2010
2kxnB	2011
2kz0A	2010
2kzsA	2010
2l03A	2011
2l0nA	2011
2l0zA	2010
2l3iA	2011
2l48A	2011
2l5bA	2011
2l6wA	2012
2l9dA	2011
2lcmA	2012
2lcyA	2011
2ldeA	2011
2lehB	2012
2lfvA	2012
2li3A	2012
2lifA	2012
2lixA	2012
2lk0A	2011
2lmzA	2012
2lo0A	2012
2lpbA	2012
2lqkA	2012
2lriC	2012
2lw4A	2012
2m0dA	2012
2ncmA	1997
2nlrA	1999
2nmlA	2006
2nn4A	2006
2nr5D	2006
2nxpH	2007
2nxvA	2007
2o02A	2007
2o30A	2007
2o90A	2007
2o9uX	2007
2oarA	2007
2ob3A	2007
2ob9A	2007
2okuA	2007
2os5A	2007
2osqA	2007
2ougA	2007
2ozjB	2007
2ozyA	2007
2p2eA	2007
2p4fA	2008
2p58B	2008
2p5zX	2007
2p74A	2007
2p7oA	2007
2p8gA	2007
2pmrA	2007
2pndA	2007
2pqrC	2007
2pr7A	2007
2q0sA	2007
2q5fA	2007
2q7bA	2007
2qazD	2007
2qdvA	2007
2qeaC	2007
2qedA	2007
2qf4A	2007
2qifB	2008
2qkvA	2007
2qkwA	2007
2qnaB	2008
2qo4A	2007
2qv8B	2008
2qywA	2007
2r5xB	2007
2r6qA	2009
2r78C	2007
2r85A	2007
2r8eA	2008
2rc3B	2007
2rfvA	2008
2rodB	2008
2tbvC	1984
2tpsB	1999
2uurA	2007
2ux9A	2007
2uzgA	2007
2v52B	2008
2v52M	2008
2vduE	2007
2vgoC	2008
2vh3A	2007
2vkjA	2008
2vknA	2008
2vptA	2008
2vsmA	2008
2vy8A	2008
2w1vA	2008
2w1wA	2009
2w4lA	2009
2w50A	2009
2wh7A	2009
2wkbB	2009
2wnfA	2009
2wnvA	2010
2ws91	2010
2wtmA	2010
2wy7Q	2010
2wz8A	2010
2x5nA	2010
2x5yA	2010
2x61A	2011
2x7bA	2010
2x9aA	2010
2xiuB	2011
2xlkA	2010
2xmeL	2011
2xodA	2010
2xqcD	2010
2xskA	2010
2xtrA	2010
2xu7B	2010
2xvtC	2010
2xxnA	2011
2xy8B	2011
2y0nG	2011
2y6uA	2011
2yadF	2012
2yc3A	2011
2yfvC	2011
2yh5A	2011
2ylcA	2011
2ysmA	2007
2yviA	2008
2z4iA	2007
2z6pA	2007
2z72A	2008
2zdpA	2008
2zkoA	2008
2zqmA	2008
2zt9E	2009
2zw2A	2009
3a1mA	2010
3a2vA	2009
3a4rB	2010
3abdA	2010
3afqC	2010
3agnA	2010
3aihA	2010
3ajbB	2010
3ajfA	2011
3aklC	2010
3aluA	2011
3amrA	2011
3arbA	2011
3arcU	2011
3arcX	2011
3awxB	2011
3azdA	2011
3b5nE	2007
3b7cA	2007
3bdeB	2007
3bdrA	2007
3be3B	2007
3bemA	2007
3bhdA	2007
3bjkF	2008
3bk3C	2008
3bkdA	2008
3bptA	2008
3bsuA	2008
3bt4A	2008
3bz1T	2009
3cbnA	2008
3cgzB	2008
3cjiD	2008
3cjsB	2008
3cljA	2008
3cnvD	2008
3cqlA	2008
3ct6B	2008
3cwfA	2008
3cxkA	2008
3czqC	2008
3d3bJ	2009
3d3sD	2008
3d9xB	2008
3da0A	2009
3dcaA	2008
3dczA	2008
3df6B	2009
3dgbA	2009
3dhzA	2008
3dkmA	2008
3dlqI	2008
3dmlA	2008
3douA	2008
3dplR	2008
3dy0A	2008
3dzzA	2008
3e0xB	2008
3e11A	2008
3e1rB	2008
3e21A	2009
3e4hA	2009
3e7nG	2008
3e8oA	2008
3e8xA	2008
3e9tD	2009
3ej3B	2008
3ej9A	2008
3elbA	2008
3es6B	2008
3eslB	2009
3ey6A	2009
3f0hA	2008
3f2eA	2009
3f6qB	2008
3f9uB	2008
3fajA	2009
3fb9B	2008
3fc0B	2008
3fdiA	2009
3fegA	2008
3fijG	2009
3fjuB	2008
3fm7C	2009
3fm8B	2009
3fneB	2009
3fphB	2009
3frhA	2009
3fsgD	2009
3ftdA	2009
3fzbJ	2009
3g12B	2009
3g1jA	2009
3g27A	2009
3g85A	2009
3ga7A	2009
3ga8A	2010
3gdmB	2010
3gixA	2010
3gk5A	2009
3gmxA	2009
3go5A	2009
3goeA	2009
3gu4A	2010
3gwlB	2009
3gy9A	2009
3gygB	2009
3h31A	2009
3h43A	2009
3h4tA	2009
3h5iA	2009
3h5zA	2009
3h6pA	2009
3h7aA	2009
3h93A	2009
3h95A	2009
3h9xA	2009
3ha2A	2009
3hd2A	2010
3heiB	2009
3himA	2009
3hlzA	2009
3hmzA	2009
3hqaA	2010
3hr6A	2009
3hsmB	2009
3htkB	2009
3htkC	2009
3i0uB	2009
3i2vA	2009
3i31A	2009
3i4oB	2010
3i4pA	2009
3i5wA	2009
3i8gX	2010
3i96C	2010
3i9v6	2009
3icaB	2009
3icyA	2010
3iezA	2009
3ifqD	2009
3imaB	2010
3immA	2009
3ir4A	2009
3jthA	2010
3jtwA	2009
3jzyA	2009
3k1rB	2010
3kalB	2009
3kcuA	2009
3keyA	2009
3kf6A	2009
3kf8D	2009
3kgrB	2009
3kifA	2010
3kkfA	2009
3knbA	2009
3kopA	2009
3kqgB	2010
3kupC	2009
3kusB	2010
3kuzA	2009
3kvpA	2010
3kwsA	2009
3l0vB	2010
3l11A	2010
3l18B	2010
3l7wA	2010
3laxA	2010
3le4A	2010
3lk2T	2010
3llhA	2010
3lphA	2010
3lqnA	2010
3lu9C	2010
3lvkB	2010
3lw6A	2010
3lyeA	2010
3m1dB	2010
3m31A	2010
3m8jB	2010
3ma2B	2010
3mbkA	2010
3mjhB	2010
3mm5B	2010
3mo8A	2010
3molB	2010
3mopK	2010
3mvnA	2010
3n0rA	2010
3n4hA	2011
3n53A	2010
3nddB	2010
3ndhB	2010
3nfkA	2011
3ngpA	2010
3ngwA	2010
3ni0B	2010
3njrB	2011
3nkhB	2010
3nmrA	2010
3no6D	2010
3nswF	2011
3nvsA	2010
3nyjA	2011
3nyyA	2010
3nzlA	2010
3o1nA	2010
3o2tA	2010
3o8eD	2010
3odnA	2011
3oeoA	2010
3okxA	2010
3ol3B	2010
3oloB	2010
3omyA	2011
3on9A	2011
3onjA	2011
3onrA	2011
3oovB	2010
3op8A	2011
3os4B	2010
3outC	2010
3p6iA	2011
3p73A	2010
3p9yD	2010
3pb6X	2011
3pd7A	2010
3pg6A	2010
3pl7C	2010
3pmtA	2010
3pr6A	2011
3pvkA	2011
3pz8H	2010
3q30A	2011
3q6cA	2011
3q8jA	2012
3qavA	2012
3qb7D	2012
3qc0A	2011
3qfiA	2011
3qhbA	2011
3qioA	2011
3qn9A	2011
3qpaA	2012
3qt9A	2011
3r0aA	2011
3r3qA	2011
3r68A	2011
3r84V	2011
3r8jA	2011
3rd7A	2011
3rnqA	2011
3rq7A	2011
3rq9B	2012
3s2kC	2011
3s5bB	2012
3sd2A	2011
3sd4A	2011
3sggA	2011
3shgB	2012
3shqA	2011
3sp7A	2012
3ssbC	2011
3ssuB	2012
3swyA	2011
3sxjB	2011
3t49A	2011
3t92A	2012
3t98B	2011
3t9oB	2012
3tduD	2011
3tgnA	2011
3tmgB	2011
3tn2A	2012
3tq2A	2012
3tu8A	2011
3u12B	2011
3u1dA	2011
3u5cA	2011
3u5eG	2011
3u5eN	2011
3u5vA	2012
3u88D	2012
3uafA	2012
3uljB	2012
3us6A	2012
3uuwA	2011
3uz6Q	2012
3v0dB	2012
3v4hB	2011
3v5rA	2012
3v9oA	2012
3vbjC	2012
3vejA	2012
3vemD	2012
3vnyA	2012
3vppA	2012
3vqtD	2012
3zqkA	2011
3zuaA	2012
3zw5B	2011
3zwhQ	2012
3zywB	2012
3zzsA	2011
4a49A	2012
4a5zB	2012
4a8jE	2012
4a8xB	2012
4acjA	2012
4af8A	2012
4ajbA	2012
4axgC	2012
4az9B	2012
4b4pB	2012
4b4uA	2012
4b6wA	2012
4d9sB	2012
4dhiB	2012
4dkfB	2012
4dl0G	2012
4dovA	2012
4dt4A	2012
4dxzA	2012
4e0qB	2012
4eazD	2012
4ebgA	2012
4ec7A	2012
4efzB	2012
4eirA	2012
4ejsC	2012
4eq6B	2012
4ersA	2012
4es8A	2012
4etvB	2012
4f55A	2012
4f8bA	2012
4f98A	2012
4fjoD	2012
4fs7A	2012
4fvsE	2012
4g0mA	2012
4g7xB	2012
4g8sB	2012
4g9sA	2012
4gvqA	2012
4gwbA	2012
4gymB	2012
4h0aB	2012
4h41B	2012
4hb1A	1998
4hecA	2012
4hhuA	2012
4hnlA	2012
1a02N	1998
1a0aA	1998
1a0fA	1999
1a1xA	1998
1a2pA	1998
1a2xB	1998
1a34A	1998
1a4pB	1998
1a6sA	1998
1a92D	1999
1a93B	1998
1ab8B	1997
1ah7A	1997
1ajjA	1997
1alyA	1997
1an8A	1998
1aohB	1998
1apyA	1996
1at0A	1997
1atyA	1994
1av3A	1998
1avgI	1998
1axhA	1997
1ay7B	1999
1aym1	1998
1b0nA	1999
1b33N	1999
1b35A	1999
1b4gA	1999
1b5fB	1999
1b9oA	1999
1bb9A	1998
1bbaA	1993
1bbgA	1998
1bboA	1993
1bc7C	1999
1bdoA	1996
1bgkA	1997
1bh8B	1999
1bhiA	1999
1bhpA	1996
1bi5A	1999
1bi6H	1996
1bl1A	1999
1bm4A	1998
1bm8A	1999
1bowA	1999
1bpvA	1999
1bs9A	1999
1bteA	1999
1btkB	1997
1btnA	1996
1bwoA	1999
1bx2B	1998
1by6A	2000
1bzkA	1999
1c28A	1999
1c3gA	2000
1c3wA	1999
1c4eA	1999
1c5eA	2000
1c94A	2000
1c9fA	2000
1cbhA	1990
1ccrA	1983
1ceeB	1999
1ceuA	2000
1cfhA	1995
1cfrA	1997
1ckkB	1999
1cksB	1995
1cktA	1999
1cn3F	1999
1cnt2	1997
1cpcA	1993
1cq0A	2000
1cr5A	1999
1ct5A	1999
1cx0A	1999
1cxwA	1999
1cz6A	2000
1d0dA	2000
1d2oA	2000
1d4m4	1999
1d6bA	2000
1d8jA	2000
1d9cA	1999
1dcsA	1999
1debA	2000
1di2B	1999
1dkgA	1997
1dlyA	2000
1doiA	1996
1dowB	2000
1dpuA	2000
1dqcA	2000
1dqgA	2000
1dsjA	1998
1dskA	1998
1dsvA	2000
1dtjD	2000
1dy2A	2001
1dy5A	2000
1dyoA	2000
1dytA	2001
1e25A	2000
1e29A	2001
1e3xA	2001
1e5pA	2001
1e6yB	2000
1eaiC	1999
1edmB	1996
1edwA	2000
1edxA	2000
1edyA	2000
1eg3A	2000
1egpA	1995
1egwA	2000
1ejfA	2000
1ekqB	2000
1ekzA	2000
1emrA	2001
1eptB	1995
1es9A	2000
1et1A	2000
1etxA	2000
1exrA	2000
1extA	1997
1f0nA	2001
1f1eA	2001
1f26A	2000
1f66C	2000
1f86A	2001
1f94A	2000
1f97A	2001
1fasA	1993
1fazA	2001
1fd3B	2000
1fgpA	1997
1fhoA	2000
1fi8D	2000
1flpA	1994
1fmhB	2000
1fnlA	2000
1fnxH	2003
1fqiA	2001
1fqjA	2001
1fqjC	2001
1fr3A	2000
1freA	1997
1fsbA	1997
1fseA	2001
1fshA	2001
1fu3A	2002
1fv5A	2000
1fyhB	2000
1fyjA	2001
1g1cA	2001
1g25A	2000
1g2hA	2001
1g2rA	2001
1g4dA	2000
1g6gA	2000
1g84A	2001
1g85A	2002
1g8eA	2001
1gciA	1998
1gd8A	2001
1gd9A	2001
1gh9A	2000
1gjzA	2001
1gk7A	2002
1gk8I	2001
1gk9A	2002
1gkmA	2002
1gl4B	2001
1gnyA	2001
1go4D	2002
1go4E	2002
1gp0A	2002
1gpcA	1995
1gxeA	2003
1gy7A	2002
1gyjA	2002
1gz8A	2003
1gzsB	2002
1h0jA	2003
1h12A	2003
1h1nB	2002
1h2sB	2002
1h32B	2002
1h4aX	2003
1h4xA	2001
1h5oA	2003
1h5vA	2002
1h67A	2002
1h6fB	2002
1h75A	2001
1h8dL	2001
1h8pA	2002
1h8tC	2002
1h8uA	2001
1h97A	2001
1h9oA	2001
1harA	1995
1hbgA	1992
1hbkA	2001
1hcrA	1994
1hd6A	2000
1hdfA	2000
1hdkA	2001
1hdlA	2001
1hf2D	2001
1hfiA	1993
1hjiB	2002
1hkfA	2003
1hl6B	2003
1ho9A	2002
1hp3A	2002
1hp8A	1998
1hpiA	1994
1hq1A	2001
1hqz8	2001
1htrP	1995
1hvbA	2001
1hx0A	2001
1hxpA	1996
1hy5B	2002
1hztA	2001
1i1jA	2001
1i1wA	2003
1i27A	2001
1i2hA	2002
1i3qJ	2001
1i58B	2001
1i5kC	2001
1i6kA	2001
1i6pA	2001
1i82A	2001
1iarB	2000
1idpA	2003
1ifrA	2002
1ifyA	2002
1ig6A	2001
1igqD	2002
1iijA	2001
1ik7A	2002
1imlA	1996
1iqqA	2001
1iqzA	2002
1irsA	1997
1iruC	2002
1irzA	2003
1iurA	2003
1iw4A	2002
1iwcA	2002
1ixsA	2002
1iycA	2003
1iytA	2003
1j0pA	2003
1j5lA	2002
1j5mA	2002
1j9bA	2001
1j9iA	2002
1jb0J	2001
1jb0M	2001
1jb3A	2001
1jcdA	2003
1jdhB	2001
1jerA	1997
1jf8A	2001
1jfmA	2002
1jg1A	2001
1ji7A	2002
1jj2G	2001
1jj2R	2001
1jjoA	2002
1jkgA	2001
1jmxG	2002
1jn7A	2002
1jo0A	2002
1jo8A	2002
1josA	2003
1jr5A	2002
1jsuC	1997
1juvA	2003
1jx1C	2002
1jxcA	2003
1jy5A	2002
1jyoF	2001
1k3xA	2002
1k4uP	2002
1k52A	2001
1k8bA	2002
1kafA	2001
1kalA	1995
1kbhA	2002
1kdxA	1998
1kdxB	1998
1kg2A	2002
1kgdA	2001
1khxA	2002
1kilE	2002
1kllA	2002
1kmvA	2002
1kn6A	2002
1knmA	2002
1knyA	1996
1kp6A	1999
1kptA	1995
1kq1A	2002
1kq6A	2003
1kthA	2002
1ku1A	2002
1kugA	2002
1kw4A	2002
1kwfA	2002
1kzuB	1997
1kzyC	2002
1l3yA	2002
1l4tA	2003
1l4wB	2002
1l6pA	2002
1l7yA	2002
1l8rA	2002
1l9aA	2002
1l9lA	2002
1lbaA	1994
1lctA	1993
1lddA	2002
1lg4A	2003
1lghA	1997
1lghB	1997
1lihA	1995
1lirA	1998
1lj7H	2002
1lktA	1998
1lmiA	2002
1lmjA	2003
1lmrA	2003
1lo7A	2002
1loiA	1997
1lqcA	1997
1lqkA	2002
1lr0A	2002
1lriA	2002
1lu4A	2003
1lu8A	2004
1lucA	1996
1luzB	2002
1lvbA	2002
1lvwB	2003
1lyvA	2002
1m1fA	2002
1m1nA	2002
1m1qA	2002
1m2dA	2002
1m2xA	2003
1m33A	2003
1m44A	2002
1m45B	2003
1m5iA	2002
1m7lA	2002
1mf7A	2003
1mfwA	2003
1mg7B	2003
1mhqA	2003
1mj4A	2002
1mj5A	2003
1mjuH	2003
1mjuL	2003
1mkcA	1999
1mknA	1999
1mn8B	2003
1mofA	1996
1mr0A	2002
1mujA	2003
1mvfD	2003
1mvjA	1997
1mvlA	2003
1mwpA	2000
1mxrA	2003
1my7B	2002
1mzwB	2003
1n12A	2002
1n1fA	2003
1n1jB	2003
1n4kA	2002
1n5bC	2002
1n5gA	2003
1n6jG	2003
1n7oA	2002
1n7sB	2002
1n7sC	2002
1n7uA	2003
1nepA	2003
1neqA	1995
1nfpA	1995
1nh2C	2003
1nhgC	2003
1njhA	2003
1nkdA	1999
1nlqE	2003
1no5B	2004
1npsA	2000
1ntvA	2003
1nwdB	2003
1nycA	2003
1nz9A	2004
1o4yA	2003
1o5eL	2004
1o6aB	2003
1o7zA	2003
1o8sA	2003
1o94D	2003
1oaiA	2003
1ob1C	2003
1oc0B	2003
1occK	1996
1ocrH	1999
1ocyA	2003
1odhA	2003
1ohmA	2003
1oisA	1997
1oksA	2003
1oohA	2003
1ootA	2004
1oppA	1998
1or2A	2000
1orjC	2003
1oryB	2003
1osyA	2003
1ouwB	2003
1ovyA	2004
1oyiA	2004
1p0aA	2004
1p0zA	2003
1p1pA	1997
1p3cA	2004
1p3qR	2003
1p6oB	2003
1p6rA	2003
1p9iA	2003
1p9kA	2003
1p9yA	2003
1pbjA	2003
1pbuA	2003
1pehA	1996
1pgyA	2004
1pjhA	2004
1pjxA	2004
1plpA	1995
1pm3B	2003
1pn4C	2004
1pn5A	2003
1ponB	1996
1pp9I	2004
1ppjJ	2004
1ppqA	2004
1pspA	1994
1psrA	1999
1psvA	1998
1ptmA	2003
1ptqA	1995
1pubA	2004
1puzA	2004
1pyiB	1995
1pytA	1997
1pzxA	2004
1q01A	2005
1q08B	2003
1q1fA	2004
1q1oA	2003
1q1vA	2004
1q23J	2004
1q2fA	2004
1q33A	2003
1q4uA	2003
1q5yA	2003
1q68A	2003
1q68B	2003
1q8bA	2004
1q8cA	2003
1q8dA	2004
1q90M	2003
1q92A	2004
1qb5D	2003
1qc6A	1999
1qcrI	1998
1qcsA	1999
1qddA	1999
1qf9A	1999
1qfnB	2000
1qfoC	1999
1qfqB	1999
1qftA	2000
1qgkB	1999
1qhhA	1999
1qhhD	1999
1qhvA	1999
1qjlA	1999
1qk7A	1999
1qkyA	2000
1qloA	1999
1qouA	2000
1qp2A	1999
1qp6A	1999
1qqp1	1999
1qrvB	1999
1qsdA	1999
1qtnA	2000
1qtnB	2000
1qtpA	1999
1qtwA	1999
1qv1A	2003
1qveB	2004
1qvyA	2004
1qwrB	2004
1qx4A	2004
1qynB	2003
1qzmA	2004
1r0dA	2004
1r0uA	2003
1r2qA	2003
1r3wA	2003
1r45A	2004
1r4pA	2004
1r4yA	2004
1r57A	2004
1r62A	2004
1r75A	2003
1r7cA	2004
1r7mA	2004
1r8gB	2004
1r8hA	2003
1r8sA	2004
1rb8J	2004
1resA	1994
1rewC	2004
1rfhA	2005
1rgoA	2004
1rh5C	2004
1rjiA	2003
1rkcB	2004
1rklA	2004
1rkuA	2004
1rlkA	2003
1rm6C	2004
1rmdA	1997
1rmkA	2004
1rmvA	1997
1ro0A	2004
1roaA	2004
1rocA	2003
1rooA	1997
1rqwA	2003
1rr7A	2004
1rrzA	2004
1rsoB	2004
1ru4A	2004
1rw1A	2004
1rw2A	2003
1rwjA	2004
1rwuA	2004
1rylA	2004
1ryqA	2004
1ryvA	2004
1rzsA	2004
1s28A	2004
1s2dA	2004
1s2oA	2005
1s3sG	2004
1s4zC	2004
1s5lK	2004
1s6cA	2004
1s722	2004
1s7zA	2004
1s8kA	2005
1s95A	2004
1s99B	2004
1s9uA	2004
1seiA	1997
1sfsA	2004
1sfuA	2004
1sisA	1994
1skhA	2005
1skvA	2004
1smoA	2004
1smxB	2004
1smzA	2004
1so9A	2004
1spfA	1994
1sq9A	2004
1sqsA	2004
1sqwA	2005
1srkA	2004
1sseA	2004
1sslA	2004
1sszA	2004
1st9A	2004
1suyC	2004
1szlA	2005
1t0hA	2004
1t15A	2004
1t1dA	1999
1t1vA	2004
1t23A	2004
1t2hA	2004
1t3yA	2005
1t4oB	2004
1t6fA	2004
1t6uA	2004
1t92A	2004
1t9fA	2004
1tbuA	2005
1tc3C	1997
1tdzA	2004
1tenA	1993
1tg0A	2005
1tifA	1995
1tiqB	2004
1tksA	2004
1tmyA	1997
1totA	2005
1tp6A	2004
1tpmA	1994
1tqjE	2004
1ttzA	2004
1tu9A	2004
1tuwA	2004
1tvdA	1998
1tz6B	2004
1tzdA	2004
1tzpB	2004
1u07B	2004
1u6rA	2005
1u83A	2004
1u9lB	2004
1uc6A	2004
1ucsA	2003
1udkA	2003
1ufyA	2003
1ug6A	2003
1uilA	2004
1uixA	2003
1ujlA	2003
1ukmB	2003
1ungD	2004
1ur6B	2004
1urqA	2004
1us6A	2004
1us7B	2004
1useA	2004
1usmA	2003
1uteA	1999
1utyA	2004
1uujD	2004
1uuzA	2004
1uwcA	2004
1uxoA	2004
1uzkA	2006
1v05A	2004
1v0zA	2006
1v1cA	2005
1v54G	2003
1v54I	2003
1v54L	2003
1v65A	2004
1v6eA	2004
1v8kA	2004
1v8qA	2004
1v9dC	2004
1v9yA	2004
1vbwA	2005
1vccA	1996
1vd4A	2004
1vdrB	1998
1vf5A	2004
1vf5T	2004
1vfiA	2005
1vhuA	2003
1vibA	1997
1vjhA	2004
1vjuB	2004
1vk5A	2004
1vkeA	2004
1vkhB	2004
1vkkA	2004
1vmgA	2004
1vqsA	2005
1vr4B	2005
1vr7B	2005
1vraA	2005
1vrvA	2005
1vs5F	2006
1vtnC	2011
1vtpA	1996
1vybB	2004
1vyrA	2004
1vzjA	2005
1w0hA	2004
1w1dA	2004
1w2lA	2005
1w4sA	2005
1w5mA	2005
1w66A	2005
1w7bA	2004
1w98B	2005
1w9aA	2005
1w9pB	2004
1wc2A	2006
1wd2A	2004
1wewA	2004
1wfdA	2004
1witA	1996
1wj0A	2004
1wjnA	2004
1wjxA	2004
1wl8A	2005
1wlyA	2005
1wlzA	2005
1wm3A	2004
1wm7A	2004
1wmgF	2005
1wmxB	2004
1wn4A	2004
1wnrC	2004
1wo6A	2005
1wocA	2005
1wolA	2005
1wouA	2004
1wp5A	2004
1wp8C	2005
1wqbA	2005
1wqcA	2005
1wqjB	2005
1wqkA	2005
1wriA	2004
1wrmA	2005
1wt6A	2005
1wxiA	2005
1wykA	1998
1x3kA	2005
1x6iA	2005
1x8hA	2004
1x9fD	2004
1xa7A	2004
1xbyB	2005
1xctP	2005
1xd3A	2004
1xf6B	2004
1xffA	2004
1xg0C	2004
1xg2A	2005
1xg2B	2005
1xhbA	2004
1xi7A	2004
1xjhA	2004
1xjuA	2005
1xk4A	2005
1xkmB	2005
1xl3B	2005
1xlyB	2004
1xmtA	2004
1xnlA	2005
1xo1A	1999
1xqaA	2004
1xrdA	2005
1xrtA	2005
1xrxA	2005
1xs0B	2004
1xsqB	2004
1xtgB	2004
1xu1R	2004
1xu9D	2004
1xv3A	2005
1xzoB	2005
1y29A	2004
1y5oA	2005
1y63A	2005
1y7rA	2005
1y9qA	2005
1ya5T	2005
1ycyA	2005
1yd3A	2005
1yd7A	2005
1ydlA	2005
1yfqA	2005
1ygtA	2005
1yj7A	2005
1yk4A	2006
1yleA	2005
1yn9A	2005
1yodA	2005
1ysjB	2005
1ytrA	2005
1ytzT	2005
1yu0A	2005
1yuiA	1997
1yuzA	2005
1yw5A	2005
1ywuA	2005
1yxbA	2005
1yybA	2005
1yymM	2005
1yz1D	2006
1z0nB	2005
1z0pA	2005
1z0wA	2005
1z27A	2005
1z2uA	2005
1z3eB	2005
1z4hA	2005
1z65A	2006
1z66A	2006
1z7kB	2005
1z84B	2005
1z8hD	2005
1z9iA	2005
1z9lA	2005
1z9wA	2005
1zavU	2005
1zbfA	2005
1zbxB	2005
1zceA	2005
1zg2A	2005
1zhcA	2005
1zjjA	2006
1zkrB	2006
1zkzA	2005
1zl8A	2005
1zldA	2005
1zmeC	1998
1zmhA	2005
1zoqC	2006
1zowA	2005
1zpsA	2005
1zrvA	2005
1ztoA	1997
1zu1A	2005
1zuuA	2006
1zvbB	2006
1zvdA	2005
1zw8A	2006
1zwyB	2005
1zx8A	2005
1zxuA	2005
1zzkA	2005
1zzpA	2005
1zzvA	2006
2a05A	2006
2a13A	2005
2a25A	2005
2a2bA	2006
2a2kA	2006
2a3nA	2005
2a4vA	2006
2a5yA	2005
2a6cA	2005
2a6rC	2005
2a6zA	2006
2a7kA	2005
2a90A	2005
2ab7A	2005
2ab9A	2005
2abkA	1995
2acmA	2006
2acmB	2006
2ad6B	2006
2advB	2006
2aghC	2005
2aj0A	2006
2aj6A	2005
2ajjA	2005
2ancF	2005
2anvA	2006
2aoaB	2005
2apnA	2006
2apoB	2005
2aq2A	2006
2ariA	2005
2atpA	2005
2auhB	2005
2auwA	2005
2avkA	2006
2axiA	2006
2axwA	2005
2aydA	2006
2aynA	2005
2azeC	2006
2b06A	2006
2b0aA	2005
2b0jA	2006
2b0rB	2005
2b1xB	2005
2b5iD	2005
2b69A	2005
2b7eA	2005
2b9kA	2006
2bayD	2006
2bbmB	1994
2bcxB	2006
2be6D	2005
2becB	2006
2beqD	2004
2bf6A	2006
2bfdA	2006
2bh4X	2005
2bhuA	2005
2bjiA	2005
2bjnA	2005
2bk8A	2006
2bk9A	2005
2bkrA	2005
2bkvA	2005
2bl7A	2005
2blfB	2005
2blnB	2005
2bmoA	2005
2bn5A	2005
2bnlC	2005
2bo5A	2005
2boiA	2006
2bopA	1994
2brfA	2005
2bsyA	2005
2bt9C	2005
2bv2A	2005
2bwfA	2006
2bx9A	2005
2bz1A	2005
2bzvA	2005
2bzwB	2007
2c0sA	2006
2c1tC	2005
2c2fA	2006
2c3gA	2005
2c57A	2006
2c60A	2005
2c6aA	2006
2c6uA	2006
2c71A	2006
2c7nE	2006
2c9lY	2006
2cakA	2006
2carA	2006
2cbpA	1997
2ccvA	2006
2ce0A	2006
2cg6A	2007
2ch9A	2006
2ci1A	2006
2cjjA	2006
2cjsC	2006
2ck3G	2006
2ck3I	2006
2ckkA	2006
2cl3A	2006
2clbA	2006
2cmpA	2007
2cnqA	2006
2coqA	2005
2cp9A	2005
2cpgB	1999
2cphA	2005
2cpzA	2005
2cs3A	2005
2cuwA	2005
2cviA	2006
2cxaA	2005
2cxyA	2006
2cy3A	1994
2czsB	2005
2d1kC	2006
2d1sA	2006
2d3dA	2006
2d48A	2006
2d49A	2006
2d56A	2006
2d5mA	2006
2d7dB	2006
2d9mA	2006
2d9sA	2007
2dadA	2006
2danA	2006
2db6A	2006
2dceA	2006
2dcoA	2007
2dcvA	2007
2dgtA	2006
2dhzA	2006
2di2A	2007
2dinA	2007
2dj6C	2006
2djfA	2006
2djlA	2007
2djrA	2006
2dk1A	2006
2dktA	2006
2dl8A	2006
2dlbA	2006
2dloA	2006
2dn0A	2006
2dnaA	2006
2do0A	2006
2doqD	2006
2dplA	2006
2dqaA	2007
2dqrD	2007
2dreB	2006
2drpA	1994
2drvA	2007
2dsmA	2006
2dsqH	2006
2dt6A	2006
2duwA	2007
2dyoB	2006
2dyqA	2007
2dziA	2007
2e0qA	2007
2e1eA	2006
2e1mB	2007
2e2fA	2007
2e3eA	2007
2e3hA	2007
2e43A	2007
2e56A	2007
2e65B	2007
2e6eB	2007
2e6jA	2007
2e70A	2007
2e74F	2007
2e74H	2007
2e7vA	2007
2e9xD	2007
2eaqA	2007
2eb4A	2007
2ebwA	2007
2ec1A	2007
2ecmA	2007
2ee2A	2007
2eeyA	2008
2egcA	2007
2ehoF	2007
2ej8A	2008
2elrA	2008
2eluA	2008
2eo0B	2007
2eo1A	2007
2eocA	2008
2eplX	2008
2eq7C	2008
2eqkA	2007
2eqqA	2008
2erfA	2006
2es7A	2005
2etsA	2005
2exvC	2006
2f22A	2005
2f3lA	2006
2f42A	2006
2f4mB	2006
2f6mD	2006
2f6uA	2006
2f86B	2006
2f8xM	2006
2f9hB	2006
2fa5A	2006
2fa8D	2006
2fb1A	2006
2fbtA	2006
2fcwA	2006
2fd6U	2006
2fdbM	2006
2ffmA	2005
2ffwA	2006
2fg1A	2006
2fg9A	2006
2fgxA	2006
2fhpA	2006
2fhzB	2006
2fi0A	2006
2fi1A	2006
2fiaB	2006
2fipF	2006
2fjzA	2007
2fkkA	2006
2fldA	2006
2fmcA	2006
2fomA	2006
2fouA	2006
2fq3A	2006
2fqmF	2006
2fsqA	2006
2ftxB	2006
2furB	2006
2fvyA	2007
2fy6A	2006
2fygA	2006
2fyzC	2007
2fz0A	2006
2g1uA	2006
2g2nA	2006
2g31A	2006
2g35A	2006
2g4cA	2006
2g7bA	2007
2g7jA	2006
2g7oA	2006
2gewA	2006
2gf4A	2006
2gfgC	2006
2gfqC	2006
2ggcA	2006
2ghjB	2006
2gibA	2006
2gixD	2006
2gj3A	2007
2gjhA	2006
2gkpA	2006
2gleA	2007
2glgA	2006
2gm8C	2006
2gmyA	2006
2gpeD	2007
2gtrA	2006
2gu9A	2006
2gumA	2006
2guzA	2006
2gwmA	2006
2gx1A	2006
2gyqA	2006
2gz4A	2006
2gzvA	2006
2h1eB	2007
2h3oA	2006
2h54B	2008
2h7zB	2006
2h8eA	2007
2h98A	2007
2h9eC	2007
2hacA	2006
2hazA	2006
2hcjA	2006
2hd3L	2006
2hd9A	2006
2hdiB	2007
2hdvB	2006
2hdzA	2007
2heqA	2006
2hewF	2006
2heyT	2006
2hf1A	2006
2hfgR	2006
2hfrA	2007
2hg7A	2006
2hgoA	2007
2hh3A	2007
2hinB	2007
2hj9C	2006
2hjnA	2006
2hl0A	2006
2hljA	2006
2hmqA	1992
2hnuA	2007
2ho0A	2006
2ho2A	2007
2hoxB	2007
2hpjA	2007
2hq8B	2006
2hqtA	2006
2hrvA	2000
2hs1A	2006
2hsbA	2006
2hthB	2006
2htsA	1995
2hueB	2006
2hw4A	2006
2hykA	2007
2hz5B	2007
2hzdA	2006
2hzmH	2006
2i1tA	2006
2i2qA	2006
2i3fA	2006
2i3sB	2007
2i45A	2006
2i5fA	2007
2i5hA	2006
2i5iA	2006
2i5oA	2007
2i5uA	2006
2i5vO	2007
2i61A	2006
2i68A	2006
2i7gA	2006
2i7rA	2006
2i9fA	2007
2i9nA	2007
2ia1B	2006
2ia9C	2006
2ibaA	2007
2ibgG	2006
2iboA	2006
2ic2A	2006
2ictA	2006
2idlB	2006
2ifaF	2006
2ifoA	1994
2ig6B	2006
2igrA	2006
2ih3C	2006
2ihxA	2007
2iiaA	2007
2ilnI	2007
2im8A	2006
2imlA	2006
2imsA	2006
2imuA	2007
2innL	2007
2iqyA	2007
2iu5B	2006
2ivyA	2006
2iy2B	2007
2izxB	2006
2j016	2006
2j11A	2007
2j1rA	2006
2j3wC	2006
2j59R	2007
2j5hA	2006
2j5iB	2006
2j6dA	2007
2j72B	2006
2j8aA	2007
2j8bA	2007
2j8xD	2006
2j98B	2007
2j9uB	2007
2j9wB	2007
2ja9A	2006
2jbaB	2007
2jbxA	2007
2jc4A	2007
2jcqA	2007
2jd3A	2007
2jdjA	2007
2je2A	2007
2je6B	2007
2je6I	2007
2jfrA	2007
2jg0A	2007
2jgbA	2007
2jhqA	2008
2jk3B	2008
2jkuA	2008
2jlmD	2009
2jmkA	2007
2jmlA	2007
2jmoA	2007
2jmpA	2007
2jngA	2007
2jnvA	2007
2jovA	2007
2joxA	2007
2jpkA	2008
2jqtA	2008
2jr1A	2007
2jrbA	2007
2jssB	2008
2jttC	2008
2jtwA	2008
2ju0B	2007
2juaA	2008
2juiA	2008
2jv2A	2007
2jvxA	2008
2jwnA	2007
2jx5A	2007
2jxcB	2008
2jxfA	2008
2jy0A	2008
2jyeA	2008
2jypA	2008
2jz6A	2008
2jz7A	2008
2jz8A	2008
2k0aA	2008
2k0nA	2008
2k13X	2008
2k1aA	2008
2k29A	2008
2k2dA	2008
2k2uB	2008
2k37A	2008
2k3jA	2009
2k4fA	2008
2k4jA	2008
2k4uA	2008
2k58B	2008
2k5cA	2008
2k6lA	2009
2k6pA	2009
2k6sA	2009
2k85A	2009
2k8fB	2009
2k9jB	2009
2k9pA	2009
2ka4B	2009
2ka6B	2009
2kakA	2009
2kbiA	2008
2kbqA	2009
2kbvA	2009
2kbwB	2009
2kd3A	2009
2kdgA	2009
2kdpA	2009
2kduB	2009
2kegA	2009
2kelA	2009
2ketA	2009
2kfkA	2009
2kgqA	2009
2kguA	2010
2khfA	2009
2khuA	2010
2ki9A	2009
2kisA	2009
2kj3A	2010
2kjeB	2009
2kjiA	2009
2kjmA	2010
2kjnA	2010
2kkiA	2010
2kl7A	2009
2kldA	2009
2klzA	2010
2kmcA	2009
2kn7A	2010
2knnA	2010
2kp0A	2010
2kpaA	2010
2kpeA	2010
2kr1A	2009
2krkA	2010
2kslA	2011
2ktcA	2011
2kumA	2010
2kv5A	2011
2kw0A	2011
2kwzA	2011
2kxjA	2011
2kxwB	2011
2ky8A	2011
2kyaA	2010
2kyjA	2011
2kyrA	2010
2kyuA	2010
2kzgA	2010
2kzqA	2011
2l0eA	2010
2l1lB	2011
2l1nA	2010
2l1qA	2010
2l1wB	2010
2l2iB	2011
2l2rA	2011
2l37A	2011
2l4eA	2011
2l5tA	2011
2l6qA	2011
2l7pA	2011
2l7yA	2012
2l9uA	2011
2l9zA	2011
2la0A	2012
2la2A	2011
2ld7A	2011
2le3A	2011
2lg5A	2012
2lhrA	2012
2li5B	2011
2li8A	2011
2licA	2012
2lidA	2012
2ljwA	2011
2lknA	2012
2llfA	2012
2llhA	2012
2llvA	2012
2llzA	2012
2lnjA	2012
2lnmA	2012
2lnvA	2012
2lorA	2012
2lpbB	2012
2lq0A	2012
2lq6A	2012
2lqlA	2012
2lqtA	2012
2lqvA	2012
2lqxA	2012
2lr5A	2012
2ls2A	2012
2ls3A	2012
2ltlA	2012
2ltpA	2012
2luaA	2012
2lugA	2012
2luvA	2012
2lv9A	2012
2lvfA	2012
2lx0A	2012
2lydA	2012
2lydB	2012
2lz0A	2012
2lzeA	2012
2mcmA	1993
2mev2	1990
2mlpA	1998
2nlsA	2006
2nlvB	2006
2nnuA	2007
2npiD	2006
2nptA	2006
2nqdA	2007
2nqwA	2006
2nrkA	2006
2nuhA	2007
2nutC	2007
2nvaF	2007
2nvjA	2007
2nvmA	2006
2nwfA	2007
2nx2A	2006
2nx6A	2007
2nzzA	2007
2o16A	2006
2o1cA	2007
2o1mA	2006
2o27B	2007
2o2aD	2006
2o35B	2007
2o38B	2007
2o3gA	2007
2o6kA	2006
2o6pB	2007
2o8aJ	2007
2o8kA	2007
2o99A	2007
2oaiA	2007
2obpA	2007
2octA	2007
2od4A	2007
2odkA	2007
2odmB	2007
2ofcA	2007
2ofrX	2008
2oh1A	2007
2oieA	2007
2oj6E	2007
2okmA	2008
2olmA	2007
2omoA	2007
2onrA	2007
2ooiA	2007
2opcA	2007
2opeC	2007
2opiA	2007
2oq6A	2007
2oqzA	2007
2osaA	2007
2osxA	2007
2otuA	2007
2ovcA	2007
2ovgA	2008
2ovuA	2007
2ox7C	2007
2oxgF	2007
2oxlA	2007
2oyaA	2007
2p02A	2007
2p04A	2007
2p06A	2007
2p09A	2007
2p0aA	2007
2p0kA	2007
2p13A	2007
2p17A	2007
2p1mA	2007
2p3fN	2007
2p3pB	2007
2p51A	2007
2p5tE	2007
2p63A	2007
2p7vA	2007
2p8iA	2007
2p92A	2007
2p9rB	2007
2p9wA	2007
2pbdV	2007
2pbqC	2007
2pcoA	2008
2pd2A	2007
2pdoG	2007
2peiB	2007
2pf4E	2007
2pfwB	2007
2pieA	2007
2pmuA	2008
2pnvA	2008
2pnzB	2008
2posA	2008
2pp6A	2007
2pqiB	2008
2ptvA	2007
2pu9B	2007
2pv1A	2007
2pw8I	2007
2pybA	2008
2pzzD	2007
2q04D	2007
2q2iB	2008
2q3gB	2007
2q5cA	2007
2q5wD	2008
2qa7B	2008
2qcpX	2007
2qe8B	2007
2qfaA	2007
2qfaB	2007
2qfaC	2007
2qfjA	2008
2qg6A	2007
2qg8A	2007
2qhlD	2008
2qiyB	2007
2qiyC	2007
2qk1A	2007
2ql2D	2008
2qmoA	2007
2qmqA	2007
2qngA	2007
2qolA	2007
2qomB	2007
2qpwA	2007
2qq0A	2007
2qq8A	2007
2qsaA	2007
2qskA	2007
2qswA	2007
2qtdA	2007
2qvkA	2007
2qw8A	2008
2qzcB	2007
2qztB	2008
2r1aA	2008
2r2aB	2007
2r2nA	2007
2r31A	2008
2r41D	2007
2r4iA	2007
2r6vA	2007
2r77A	2007
2r8uB	2008
2ra2A	2007
2rafB	2007
2rb5A	2008
2rbdB	2007
2rccC	2007
2rczB	2007
2rdgA	2007
2rdkB	2008
2rdpA	2007
2rfrA	2007
2rh2A	2008
2rh3A	2008
2rhkC	2008
2rilA	2007
2rj2A	2008
2rklA	2008
2rldE	2007
2rmrA	2008
2rmsB	2008
2rn9A	2007
2rngA	2008
2rocB	2008
2rowA	2008
2rpsA	2009
2rr9C	2011
2rreA	2011
2sasA	1993
2tnfA	1999
2uuyB	2007
2uuzA	2007
2uv4A	2007
2uvpD	2007
2uxqB	2008
2uxwA	2007
2uxyA	2007
2v1mA	2009
2v1nA	2007
2v1oA	2007
2v1tA	2007
2v31A	2008
2v3gA	2007
2v4xA	2008
2v51E	2008
2v57B	2009
2v6kA	2008
2v6yB	2007
2v76A	2008
2v79A	2008
2v7fA	2007
2v8qB	2007
2v9mA	2008
2vacA	2007
2vb8C	2007
2ve8A	2008
2vgmA	2008
2vgxA	2007
2vh1B	2008
2vifA	2007
2vjeA	2008
2vjtA	2008
2vlaA	2008
2vlgD	2008
2vlqB	2008
2vndA	2008
2vo9A	2008
2vpbA	2008
2vpkA	2008
2vqpA	2009
2vqrA	2008
2vriA	2009
2vs0B	2008
2vshB	2008
2vt8B	2008
2vvwA	2008
2vxeA	2008
2vxsD	2009
2vxtI	2009
2vxzA	2009
2vy4A	2009
2vzcB	2008
2w0iA	2008
2w0tA	2009
2w2wL	2009
2w4rA	2009
2w4sA	2009
2w56A	2010
2w6aA	2009
2w6pB	2009
2w72A	2009
2w7aA	2009
2w7sA	2010
2w7zA	2009
2w82B	2009
2w8mB	2009
2w8xB	2009
2w9jA	2009
2wasC	2009
2waxB	2009
2wb6A	2009
2wbrA	2009
2wfiA	2009
2wiqB	2009
2wj5A	2009
2wj9B	2010
2wjvE	2009
2wk1A	2009
2wltA	2009
2wlvA	2009
2wp0D	2009
2wq1A	2009
2wtsA	2010
2wujA	2010
2wweA	2009
2wx4A	2009
2wytA	2010
2wz1B	2009
2wz7A	2010
2wzbA	2010
2x2uA	2010
2x46A	2011
2x48A	2010
2x55A	2010
2x5xA	2010
2x8rA	2010
2x9gC	2010
2x9oA	2011
2x9qA	2010
2x9zA	2010
2xczA	2010
2xdgA	2010
2xdpA	2010
2xeuA	2010
2xfdA	2010
2xfrA	2010
2xioA	2010
2xjpA	2010
2xmjA	2010
2xnqA	2010
2xolA	2011
2xomA	2010
2xppA	2010
2xs2A	2011
2xtkA	2011
2xtpA	2010
2xtsD	2010
2xttA	2010
2xtyB	2010
2xu8A	2010
2xvoA	2010
2xwvA	2011
2xz4B	2011
2xz8A	2011
2y0oA	2011
2y1bA	2011
2y3cA	2011
2y3nB	2012
2y4yA	2012
2y69J	2011
2y6kA	2012
2y72A	2011
2y7lA	2011
2y8cB	2012
2y8fB	2011
2y8tB	2011
2y9mB	2011
2y9uA	2011
2yayA	2011
2ydaA	2012
2yevC	2012
2yg2B	2011
2yh9C	2011
2yhcA	2011
2yhoA	2011
2yivX	2012
2ykzA	2011
2ytvA	2008
2yveA	2008
2yvmA	2008
2yvqA	2008
2yvrA	2008
2ywwA	2007
2yx8A	2008
2yxmA	2007
2yz8A	2008
2z14A	2007
2z26A	2007
2z3qD	2007
2z57B	2008
2z5bB	2008
2z5iI	2008
2z84A	2008
2zbiB	2008
2zc2A	2007
2zc3A	2008
2zcmA	2008
2zd7B	2008
2zfdB	2008
2zglA	2009
2zjqO	2008
2zjsE	2008
2zk9X	2009
2znrA	2008
2zptX	2008
2zpuA	2009
2zrrA	2009
2zsiB	2008
2zu0D	2009
2zweA	2009
2zx0A	2009
2zxeG	2009
2zxyA	2009
2zzdB	2009
3a02A	2010
3a07B	2009
3a0mE	2010
3a1aA	2009
3a1jA	2009
3a6qA	2010
3a77A	2010
3a7oF	2009
3a9jC	2009
3aeiA	2010
3agcB	2010
3ajeA	2011
3ak0A	2011
3amnB	2011
3aonA	2011
3arcF	2011
3arcH	2011
3arcM	2011
3arcY	2011
3aslA	2012
3au4B	2011
3ayxD	2011
3b08K	2011
3b0bC	2012
3b0dW	2012
3b0fA	2011
3b0tA	2011
3b1fA	2011
3b1sA	2012
3b35A	2007
3b4rA	2008
3b4sA	2007
3b5oA	2007
3b7xA	2007
3b8eB	2007
3balA	2007
3bbbC	2008
3bbzA	2008
3bc1F	2008
3bddA	2007
3bdiA	2007
3be4A	2007
3be8B	2008
3bf4B	2007
3bfoA	2007
3bguA	2007
3bhpC	2007
3biyA	2008
3bkrA	2008
3bl2A	2008
3bl5A	2008
3blnA	2007
3blzA	2007
3bnwA	2008
3bojA	2008
3bonA	2008
3bpnC	2008
3bqaA	2008
3bqpA	2008
3br8A	2008
3brvA	2008
3bs1A	2008
3bt3A	2008
3bu2A	2008
3bvuA	2008
3bwyA	2008
3by9B	2008
3bzyB	2008
3c02A	2008
3c1qB	2009
3c1uA	2008
3c2qA	2008
3c2uB	2008
3c3mA	2008
3c5kA	2008
3c5oA	2008
3c5tB	2008
3c5xC	2008
3c6aA	2009
3c6cA	2008
3c6wA	2008
3c7xA	2009
3c8gD	2008
3c8lB	2008
3c8zA	2008
3c9qA	2008
3ca7A	2008
3caaB	1998
3cafA	2009
3cbwB	2008
3ccgA	2008
3cfiA	2009
3cg6A	2008
3chbD	1998
3ci0I	2008
3ci5G	2008
3ci9A	2009
3cjhA	2008
3cjhB	2008
3cjxA	2008
3ckmA	2008
3cl3E	2008
3clkB	2008
3coqA	2008
3cp5A	2008
3cp7A	2009
3cpsB	2008
3cr3A	2008
3cs5A	2008
3ct9A	2008
3ctrA	2008
3cu9A	2009
3cvjC	2008
3cw2N	2009
3cx5I	2008
3cxeB	2008
3cz6A	2008
3cz8A	2008
3czyB	2008
3d06A	2009
3d0fA	2008
3d0jA	2008
3d1bB	2009
3d1pA	2008
3d2qD	2008
3d2wA	2009
3d32B	2008
3d33A	2008
3d36C	2009
3d3mB	2008
3d55B	2008
3d5bJ	2008
3d5rC	2008
3d8lA	2009
3d9jB	2008
3da8B	2009
3daqA	2008
3dbkA	2009
3dcmX	2008
3ddcB	2008
3ddtC	2008
3ddvA	2008
3df0C	2008
3dfeC	2008
3dfxA	2008
3dhxA	2008
3di2A	2009
3dj9A	2008
3djnB	2008
3dlqR	2008
3dn7B	2008
3do9B	2008
3dqgC	2008
3dr0A	2009
3dr4A	2008
3dr9A	2009
3drfA	2009
3drzA	2009
3ds1A	2008
3ds8A	2008
3dsbA	2008
3dsoA	2009
3dssA	2008
3duhA	2008
3dwaE	2008
3dx5A	2008
3dxeB	2008
3dxlA	2009
3e1eA	2008
3e1iA	2009
3e48A	2008
3e5aB	2008
3e5uA	2008
3e8tA	2008
3e8vA	2008
3e8yX	2009
3e95C	2008
3eabF	2008
3eabL	2008
3eafA	2008
3ebtA	2008
3ec6A	2008
3ef4A	2008
3eg4A	2008
3eggD	2010
3egnA	2009
3egrB	2008
3eikB	2009
3einA	2009
3eixA	2009
3elkA	2008
3elnA	2008
3emfA	2008
3enuA	2009
3enzC	2009
3eo6A	2008
3epzB	2008
3eqzA	2008
3erbA	2009
3ermA	2008
3es4A	2008
3etnA	2008
3eu8A	2008
3ew0A	2009
3eyiB	2009
3eytD	2008
3eziD	2008
3f0dB	2008
3f0uX	2009
3f1pB	2009
3f43A	2008
3f4sA	2009
3f5cB	2008
3f5hB	2009
3f65G	2009
3f67A	2008
3f6qA	2008
3f6vA	2008
3f7qA	2009
3f7sA	2008
3f8bA	2008
3f8hA	2008
3f8kA	2009
3f8lA	2009
3f8xC	2008
3f9kB	2009
3fauA	2009
3fbiA	2008
3fblA	2009
3fcxA	2008
3fdlB	2009
3fdrA	2009
3fh1A	2008
3filA	2009
3fj2A	2009
3fk8A	2009
3fkaA	2009
3flhC	2009
3floB	2009
3fmuA	2009
3fmyA	2010
3fn2A	2009
3fq4B	2009
3fqdB	2009
3fs3A	2009
3fsaA	2009
3ft7B	2009
3fttA	2009
3fuyA	2009
3fwkA	2009
3fx0A	2009
3fynA	2009
3fz4A	2009
3fzwA	2009
3g0mA	2009
3g2bA	2009
3g3kB	2009
3g46A	2009
3g4eA	2010
3g67B	2009
3g74F	2009
3g7rB	2009
3g8iA	2009
3g9gA	2009
3g9yA	2009
3gbwA	2009
3gcgB	2009
3ge2A	2009
3geaB	2009
3giuB	2009
3gj4D	2009
3gliO	2009
3glvA	2009
3gm5A	2009
3gneA	2009
3gnzP	2009
3gp6A	2010
3gr0C	2009
3grcB	2009
3grdB	2009
3gs2D	2010
3gv3A	2010
3gw9A	2009
3gwnA	2009
3gxhA	2009
3gxvD	2010
3gzaB	2009
3h0dA	2009
3h0oA	2010
3h1hU	2009
3h3hB	2009
3h3mB	2009
3h5jA	2010
3h5nD	2009
3h6pD	2009
3h6rA	2009
3h79A	2009
3h7hA	2009
3h7iA	2010
3h86B	2009
3h87C	2009
3h8aE	2010
3h8dD	2009
3h8dF	2009
3h8kB	2009
3h8zA	2009
3h9cA	2009
3h9mA	2009
3ha4A	2010
3hakA	2010
3hbwA	2009
3he5A	2010
3hf5C	2009
3hfeB	2009
3hfoA	2009
3hfwA	2010
3hglA	2009
3hhwA	2009
3hieA	2010
3hilA	2009
3hkzG	2009
3hlpA	2010
3hlxA	2010
3hmcA	2010
3hmsA	2010
3hnaA	2009
3hp4A	2009
3hp7A	2009
3hrdG	2009
3hrlA	2009
3hroA	2009
3ht1A	2009
3htyC	2009
3hvzA	2009
3hx8A	2009
3hxfB	2009
3hxiA	2009
3hymA	2009
3hynA	2009
3i06A	2009
3i1aA	2010
3i3qA	2009
3i4zB	2009
3i7mA	2009
3i9fB	2009
3iabB	2010
3ib4A	2010
3icxA	2009
3id4A	2009
3idwA	2010
3ie4A	2009
3if4A	2009
3igmA	2009
3ihsB	2009
3iiuM	2009
3ilhA	2009
3ilwA	2009
3iohA	2010
3iolB	2009
3iprA	2009
3iq2A	2009
3iqcB	2010
3irvA	2009
3isgA	2009
3isxA	2009
3iu6A	2009
3iuwB	2009
3iv3A	2009
3ivvA	2009
3iwfB	2009
3ixsA	2010
3jqoL	2009
3jqwA	2010
3jrnA	2009
3jscA	2009
3jvbA	2009
3jvoA	2009
3jxoA	2009
3k06B	2011
3k0lB	2009
3k0xA	2009
3k1eB	2009
3k2yD	2009
3k3cA	2010
3k63A	2009
3k67A	2009
3k6gB	2010
3k6gE	2010
3k7bA	2010
3k7cA	2009
3k9wA	2009
3ka5B	2009
3ka8A	2010
3katA	2009
3kb5A	2009
3kbhE	2009
3kdeC	2009
3kdpG	2010
3ke7B	2009
3kepA	2009
3kfdJ	2010
3kffA	2010
3kgkA	2010
3kh0B	2009
3khqA	2010
3kikE	2009
3kjjI	2009
3kjlB	2009
3kkgA	2009
3kkqA	2010
3klrA	2010
3km3A	2009
3kmiA	2009
3kmpA	2010
3kn3A	2009
3kojB	2009
3kpeA	2009
3kpeB	2009
3kqiA	2010
3kr3D	2010
3kstB	2009
3ksuA	2009
3ktwB	2010
3ku3B	2010
3kucB	2010
3kuuB	2009
3kuvB	2010
3kxeA	2010
3kxyX	2010
3ky7A	2009
3kyjA	2010
3kysC	2010
3kyzA	2010
3kz5E	2010
3l1nA	2010
3l1wA	2010
3l1xA	2010
3l2hD	2009
3l32B	2010
3l3xA	2010
3l41A	2010
3l46B	2010
3l4aA	2011
3l74T	2010
3l7tA	2010
3l9aX	2010
3l9tA	2011
3latA	2010
3lccA	2010
3lcnC	2010
3ldzA	2010
3ledA	2010
3lf5A	2010
3lgbB	2010
3lgoA	2010
3lhiA	2010
3lhoA	2010
3lhqA	2010
3lhxB	2010
3limA	2010
3ljkA	2010
3ljwB	2010
3lkxB	2010
3ll2A	2010
3lloA	2010
3lo3A	2010
3lo8A	2010
3lofE	2010
3lpeA	2010
3lqbA	2010
3lqvQ	2011
3lqwA	2010
3lsgE	2010
3luuA	2010
3lvyA	2010
3lw3B	2010
3lw8E	2010
3lwcA	2010
3lwsF	2010
3lwxA	2010
3lybD	2010
3lynA	2000
3lyxB	2010
3lzeA	2010
3m03C	2011
3m05C	2010
3m0dC	2010
3m0zD	2010
3m1eA	2011
3m1vC	2010
3m1xA	2010
3m3pA	2010
3m4wH	2010
3m73A	2010
3m7aA	2010
3m7oA	2010
3m8eB	2010
3m9iA	2010
3mayH	2011
3mb2F	2010
3mcbB	2010
3md7A	2010
3mduA	2011
3me5A	2010
3mfbA	2010
3mfxC	2010
3mgjB	2010
3mhpC	2010
3mhsE	2010
3mi9C	2010
3mj0A	2011
3mjdA	2010
3mjgA	2010
3mk6C	2010
3mkoA	2011
3ml1B	2011
3mm5A	2010
3mmhB	2010
3mnmA	2010
3moeA	2010
3mpcA	2010
3mqhA	2010
3mraA	1998
3msrA	2010
3mstA	2011
3msuB	2010
3msxB	2011
3mtsC	2010
3mw6A	2010
3mwzA	2010
3mx7A	2011
3mxzA	2010
3mz2A	2010
3mzzA	2010
3n01A	2010
3n06A	2010
3n08A	2010
3n1eA	2010
3n1fC	2010
3n2nF	2011
3n3fB	2010
3n44A	2010
3n4jA	2010
3n4rA	2010
3n65B	2011
3n6yA	2010
3n70F	2010
3n8uB	2010
3nbcA	2011
3ndsA	2010
3nedA	2010
3neqA	2011
3nfcF	2011
3nggA	2010
3nheA	2010
3nilA	2010
3nirA	2011
3njcB	2010
3njjA	2010
3nklA	2010
3nnqA	2010
3no0A	2010
3npdA	2010
3nphB	2011
3nreA	2010
3nrpA	2011
3ns6A	2010
3ntvB	2011
3nufA	2010
3nulA	1997
3nv0A	2011
3nw4A	2011
3nzeB	2010
3nznA	2010
3o0aA	2010
3o0fA	2010
3o12A	2010
3o21B	2011
3o22A	2010
3o27B	2011
3o2iB	2010
3o46A	2010
3o5wB	2011
3o5yB	2010
3o6qD	2010
3o6wA	2010
3o8qB	2010
3o94A	2011
3oa2A	2010
3oajA	2010
3oamA	2010
3oblA	2010
3obqA	2010
3od3A	2011
3od8A	2011
3oeeI	2010
3of5B	2011
3ofgA	2011
3og5B	2010
3oghB	2010
3ogiA	2010
3ogpA	2011
3oheA	2010
3oiiB	2010
3oiqA	2010
3oj0A	2010
3okqA	2011
3oljA	2011
3op9A	2010
3oqpB	2010
3orkA	2010
3oseA	2010
3ossC	2011
3ouwB	2010
3ov5A	2011
3p02A	2010
3p04B	2010
3p5tL	2010
3p8kA	2011
3pa6B	2010
3pbjB	2011
3pe6A	2011
3peyA	2011
3pggA	2011
3pgzA	2010
3ph0C	2011
3phtA	2011
3phxB	2011
3piwA	2011
3pjpB	2010
3plfB	2010
3pluA	2011
3plwA	2010
3plxA	2010
3pm7B	2010
3pmkN	2011
3pn3A	2011
3pnrB	2011
3po8A	2011
3pplA	2010
3psmA	2010
3pu8B	2011
3pw3A	2010
3q0hA	2011
3q27A	2011
3q46A	2012
3q63F	2011
3q64A	2011
3q6aA	2011
3q7rB	2011
3q8kA	2011
3q90A	2011
3qb1D	2012
3qb8A	2012
3qdhA	2011
3qdrB	2012
3qkrC	2011
3qkwC	2011
3qm9A	2012
3qmbA	2011
3qn1B	2011
3qooA	2011
3qoqD	2012
3qorA	2011
3qp1A	2011
3qpzC	2011
3qr7A	2012
3qsdA	2011
3qteA	2012
3qu5A	2011
3qx1B	2012
3qxvE	2011
3qzbA	2011
3qzyA	2012
3r1pB	2011
3r24A	2011
3r27A	2011
3r2qA	2012
3r3rA	2011
3r41A	2011
3r62B	2011
3r84E	2011
3r87A	2012
3r9eB	2011
3r9mA	2011
3rccF	2011
3rd4A	2011
3rd5A	2011
3reaC	2011
3rh3A	2011
3rhbA	2011
3rhiA	2011
3rivA	2011
3rjtA	2011
3rkcA	2011
3rkoA	2011
3rl5A	2011
3rlbB	2011
3rloA	2012
3rlsB	2011
3rmhA	2011
3rnqB	2011
3ro3A	2012
3robA	2011
3rofA	2011
3rpdA	2011
3rpjA	2011
3rqtA	2011
3rriA	2011
3rtlA	2011
3rwnC	2011
3ry1B	2011
3ry8A	2011
3s63A	2012
3s6eA	2011
3s6pG	2012
3s81A	2011
3s8iA	2011
3s8kA	2011
3s8pB	2011
3s8sA	2011
3s8wA	2011
3s90C	2011
3s9dC	2011
3s9jA	2011
3s9xA	2011
3saoA	2011
3sbmA	2011
3sbtA	2011
3seeA	2011
3sf4D	2011
3sf5B	2011
3sgfJ	2012
3sgrA	2012
3sibA	2011
3sjrA	2011
3sk2A	2011
3sl9F	2012
3slzA	2011
3smqA	2011
3smvA	2012
3sojB	2011
3sozA	2011
3sp4B	2011
3sqzA	2012
3sriB	2012
3ssaB	2012
3ssbI	2011
3sscA	2012
3sssA	2012
3sukA	2012
3sv1B	2012
3sxxC	2012
3szhE	2012
3szvA	2012
3t10A	2012
3t1eE	2011
3t2cA	2011
3t47B	2011
3t4nA	2011
3t63M	2012
3t6aA	2011
3t6oA	2011
3t7yA	2011
3t8kA	2011
3t90A	2012
3t97B	2011
3ta6A	2011
3tc8A	2011
3tdnA	2011
3tefA	2012
3teqA	2012
3teuA	2012
3tiwA	2011
3tj8B	2011
3tk0A	2012
3tloA	2012
3towA	2012
3tp2B	2012
3tq7B	2012
3tqmC	2011
3tqnA	2011
3trdA	2011
3ts3A	2011
3tshA	2012
3tuoD	2012
3tvh4	2012
3tvjA	2012
3tweA	2012
3txsC	2011
3tygA	2011
3u01A	2011
3u22A	2012
3u23A	2011
3u28C	2011
3u2bC	2011
3u3gD	2012
3u4vA	2011
3u5cD	2011
3u5cQ	2011
3u5cZ	2011
3u5eB	2011
3u5eF	2011
3u5eI	2011
3u5eY	2011
3u65B	2012
3u7iA	2011
3u7zB	2011
3u80A	2011
3u97A	2012
3u99A	2012
3uawA	2012
3ub6A	2012
3ubyB	2011
3uc9A	2012
3ufeA	2012
3ui4A	2011
3uipD	2011
3ukjA	2011
3uknA	2012
3ultA	2012
3uo3A	2011
3urcA	2012
3uv4B	2012
3uwlA	2012
3uwsB	2012
3ux2A	2012
3uzqB	2012
3v0rA	2012
3v16A	2012
3v22S	2012
3v22V	2012
3v2cY	2012
3v2eM	2012
3v2iA	2012
3v2uA	2012
3v39A	2012
3v3lB	2012
3v4qA	2012
3v4yD	2012
3v67B	2012
3v69B	2012
3v6oA	2012
3v7bB	2012
3v7pA	2012
3va4B	2012
3vcfB	2012
3vdjA	2012
3vhjA	2012
3vhsB	2012
3vi6A	2011
3viqB	2012
3vk0A	2012
3vk6A	2012
3vmxA	2012
3vn3A	2012
3vp9A	2012
3vupA	2012
3zqiA	2011
3zqmI	2011
3zqwA	2012
3zr8X	2011
3zrgA	2011
3zrxB	2011
3zskA	2011
3zvsA	2012
3zwlE	2011
3zxcB	2012
3zxoA	2011
3zy2A	2011
3zy7A	2011
3zyiB	2011
3zzoA	2012
3zzyA	2011
4a02A	2012
4a0dA	2012
4a0eA	2012
4a29A	2012
4a2vA	2011
4a34A	2011
4a41A	2012
4a56A	2011
4a5nA	2012
4a6hD	2012
4a8xA	2012
4a94C	2011
4aanA	2012
4ab0B	2012
4ad9A	2012
4adzA	2012
4ae5D	2012
4ae7A	2012
4affA	2012
4aghA	2012
4aj5Z	2012
4annA	2012
4ap8D	2012
4aqrD	2012
4as8A	2012
4ascA	2012
4ashA	2012
4aw7A	2012
4axoB	2012
4ay0B	2012
4ayaA	2012
4aybF	2012
4b0mA	2012
4b19A	2012
4b1vM	2012
4b5oA	2012
4b9kA	2012
4bbkA	2012
4cpaI	1982
4d9oB	2012
4dacA	2012
4deyB	2012
4dh9Y	2012
4dhxB	2012
4dm5A	2012
4dmiB	2012
4dncB	2012
4dncE	2012
4dndA	2012
4dpoB	2012
4drrA	2012
4dsdA	2012
4dvcA	2012
4dziA	2012
4dznA	2012
4e15A	2012
4e4rA	2012
4e5xH	2012
4e6kG	2012
4e71A	2012
4e8jA	2012
4edhA	2012
4eetD	2012
4eguA	2012
4eh1A	2012
4eiyA	2012
4ekfA	2012
4ekuA	2012
4emoA	2012
4ep4A	2012
4eqbA	2012
4eqpA	2012
4es1A	2012
4esqA	2012
4evuB	2012
4evyB	2012
4exjA	2012
4exoA	2012
4exwC	2012
4eybB	2012
4f14A	2012
4f18A	2012
4f2mE	2012
4f4lD	2012
4f6mA	2012
4faoD	2012
4feeB	2012
4fflA	2012
4fhrA	2012
4fmhL	2012
4frfB	2012
4fu3B	2012
4fxeD	2012
4g2eA	2012
4g3oA	2012
4g4sK	2012
4g4sP	2012
4g6fP	2012
4g7nB	2012
4g92A	2012
4ga2A	2012
4gb5A	2012
4gcoA	2012
4gdhB	2012
4gh9A	2012
4gi3C	2012
4gipA	2012
4gjtB	2012
4gjzA	2012
4gnrA	2012
4go6A	2012
4gq4A	2012
4gs3A	2012
4gxtA	2012
4gxwA	2012
4gznC	2012
4gzrB	2012
4gzvA	2012
4h0cB	2012
4h14A	2012
4h4nA	2012
4h61B	2012
4h63H	2012
4h63V	2012
4h6cF	2012
4h7pA	2012
4h89A	2012
4hcjA	2012
4he6A	2012
4heiB	2012
4hkiH	2012
4htlA	2012
4sbvC	1985
9paiB	1999
1a1iA	1998
1a3pA	1998
1a6bB	1999
1aa2A	1998
1abzA	1998
1ahsA	1996
1aiwA	1998
1apyB	1996
1atxA	1991
1auyA	1998
1ayfA	1998
1b0nB	1999
1b64A	1999
1b93C	1999
1bd3D	1999
1bh1A	1999
1bh8A	1999
1bkjA	1999
1bolA	1998
1bp3B	1998
1bx7A	1999
1bzgA	1999
1c4qA	2000
1c6vX	2000
1c7kA	2001
1cbyA	1996
1cd3B	1999
1cdyA	1997
1cfwA	1999
1cidA	1993
1cjwA	1999
1clvI	2000
1cyxA	1996
1d3bG	1999
1danU	1997
1dfwA	1999
1dl2A	2000
1dokA	1997
1dxyA	1997
1e58A	2001
1eajB	2001
1eciA	1995
1eitA	1996
1ejpA	2001
1epuA	2000
1erpA	1993
1euvA	2000
1ezgA	2000
1f08A	2001
1f8vD	2000
1fc3A	2000
1fdfA	2000
1fe0B	2001
1ffkR	2000
1fgyA	2000
1fjgQ	2000
1fr5A	1999
1fryA	2002
1fs1A	2000
1fsgA	2000
1fxdA	1993
1g2yB	2001
1g8jD	2000
1gd2I	2000
1gheB	2003
1gotG	1997
1gp8A	1999
1gvnA	2003
1gweA	2002
1gwmA	2003
1gxrA	2002
1gxuA	2002
1gyfA	2000
1h0xA	2002
1h41B	2003
1h4gA	2002
1h98A	2001
1hcnB	1994
1hkyA	2002
1hmjA	1999
1hstA	1993
1i8nA	2001
1icnA	1994
1icvA	2001
1ie6A	2003
1ifpA	1998
1iieA	1999
1ik9C	2001
1io0A	2002
1iooA	2002
1iruL	2002
1isfA	2002
1it2A	2002
1iuqA	2003
1j75A	2001
1j98A	2001
1jb0I	2001
1jb0X	2001
1jbeA	2001
1jl0A	2001
1jm1A	2002
1jmvD	2001
1jqsB	2001
1k5cA	2002
1k5rA	2001
1k9cA	2002
1ka8A	2002
1kj6A	2002
1kv4A	2002
1kxlA	2002
1kzqA	2002
1l0iA	2003
1l2hA	2003
1l2wJ	2002
1lc5A	2002
1lm8C	2002
1lovA	2002
1lpbA	1994
1lqtA	2002
1lqvA	2002
1lupA	2002
1m1eB	2002
1m5nQ	2003
1mc2A	2002
1mftA	2004
1mijA	2002
1mkkA	2002
1motA	2003
1mqsB	2002
1mr1D	2003
1mwqA	2003
1mzkA	2003
1n0sA	2003
1n81A	2003
1n8kA	2003
1nc7D	2003
1ng7A	2003
1nnhA	2004
1nteA	2003
1nuwA	2003
1nwwA	2003
1nwzA	2003
1nypA	2003
1o7iA	2003
1octC	1994
1oe4A	2003
1oewA	2003
1ofcX	2003
1ombA	1993
1onkA	2004
1op4A	2004
1p9gA	2004
1pb5A	2003
1pkhA	2003
1pkvA	2004
1pm4A	2004
1pocA	1993
1pp7U	2003
1pq4A	2003
1pqhA	2003
1pugC	2003
1pxvA	2003
1pyoD	2003
1pyvA	2004
1q0rA	2003
1q40C	2003
1q8lA	2004
1qdpA	1998
1qeyA	1999
1qj4A	1999
1qk6A	1999
1qqfA	2000
1qw2A	2004
1r2mA	2004
1r5sA	2004
1r77B	2005
1r7lA	2004
1r8uA	2004
1r8uB	2004
1rh6B	2004
1rkiA	2005
1rroA	1993
1rsoA	2004
1rssA	1998
1rz4A	2004
1s68A	2004
1s94A	2004
1sauA	2005
1sc3A	2004
1sfpA	1998
1sgfA	1998
1sghB	2004
1sh1A	1991
1sknP	1998
1ss3A	2004
1sx5B	2004
1syqB	2004
1syyA	2004
1t50A	2004
1t61B	2004
1t82B	2004
1tafA	1996
1tb7A	2004
1tbxB	2004
1tc1A	1999
1tiiC	1996
1trlA	1995
1txuA	2004
1u1zE	2004
1u61A	2004
1u69D	2004
1uadC	2003
1uf5B	2004
1ufiD	2004
1uglA	2003
1uj8A	2005
1unqA	2004
1uptH	2003
1urfA	2003
1urrA	2004
1uscA	2003
1uslD	2004
1uv7B	2004
1uz3A	2005
1v76A	2004
1vf6D	2004
1vi4A	2003
1vpmA	2004
1vr8A	2005
1vs6M	2006
1vs6X	2006
1vsy3	2010
1vyiA	2004
1w1nA	2005
1w23A	2004
1w53A	2004
1w7cA	2006
1wf1A	2004
1wfkA	2004
1wilA	2004
1wixA	2004
1wljA	2004
1wlpA	2005
1wpuA	2005
1wsoA	2004
1wwcA	1999
1wzaA	2006
1x2iA	2005
1x82A	2004
1x8dA	2005
1x9bA	2004
1xg8A	2004
1xk4C	2005
1xpiA	2005
1xqoA	2004
1xs8A	2005
1xt5A	2005
1y66A	2005
1y93A	2005
1yg9A	2005
1ymtA	2005
1yn3A	2005
1ypyA	2005
1yumA	2005
1yyvB	2005
1z23A	2005
1z3eA	2005
1z6hA	2006
1z8mA	2005
1zaqA	1996
1ze2B	2005
1zgkA	2005
1zjrA	2005
1zkkB	2005
1zl0B	2005
1zmaA	2005
1zs3A	2005
1zu4A	2006
1zv1A	2005
1zw0A	2005
2a2vA	2005
2a7oA	2005
2acaA	2005
2agyH	2006
2ah1A	2006
2ahmG	2005
2ar3B	2006
2askA	2006
2b0lA	2006
2b19A	2006
2b5lD	2006
2b9dA	2005
2b9sB	2006
2bh1X	2005
2bkmA	2006
2bl0A	2005
2bnuA	2005
2bo9B	2005
2bptB	2005
2bscA	2006
2byeA	2006
2c0wA	2005
2c3vB	2005
2c5kT	2006
2c5zA	2005
2cg9X	2006
2ch8D	2006
2ckzD	2006
2cl2A	2006
2cmeE	2006
2co8A	2005
2czdB	2006
2czqA	2006
2czrA	2006
2d0oD	2006
2dc3A	2006
2debA	2007
2diiA	2006
2djfB	2006
2ds2B	2007
2ds5B	2007
2dvwB	2007
2dwvA	2007
2dzrA	2007
2e2sA	2007
2e2zA	2007
2e6vA	2007
2ebnA	1995
2ecvA	2008
2eddA	2008
2elfA	2008
2enpA	2007
2esyA	2005
2ezeA	1997
2f3jA	2006
2f40A	2005
2f69A	2006
2f76X	2006
2fbiA	2005
2fe5A	2005
2fk4A	2006
2flhB	2006
2fmnC	2006
2fs2A	2006
2fu2A	2006
2g2qA	2006
2g84A	2006
2gagD	2006
2gaoB	2006
2ghvE	2006
2giaG	2006
2gj4A	2007
2gktI	2007
2go8A	2006
2gpfA	2007
2gqjA	2006
2gslA	2006
2gtjA	2007
2guiA	2007
2h09A	2007
2h28A	2006
2h4mD	2006
2h4oA	2006
2h7dB	2007
2hbaA	2007
2hhgA	2006
2hkuB	2006
2hkxB	2007
2hlgA	2008
2hm3A	2007
2hn8A	2006
2hqlF	2007
2htgA	2006
2hueC	2006
2hw0A	2007
2hy5C	2006
2hzqA	2007
2i39E	2006
2i4rB	2006
2i8dA	2006
2ia7A	2006
2iayA	2006
2idaA	2006
2imjA	2006
2iykA	2006
2j0sT	2006
2j4wD	2007
2j5dA	2007
2jaeA	2007
2jdqE	2007
2jenA	2007
2jerD	2007
2jjuB	2008
2jncA	2007
2jodB	2007
2jonA	2008
2jozA	2007
2jp6A	2008
2jqhA	2007
2jr7A	2008
2jx1A	2007
2jyaA	2007
2k0rA	2008
2k14A	2008
2k2yA	2009
2k44A	2009
2k4xA	2008
2k59B	2008
2k9hA	2009
2kaeA	2009
2kc6A	2009
2kcnA	2009
2kd2A	2009
2ke4A	2009
2ke7A	2010
2kghA	2009
2kifA	2009
2kjxA	2010
2kkrA	2010
2kmuA	2010
2kmzA	2011
2kneB	2009
2knuA	2010
2konA	2009
2kqbA	2010
2ks1B	2010
2ks9A	2010
2kseA	2010
2kt5B	2011
2ku3A	2011
2kuyA	2011
2kvhA	2010
2kvrA	2010
2kw3C	2010
2kxoA	2010
2kybA	2010
2l0rA	2010
2l27B	2010
2l35B	2010
2l5fA	2011
2l5oA	2010
2l6oA	2010
2l7zA	2011
2laiA	2012
2lboA	2011
2lc3A	2011
2le2A	2011
2liyA	2012
2ll1A	2012
2ll3A	2012
2lnaA	2012
2lomA	2012
2lq2A	2012
2lr8A	2012
2nr7A	2006
2nvqF	2006
2nx7A	2007
2o23A	2006
2o5hA	2007
2o7aA	2007
2o8xA	2006
2o95A	2007
2oaaB	2007
2ob0C	2006
2oc5A	2007
2odbB	2007
2ofqA	2007
2oggA	2007
2oikC	2007
2osdA	2007
2ot4A	2008
2ourB	2007
2oy9A	2007
2ozbA	2007
2p0nA	2007
2p1bA	2007
2p22D	2007
2p26A	2007
2p5kA	2007
2p5mA	2007
2pc1A	2007
2pg1J	2007
2pkdA	2007
2plxB	2007
2ppiA	2007
2pttB	2007
2pv9C	2007
2pzhA	2008
2q30A	2007
2q8vB	2008
2qb7B	2007
2qe9B	2007
2qesA	2008
2qgsA	2007
2qikA	2007
2qjvA	2007
2qkhB	2007
2qm2A	2007
2qorA	2007
2qs7A	2007
2qsbA	2007
2qsxA	2007
2qtpA	2007
2qtvD	2008
2r01A	2007
2r2cB	2007
2r5oB	2007
2ra9A	2007
2raqB	2007
2rbbA	2007
2rbgA	2008
2rddB	2007
2rf9C	2007
2rgvA	2008
2rlwA	2008
2rp4A	2008
2uwqA	2007
2uy7B	2007
2uz0B	2007
2v1qB	2008
2v5tA	2008
2v7qJ	2007
2v8tA	2007
2v94B	2008
2v9vA	2007
2vc8A	2007
2vclA	2008
2vhaB	2008
2vn5D	2008
2vpbB	2008
2vrdA	2008
2vuwA	2008
2vwaA	2008
2vx8C	2008
2vxqA	2009
2vyoA	2008
2w2gB	2009
2w2hC	2008
2w6bA	2009
2w7rA	2009
2wbvD	2009
2wkdA	2009
2wlcA	2009
2wn2B	2010
2wqiA	2009
2wtgA	2010
2wuhA	2009
2wuqA	2010
2wx3C	2009
2wy3D	2010
2wzr3	2010
2x1fA	2010
2x2vA	2010
2x36A	2010
2x3gA	2010
2x4jA	2010
2x5pA	2010
2xa6A	2010
2xcmE	2010
2xdyA	2010
2xgrA	2011
2xhfA	2011
2xiwA	2011
2xovA	2010
2xpcA	2011
2xqqD	2011
2xr6A	2011
2xrhA	2011
2xtcB	2011
2xu6A	2010
2y1tC	2011
2y39A	2011
2y43B	2011
2y4nB	2011
2y5pA	2011
2y78A	2011
2y8nB	2011
2yeoA	2011
2yfaB	2012
2yhgA	2011
2yiuB	2011
2ylnA	2011
2yu6A	2007
2z0tB	2007
2z2sG	2008
2z7fI	2008
2zi0B	2008
2zibA	2008
2zivB	2008
2zouB	2008
2zugA	2008
3a2zA	2010
3a57A	2010
3a71A	2010
3a98A	2010
3a9fB	2010
3aa0A	2010
3aarA	2010
3aj4A	2011
3ajdA	2010
3ajmA	2010
3aljA	2011
3alrD	2011
3arcJ	2011
3ayjB	2011
3b1bB	2011
3b4uB	2007
3b5nG	2007
3b8fC	2007
3bbpD	2008
3bd1C	2008
3bdvB	2007
3bnyC	2008
3bpqD	2008
3bs6A	2008
3buuA	2008
3bv8A	2008
3bveF	2009
3bwuD	2008
3c0dA	2008
3c6vB	2008
3c8xA	2008
3c95A	2008
3cc9C	2008
3cfyA	2008
3cgxA	2008
3cl6A	2008
3clmA	2008
3cnhB	2008
3colA	2008
3cpfA	2008
3cqzL	2008
3csrA	2008
3ctpA	2008
3cu2A	2008
3cx5C	2008
3cz9A	2008
3d0tD	2008
3d3bA	2009
3df8A	2008
3dhaA	2008
3dhgF	2008
3djjA	2008
3dl3A	2008
3dlcA	2008
3dm8A	2008
3dnjB	2008
3dqyA	2009
3dxkG	2009
3dxrB	2008
3e10B	2008
3e19A	2008
3e7kA	2008
3e7lD	2008
3e9cA	2008
3ea6A	2009
3edoB	2008
3eliA	2008
3engA	1997
3eu3A	2009
3eunA	2009
3eurA	2008
3eusB	2008
3eviA	2009
3f1nA	2009
3f2iA	2008
3f3xA	2009
3fbiD	2008
3fdeA	2009
3ff5A	2008
3ff7C	2009
3fghA	2009
3fgvA	2008
3fs5A	2009
3fwbB	2009
3fymA	2010
3g07F	2009
3g0kA	2009
3g36A	2009
3g5tA	2009
3g7zC	2009
3g80A	2010
3g8kA	2009
3g9oB	2009
3gaeA	2009
3gahA	2009
3ge3A	2009
3ggyA	2009
3gj3B	2009
3glaB	2009
3gqqD	2009
3gvoA	2009
3gz7A	2009
3h05B	2009
3h3lC	2009
3h4nA	2009
3h7hB	2009
3hhtB	2009
3hiaA	2009
3hlsF	2010
3hnxA	2009
3hp0B	2009
3hqxA	2009
3htnA	2009
3htuB	2009
3hxjD	2009
3hy3A	2009
3hzpA	2009
3i1eA	2009
3i5rA	2010
3ibwA	2009
3ic3D	2009
3igsB	2009
3iicA	2009
3im4B	2010
3im4C	2010
3imkA	2009
3iqtA	2009
3irbB	2009
3iu5A	2009
3iufA	2009
3ixsB	2010
3j26N	2012
3judA	2010
3jvlA	2009
3k1hA	2010
3k2aA	2010
3k2dB	2010
3k6iA	2010
3k7uC	2010
3kavD	2009
3kb9A	2010
3kbrA	2009
3kevA	2009
3ktaD	2010
3ku7A	2010
3kwuA	2010
3kxtA	2010
3l4hA	2010
3laqA	2010
3ldcA	2010
3lduA	2010
3lhkC	2010
3ljdA	2010
3lk4C	2010
3lluA	2010
3lrqD	2010
3lteI	2010
3lucA	2010
3lv4B	2010
3m20A	2010
3m92B	2010
3m9qA	2010
3md1B	2010
3meaA	2010
3mg1A	2010
3mlqF	2010
3mmyH	2010
3mn2A	2010
3mqpB	2010
3mseB	2010
3mswA	2010
3mvsA	2010
3n8bB	2010
3n9sA	2010
3nbmA	2010
3ne0A	2010
3npfB	2010
3nybB	2010
3nycA	2010
3o3xA	2011
3o48A	2011
3o6pA	2010
3o6zA	2011
3o7aA	2010
3obeB	2010
3oe3F	2010
3oiqB	2010
3oj6A	2010
3ollB	2010
3oopA	2010
3oqiB	2011
3ovuA	2011
3p45D	2011
3p4eA	2010
3p51A	2010
3p52A	2010
3pctC	2011
3pg7A	2010
3pkvA	2011
3pmcA	2011
3pnpA	1999
3pp2A	2010
3pt3A	2012
3pucA	2011
3q2uA	2011
3q4rA	2011
3q8gA	2011
3qh6A	2011
3qijA	2011
3ql9A	2011
3qm3A	2011
3qthB	2011
3qurA	2011
3qwmA	2011
3qwoC	2011
3qzmB	2011
3qzrB	2011
3r48B	2011
3r5tA	2012
3r6dA	2011
3r6fA	2011
3r9vB	2011
3rbgB	2011
3rcpA	2011
3rkgA	2012
3rm3A	2012
3rpfC	2011
3rppA	2011
3rt2A	2011
3rznA	2012
3s5tA	2011
3s83A	2011
3s8fC	2011
3shgA	2012
3sqfA	2011
3t0yD	2012
3t5sA	2011
3t5xA	2012
3t5xB	2012
3t7kA	2012
3t7lA	2011
3t7zA	2012
3t8jA	2012
3t9gA	2012
3tcqA	2012
3td3H	2011
3tdqB	2011
3tj5B	2011
3tknB	2012
3tmpA	2012
3tr3A	2011
3trtB	2012
3tvqA	2012
3tytA	2011
3tzgB	2011
3u1jB	2011
3u1uB	2012
3u28B	2011
3u43A	2012
3u5cO	2011
3u5eM	2011
3u5eO	2011
3ucaB	2011
3ue5B	2012
3ulbB	2012
3utmC	2012
3uv9A	2012
3uwsA	2012
3uyg5	2012
3v1aA	2012
3v46A	2012
3v4kA	2012
3vcxA	2012
3vlaA	2012
3vusA	2012
3zs9C	2011
3zwfB	2011
3zx7A	2012
3zzpA	2011
4a1sC	2012
4a3zA	2012
4a5uB	2012
4ac1X	2012
4aeqA	2012
4ajpB	2012
4akmA	2012
4ax1B	2012
4aybP	2012
4aybQ	2012
4ayiE	2012
4azzA	2012
4b2sA	2012
4b8xB	2012
4d8bA	2012
4dgwB	2012
4dhc9	2012
4dhxA	2012
4dloA	2012
4do4B	2012
4dokA	2012
4dpzX	2012
4ds7H	2012
4dxrB	2012
4e17B	2012
4e2uA	2012
4e3aA	2012
4e4dR	2012
4e7uD	2012
4ebyA	2012
4efoB	2012
4egdA	2012
4eq8A	2012
4etnA	2012
4eu1B	2012
4evxB	2012
4ew7A	2012
4eziA	2012
4f87B	2012
4f9cB	2012
4fa8E	2012
4fhqA	2012
4ftdA	2012
4fu6A	2012
4fz0N	2012
4g27B	2012
4g2aA	2012
4g2pA	2012
4gekG	2012
4ghgB	2012
4gskZ	2012
4gz1A	2012
4h75A	2012
4hf7A	2012
4mt2A	1993
4sgbI	1990
6rlxB	1993
7ahlA	1998
