id	ASA
1a5k_a	1769.047
1a8l_a	2968.658
1aba_a	1163.826
1anp_a	0.0
1ans_a	552.881
1aol_a	2746.977
1arf_a	430.613
1auu_a	868.028
1b2p_a	1787.673
1b9u_a	1201.499
1bom_b	574.719
1c2a_a	1637.199
1c41_a	2518.242
1c44_a	1579.468
1ci4_b	1271.983
1ci6_a	740.876
1ckx_a	577.985
1co4_a	719.88
1cqk_a	1121.122
1cqy_a	1080.386
1cxq_a	2108.041
1cxy_a	1249.116
1d2i_b	2467.838
1d4t_a	1727.083
1dan_t	1297.64
1dg6_a	1967.593
1dp7_p	1274.028
1dpt_a	2144.087
1dtd_b	1117.827
1duw_a	3106.716
1e0f_i	708.821
1e42_a	3284.604
1e8r_a	889.455
1eca_a	2032.103
1ehs_a	871.872
1erd_a	720.712
1ew4_a	1353.215
1ews_a	780.176
1ezv_h	982.41
1f00_i	3738.075
1f3k_a	984.136
1f3u_b	1154.16
1f4p_a	2150.65
1f53_a	1120.011
1fct_a	877.643
1ffk_x	0.0
1fjg_l	1379.698
1fka_r	799.668
1flt_y	1469.062
1fm0_e	1806.605
1fpn_4	496.133
1ft8_e	1032.852
1g12_a	2083.671
1g1b_a	2551.953
1g1p_a	986.028
1g61_a	3627.439
1g6x_a	877.086
1g92_a	830.554
1gml_a	2252.538
1gmx_a	1467.236
1gng_x	481.833
1gpp_a	3007.664
1gps_a	817.907
1gvd_a	572.248
1gxm_a	3593.639
1h2o_a	1853.029
1h5p_a	1107.583
1h7d_a	1229.651
1ha8_a	855.491
1hnr_a	460.372
1hoe_a	1269.833
1hxr_b	1662.93
1i07_a	711.768
1i0r_a	2345.66
1i24_a	5388.22
1i26_a	776.651
1i85_d	2120.273
1ijy_a	1462.227
1iru_n	2877.521
1iu3_c	1824.562
1ixh_a	3733.822
1ixt_a	563.699
1j2j_b	737.074
1j2l_a	895.027
1j7r_a	857.183
1jb0_k	1337.587
1jbm_d	1206.16
1jc4_a	1579.967
1jd5_a	1148.465
1jdm_a	1268.978
1jei_a	468.308
1jeo_a	3303.628
1jhs_a	2844.082
1jie_a	1561.874
1jmu_a	532.877
1jov_a	4027.773
1jqs_c	0.0
1js1_y	4101.713
1jy2_n	750.947
1jy2_o	615.624
1jy2_p	934.873
1jzt_a	3098.082
1k0t_a	1718.206
1k78_i	723.975
1k8u_a	1425.46
1ki0_a	2039.689
1klo_a	1947.097
1kmx_a	646.48
1kx5_d	1568.313
1kza_2	1588.576
1l6h_a	1354.553
1l6r_a	2936.41
1lfc_a	770.16
1lg7_a	1846.145
1ljm_b	1561.791
1lr7_a	1014.574
1lsl_a	1245.034
1lu0_a	825.017
1lv3_a	836.039
1lyl_b	5273.824
1lyp_a	554.307
1m4f_a	776.442
1m56_d	1312.537
1m8a_a	1236.563
1m93_c	371.836
1m9z_a	1903.331
1mk2_b	353.599
1mm0_a	1055.367
1mox_c	1048.367
1mp1_a	1608.871
1muw_a	3878.849
1mv4_a	649.15
1mxe_e	557.356
1n0w_b	560.491
1n1j_a	1656.31
1n91_a	1442.429
1nau_a	358.843
1ncs_a	462.467
1nd6_b	4028.626
1nf9_a	3121.279
1njq_a	755.184
1nnx_a	1051.026
1no1_a	943.934
1nqj_a	1095.477
1nr4_c	1087.815
1ntm_k	1044.114
1nx4_a	2731.973
1nxm_a	2131.749
1nz0_c	1456.666
1nzi_b	1696.042
1o50_a	2099.765
1o65_c	2603.611
1o8x_a	1726.816
1o9r_c	2050.501
1ob9_a	1783.434
1ojh_a	1076.835
1oqj_a	1487.067
1oqq_a	1896.463
1or7_c	955.845
1ou0_a	3075.309
1ou8_a	1356.83
1p5u_c	1463.079
1p5z_b	3229.499
1p8b_a	701.615
1p94_a	1057.125
1p9d_s	631.427
1pfb_a	748.938
1pfs_a	1027.382
1plc_a	1447.376
1pp9_f	1110.037
1pq5_a	3663.752
1pxq_a	733.695
1pya_a	908.395
1q32_d	6071.623
1q35_a	3782.42
1q67_b	2163.496
1q7l_a	2249.901
1q90_r	634.056
1qb7_a	3356.859
1qop_b	5034.688
1qu0_a	2181.832
1qyp_a	729.69
1r79_a	1391.216
1r7j_a	1385.996
1r9l_a	3310.816
1rfz_d	2330.128
1rhf_a	2287.048
1rjj_a	1890.784
1rju_v	499.88
1rk8_c	403.832
1row_a	1559.005
1rut_x	2626.095
1s5l_l	1012.994
1s72_z	596.053
1sb0_b	577.127
1sen_a	1636.385
1sfk_h	1003.73
1sg7_a	497.268
1sjw_a	1185.907
1stm_a	2201.696
1svf_d	848.692
1t0i_b	2843.497
1t17_a	2103.382
1t3j_a	1065.27
1t5r_f	2215.789
1t9h_a	3382.45
1tgj_a	1705.787
1ti5_a	1083.78
1tjl_a	1563.83
1tm5_i	1050.696
1tm9_a	1980.478
1tu7_a	2494.401
1tvx_b	1138.045
1tyj_a	2077.659
1u02_a	2928.683
1u5f_a	1433.735
1u6l_a	1728.206
1u7i_b	1792.993
1ukk_a	2103.999
1uoz_a	3075.38
1us0_a	4379.836
1utg_a	1096.192
1v8h_a	1149.072
1vdi_a	452.928
1ve0_a	1964.501
1vh5_a	2402.561
1vig_a	958.797
1vio_a	3041.262
1vjq_a	961.095
1vk1_a	2886.998
1vk8_c	1214.709
1vl0_b	3737.829
1vm9_a	1585.903
1vmb_a	1043.389
1vs6_y	1026.783
1w0u_a	674.93
1w2q_a	1258.705
1wg7_a	1623.253
1whn_a	1300.247
1wq6_a	702.032
1wth_d	4419.272
1wwr_d	2843.989
1wy3_a	739.114
1x32_a	747.764
1x41_a	601.959
1x60_a	1476.782
1xdt_r	836.114
1xed_c	1608.415
1xer_a	1424.673
1xil_a	2164.27
1xmk_a	1085.456
1xvs_a	1700.508
1y0n_a	1110.698
1y3j_a	1431.587
1y4e_a	807.071
1y6z_b	3225.619
1y74_b	856.564
1ym0_b	315.162
1z4r_a	2246.934
1z67_a	2336.631
1zba_4	857.081
1zd0_a	2489.105
1zec_a	357.905
1zed_a	5329.547
1zi8_a	3119.402
1zkh_a	1427.136
1zmm_a	1116.632
1znf_a	553.827
1zpv_a	1534.894
1zs4_d	1512.072
2a19_a	2518.909
2a1l_a	3137.307
2a26_a	649.862
2abs_a	5520.873
2agk_a	3211.39
2ah5_a	2738.555
2akf_a	556.441
2al3_a	1124.902
2ao9_i	1572.435
2aql_a	1994.161
2atr_a	2427.324
2axc_a	2933.094
2az0_b	1245.909
2b18_a	2458.018
2bai_a	886.488
2bf9_a	223.485
2bp3_b	1116.983
2bps_a	1276.394
2bw4_a	3595.889
2bwq_a	1541.453
2cb8_a	926.437
2cm5_a	1928.558
2cmw_a	3110.528
2co7_a	1509.11
2cs7_a	601.752
2ct7_a	1023.648
2cu3_a	1080.831
2cws_a	2478.833
2czl_a	4176.958
2d2a_a	1442.779
2d5k_c	2024.721
2d7e_d	1954.499
2d93_a	1765.335
2d9g_a	535.083
2d9w_a	1651.855
2da1_a	408.139
2dag_a	682.098
2ddx_a	3932.952
2dfx_i	1603.025
2dgw_a	908.708
2dkz_a	1084.855
2ds2_a	481.38
2dsy_d	967.777
2dt7_b	954.756
2e0a_b	5037.94
2e5r_a	964.348
2ean_a	1100.173
2ecn_a	905.398
2eem_a	1054.004
2egi_i	1470.996
2ejx_a	1847.295
2eou_a	454.457
2etj_a	3224.52
2ewl_a	1269.382
2ezh_a	877.337
2f0x_d	2185.976
2f2f_c	1646.982
2f4w_a	1830.557
2f5k_f	1019.156
2f5t_x	3333.988
2fbw_c	3107.454
2fcg_f	415.388
2ffc_a	4168.036
2fiu_a	1346.664
2fjc_a	2906.705
2fk8_a	3419.742
2fn3_a	6915.998
2fpe_f	649.431
2fqc_a	616.377
2fte_g	3213.79
2fuf_a	1879.97
2fzv_b	3173.456
2g2c_a	2532.21
2g3v_a	2044.391
2g5r_a	1339.046
2g9p_a	481.185
2gb4_b	3385.977
2gcx_a	1374.267
2gdl_a	668.565
2gec_a	901.784
2gef_b	2501.204
2gey_c	2610.219
2gkg_a	1698.815
2glo_a	670.359
2glz_a	2196.366
2gmg_a	1564.126
2gmw_a	2349.352
2gpi_a	1443.755
2gqt_a	3439.376
2gre_p	3937.525
2gsv_a	1026.872
2guk_b	1504.65
2gut_a	1177.297
2guz_b	833.135
2gwp_a	760.557
2h29_a	2554.147
2h8b_a	854.021
2hc1_a	3420.272
2hdl_a	944.657
2hga_a	1496.854
2hlr_a	1575.675
2hti_a	1699.156
2huj_a	1277.809
2hx5_a	1674.052
2hzc_a	1059.66
2i15_a	2114.429
2i4a_a	1634.394
2ibf_b	461.828
2iim_a	833.992
2iiz_a	2917.396
2ip6_a	1248.921
2iu1_a	2710.253
2iyb_e	1622.101
2j05_b	880.074
2j4m_a	1147.377
2jc5_a	3154.761
2jdc_a	1997.951
2jgs_a	1586.754
2jh1_a	2892.177
2jkh_l	834.517
2jm2_a	647.734
2jmx_b	518.564
2jo8_a	723.202
2jpj_a	461.318
2jro_a	1348.819
2jve_a	1413.066
2jvu_a	1115.701
2jw6_a	842.913
2jx8_a	603.348
2k03_b	372.651
2k1n_a	972.853
2k2w_a	1895.072
2k3c_a	857.875
2k3r_a	1639.97
2k42_b	499.929
2k53_a	1238.689
2k7y_a	548.535
2k84_a	612.919
2kam_a	585.351
2kb8_a	790.496
2kdd_a	996.504
2kdr_x	803.377
2kdx_a	2272.223
2kiw_a	1281.521
2kkc_a	1464.728
2kke_a	744.828
2kkg_a	257.719
2kkv_a	1321.356
2kl5_a	1288.323
2kl6_a	1641.579
2kn8_a	963.884
2kno_a	1499.711
2knp_a	618.812
2kpy_a	629.022
2ksw_a	915.141
2kvf_a	586.053
2kvg_a	618.648
2kvt_a	447.43
2kvx_a	694.508
2kx7_a	1873.603
2kxc_a	892.259
2kxh_b	423.64
2kxn_b	943.571
2kz0_a	1223.234
2kzs_a	1619.739
2l03_a	1426.149
2l0n_a	738.419
2l0z_a	366.546
2l3i_a	788.412
2l48_a	1057.366
2l5b_a	931.301
2l6w_a	1481.251
2l9d_a	1432.65
2lcm_a	495.796
2lcy_a	769.861
2lde_a	609.805
2leh_b	370.035
2lfv_a	1253.981
2li3_a	614.236
2lif_a	890.235
2lix_a	907.973
2lk0_a	658.503
2lmz_a	771.355
2lo0_a	659.508
2lpb_a	952.482
2lqk_a	891.446
2lri_c	919.154
2lw4_a	1596.779
2m0d_a	368.801
2ncm_a	1531.718
2nlr_a	2598.218
2nml_a	1159.847
2nn4_a	1076.534
2nr5_d	907.817
2nxp_h	1861.262
2nxv_a	3060.919
2o02_a	3263.768
2o30_a	1679.683
2o90_a	2326.225
2o9u_x	855.091
2oar_a	2745.416
2ob3_a	4967.61
2ob9_a	1814.073
2oku_a	1686.76
2os5_a	1774.98
2osq_a	951.01
2oug_a	2252.791
2ozj_b	1839.784
2ozy_a	1571.822
2p2e_a	1490.224
2p4f_a	2344.092
2p58_b	917.155
2p5z_x	4425.683
2p74_a	3505.817
2p7o_a	1974.595
2p8g_a	1488.876
2pmr_a	1331.319
2pnd_a	1275.369
2pqr_c	790.89
2pr7_a	2150.321
2q0s_a	3196.319
2q5f_a	3360.566
2q7b_a	1959.412
2qaz_d	1595.156
2qdv_a	1315.586
2qea_c	1599.527
2qed_a	3271.999
2qf4_a	2556.541
2qif_b	1265.926
2qkv_a	1039.954
2qkw_a	1197.238
2qna_b	550.112
2qo4_a	1874.75
2qv8_b	1469.401
2qyw_a	1038.51
2r5x_b	1380.923
2r6q_a	2727.67
2r78_c	1900.815
2r85_a	4260.594
2r8e_a	3409.302
2rc3_b	2050.412
2rfv_a	5517.031
2rod_b	570.458
2tbv_c	5302.593
2tps_b	3040.094
2uur_a	2907.17
2ux9_a	1292.709
2uzg_a	1572.271
2v52_b	4766.337
2v52_m	416.121
2vdu_e	2688.607
2vgo_c	745.444
2vh3_a	1758.183
2vkj_a	1428.834
2vkn_a	580.232
2vpt_a	2460.59
2vsm_a	5534.084
2vy8_a	1914.206
2w1v_a	3855.236
2w1w_a	1997.873
2w4l_a	2454.571
2w50_a	1744.28
2wh7_a	1790.097
2wkb_b	1784.516
2wnf_a	3231.929
2wnv_a	1885.684
2ws9_1	2713.321
2wtm_a	3513.616
2wy7_q	893.039
2wz8_a	1692.393
2x5n_a	2817.227
2x5y_a	2029.15
2x61_a	3139.746
2x7b_a	2109.471
2x9a_a	651.828
2xiu_b	1320.975
2xlk_a	2205.149
2xme_l	2762.945
2xod_a	1722.07
2xqc_d	1957.904
2xsk_a	1232.327
2xtr_a	3542.504
2xu7_b	4342.966
2xvt_c	1148.818
2xxn_a	1820.308
2xy8_b	925.544
2y0n_g	523.677
2y6u_a	4773.792
2yad_f	1707.659
2yc3_a	3388.657
2yfv_c	1126.655
2yh5_a	1402.664
2ylc_a	1164.196
2ysm_a	1621.02
2yvi_a	1647.543
2z4i_a	2071.748
2z6p_a	1770.907
2z72_a	4354.355
2zdp_a	1202.724
2zko_a	948.582
2zqm_a	1744.096
2zt9_e	1456.652
2zw2_a	1430.449
3a1m_a	1438.604
3a2v_a	2922.906
3a4r_b	1132.848
3abd_a	2764.267
3afq_c	1666.685
3agn_a	1072.903
3aih_a	1335.619
3ajb_b	188.679
3ajf_a	1449.722
3akl_c	3681.277
3alu_a	2104.182
3amr_a	2880.841
3arb_a	3753.148
3arc_u	1402.425
3arc_x	1098.822
3awx_b	941.61
3azd_a	696.363
3b5n_e	956.58
3b7c_a	1150.395
3bde_b	1237.311
3bdr_a	2357.232
3be3_b	844.872
3bem_a	2799.657
3bhd_a	2790.417
3bjk_f	2612.915
3bk3_c	1380.858
3bkd_a	958.835
3bpt_a	4858.507
3bsu_a	766.143
3bt4_a	1529.118
3bz1_t	912.779
3cbn_a	1928.602
3cgz_b	1806.307
3cji_d	402.896
3cjs_b	1154.025
3clj_a	2671.249
3cnv_d	2197.558
3cql_a	2451.953
3ct6_b	2138.531
3cwf_a	1474.964
3cxk_a	1480.313
3czq_c	2573.466
3d3b_j	1266.845
3d3s_d	2007.147
3d9x_b	1430.939
3da0_a	1692.189
3dca_a	1224.614
3dcz_a	2149.08
3df6_b	1023.989
3dgb_a	5797.959
3dhz_a	3449.132
3dkm_a	706.99
3dlq_i	2193.22
3dml_a	1078.328
3dou_a	2413.706
3dpl_r	1768.631
3dy0_a	4928.898
3dzz_a	5218.38
3e0x_b	3856.156
3e11_a	1641.501
3e1r_b	833.664
3e21_a	953.336
3e4h_a	863.816
3e7n_g	2349.375
3e8o_a	1738.61
3e8x_a	2692.537
3e9t_d	1531.698
3ej3_b	1218.955
3ej9_a	859.444
3elb_a	3813.084
3es6_b	1999.176
3esl_b	2534.108
3ey6_a	1735.818
3f0h_a	4584.53
3f2e_a	1429.97
3f6q_b	1376.682
3f9u_b	1448.842
3faj_a	1170.268
3fb9_b	1257.569
3fc0_b	1753.342
3fdi_a	2076.755
3feg_a	3912.708
3fij_g	2845.818
3fju_b	1367.935
3fm7_c	574.175
3fm8_b	1540.853
3fne_b	3799.364
3fph_b	3637.942
3frh_a	3746.517
3fsg_d	3334.554
3ftd_a	3287.104
3fzb_j	1708.635
3g12_b	2001.064
3g1j_a	1259.624
3g27_a	1413.204
3g85_a	4110.114
3ga7_a	3669.965
3ga8_a	1186.42
3gdm_b	3546.586
3gix_a	2052.76
3gk5_a	1947.91
3gmx_a	1573.327
3go5_a	3147.147
3goe_a	1189.704
3gu4_a	3512.478
3gwl_b	1553.555
3gy9_a	1792.682
3gyg_b	2517.6
3h31_a	1021.979
3h43_a	1098.832
3h4t_a	5221.729
3h5i_a	2587.769
3h5z_a	4792.751
3h6p_a	1410.47
3h7a_a	3280.989
3h93_a	2145.906
3h95_a	2117.722
3h9x_a	1026.455
3ha2_a	2367.297
3hd2_a	2249.146
3hei_b	1501.435
3him_a	3071.419
3hlz_a	3089.3
3hmz_a	2955.282
3hqa_a	1538.111
3hr6_a	4532.425
3hsm_b	3530.21
3htk_b	1132.054
3htk_c	2515.15
3i0u_b	2614.428
3i2v_a	2244.451
3i31_a	1254.232
3i4o_b	1175.194
3i4p_a	2498.756
3i5w_a	916.214
3i8g_x	89.163
3i96_c	2093.967
3i9v_6	2277.155
3ica_b	3183.664
3icy_a	1743.095
3iez_a	1710.732
3ifq_d	807.63
3ima_b	1476.071
3imm_a	2020.102
3ir4_a	2729.745
3jth_a	2214.032
3jtw_a	2505.855
3jzy_a	1928.843
3k1r_b	1208.253
3kal_b	6667.955
3kcu_a	6074.193
3key_a	3132.099
3kf6_a	1850.355
3kf8_d	1896.016
3kgr_b	1084.938
3kif_a	778.745
3kkf_a	1368.418
3knb_a	1317.326
3kop_a	2133.021
3kqg_b	2043.143
3kup_c	828.314
3kus_b	1165.295
3kuz_a	1714.319
3kvp_a	267.141
3kws_a	3291.208
3l0v_b	2525.153
3l11_a	2041.487
3l18_b	2331.816
3l7w_a	1898.767
3lax_a	1655.607
3le4_a	611.388
3lk2_t	492.273
3llh_a	829.101
3lph_a	480.683
3lqn_a	2415.22
3lu9_c	355.335
3lvk_b	1052.449
3lw6_a	2705.55
3lye_a	3983.246
3m1d_b	1603.437
3m31_a	4353.742
3m8j_b	1665.508
3ma2_b	2040.374
3mbk_a	4053.511
3mjh_b	418.486
3mm5_b	4669.939
3mo8_a	1329.782
3mol_b	2400.636
3mop_k	2169.728
3mvn_a	2016.046
3n0r_a	3761.618
3n4h_a	1933.203
3n53_a	2054.425
3ndd_b	622.181
3ndh_b	2629.22
3nfk_a	1222.741
3ngp_a	948.066
3ngw_a	2936.657
3ni0_b	1286.43
3njr_b	2524.078
3nkh_b	2596.481
3nmr_a	2091.383
3no6_d	2247.112
3nsw_f	1276.217
3nvs_a	6151.522
3nyj_a	1921.956
3nyy_a	2171.81
3nzl_a	923.412
3o1n_a	4089.449
3o2t_a	5552.994
3o8e_d	2778.943
3odn_a	4923.709
3oeo_a	944.35
3okx_a	1580.599
3ol3_b	1430.585
3olo_b	1625.364
3omy_a	988.799
3on9_a	2191.185
3onj_a	1170.007
3onr_a	1340.607
3oov_b	2899.044
3op8_a	1439.739
3os4_b	5186.139
3out_c	4814.113
3p6i_a	834.785
3p73_a	2573.591
3p9y_d	2652.563
3pb6_x	4434.414
3pd7_a	1180.202
3pg6_a	1340.213
3pl7_c	546.203
3pmt_a	871.882
3pr6_a	2883.052
3pvk_a	4569.798
3pz8_h	1190.215
3q30_a	4937.798
3q6c_a	986.876
3q8j_a	822.938
3qav_a	2535.621
3qb7_d	2502.562
3qc0_a	4085.377
3qfi_a	3065.211
3qhb_a	2653.501
3qio_a	2308.246
3qn9_a	1715.904
3qpa_a	2511.23
3qt9_a	4449.933
3r0a_a	1857.746
3r3q_a	2052.206
3r68_a	1254.405
3r84_v	1605.845
3r8j_a	1958.182
3rd7_a	3927.542
3rnq_a	1587.753
3rq7_a	3353.311
3rq9_b	979.061
3s2k_c	1350.637
3s5b_b	2555.508
3sd2_a	1491.614
3sd4_a	636.141
3sgg_a	5349.375
3shg_b	876.371
3shq_a	3535.033
3sp7_a	2295.669
3ssb_c	818.792
3ssu_b	617.583
3swy_a	834.189
3sxj_b	2724.136
3t49_a	1062.004
3t92_a	2161.389
3t98_b	1525.012
3t9o_b	1920.089
3tdu_d	1303.241
3tgn_a	2460.794
3tmg_b	3303.441
3tn2_a	1259.286
3tq2_a	924.532
3tu8_a	2339.605
3u12_b	1499.492
3u1d_a	1516.562
3u5c_a	2734.943
3u5e_g	2914.0
3u5e_n	1899.839
3u5v_a	976.898
3u88_d	1372.494
3uaf_a	1314.185
3ulj_b	839.874
3us6_a	2297.777
3uuw_a	4599.434
3uz6_q	1269.255
3v0d_b	3699.168
3v4h_b	2144.352
3v5r_a	6654.258
3v9o_a	2261.916
3vbj_c	3222.679
3vej_a	733.474
3vem_d	842.475
3vny_a	4833.318
3vpp_a	1972.158
3vqt_d	5959.805
3zqk_a	2345.507
3zua_a	2125.581
3zw5_b	1853.666
3zwh_q	440.49
3zyw_b	1797.421
3zzs_a	1029.601
4a49_a	1419.141
4a5z_b	1924.907
4a8j_e	3378.76
4a8x_b	666.178
4acj_a	1740.684
4af8_a	4457.334
4ajb_a	5369.091
4axg_c	707.342
4az9_b	1567.679
4b4p_b	2040.933
4b4u_a	4718.03
4b6w_a	1114.151
4d9s_b	4795.001
4dhi_b	3176.188
4dkf_b	2797.674
4dl0_g	1188.392
4dov_a	1908.877
4dt4_a	1852.943
4dxz_a	967.409
4e0q_b	1364.492
4eaz_d	440.545
4ebg_a	732.975
4ec7_a	1413.185
4efz_b	3796.004
4eir_a	2932.086
4ejs_c	4320.159
4eq6_b	3578.096
4ers_a	1172.993
4es8_a	3028.919
4etv_b	1310.167
4f55_a	1553.622
4f8b_a	1352.714
4f98_a	508.836
4fjo_d	440.537
4fs7_a	6496.116
4fvs_e	1998.339
4g0m_a	2118.381
4g7x_b	1623.447
4g8s_b	2637.403
4g9s_a	1919.993
4gvq_a	4558.468
4gwb_a	1459.965
4gym_b	1872.387
4h0a_b	3046.131
4h41_b	2960.457
4hb1_a	978.725
4hec_a	1903.051
4hhu_a	2573.501
4hnl_a	4240.015
