id	ASA
1a1ia	1655.3594
1a3pa	711.1904
1a6bb	367.669
1aa2a	1545.4712
1abza	753.3106
1ahsa	2499.5773
1aiwa	1450.9804
1apyb	2266.3357
1atxa	833.3937
1auya	2890.4981
1ayfa	1460.3793
1b0nb	930.051
1b64a	1906.0832
1b93c	2634.8128
1bd3d	3654.9352
1bh1a	502.283
1bh8a	1003.1145
1bkja	3818.8421
1bola	2605.6433
1bp3b	369.4717
1bx7a	1212.1545
1bzga	680.6872
1c4qa	1106.0701
1c6vx	983.4547
1c7ka	1609.8705
1cbya	3972.1078
1cd3b	208.476
1cdya	1957.7724
1cfwa	798.4451
1cida	1952.293
1cjwa	2773.7402
1clvi	682.6146
1cyxa	2575.4789
1d3bg	1420.5439
1danu	1287.8
1dfwa	789.1154
1dl2a	5347.8338
1doka	1656.9511
1dxya	4639.4003
1e58a	3624.4177
1eajb	1814.6897
1ecia	822.8019
1eita	580.021
1ejpa	727.7516
1epua	3203.7014
1erpa	675.6574
1euva	3809.0294
1ezga	780.5706
1f08a	2342.1591
1f8vd	286.4726
1fc3a	1681.6191
1fdfa	673.0531
1fe0b	1008.7883
1fgya	2044.7306
1fjgq	1903.9123
1fr5a	3313.1987
1frya	590.2005
1fs1a	1048.5577
1fsga	3475.7554
1fxda	1007.2951
1g2yb	867.61
1g8jd	2524.5396
1gd2i	45.1271
1gheb	2750.5808
1gotg	1764.982
1gp8a	818.1429
1gvna	1723.6749
1gwea	6984.805
1gwma	2276.5942
1gxra	1585.1389
1gxua	1313.7519
1gyfa	1349.4948
1h0xa	1224.9147
1h41b	3446.119
1h4ga	2251.3922
1h98a	1214.7844
1hcnb	2617.8213
1hkya	1794.6924
1hsta	1169.9633
1i8na	1214.4047
1icna	1839.1146
1icva	4147.8792
1ie6a	440.9046
1ifpa	1354.9607
1iiea	2280.583
1ik9c	701.1097
1io0a	1572.0681
1iooa	2478.9274
1irul	3211.9983
1isfa	3371.7436
1it2a	2056.0503
1iuqa	3267.5812
1j75a	621.3844
1j98a	2091.0713
1jb0i	1406.5991
1jb0x	1044.0974
1jbea	1075.2249
1jl0a	481.5218
1jm1a	3793.151
1jmvd	759.1185
1k5ca	3296.5449
1k5ra	840.8226
1k9ca	1118.3588
1ka8a	1774.314
1kj6a	621.7731
1kv4a	879.7097
1kxla	3269.9187
1kzqa	2880.0707
1l0ia	908.3852
1l2ha	684.4121
1l2wj	1004.8923
1lc5a	4605.8885
1lm8c	700.3737
1lova	1371.7959
1lpba	2014.2225
1lqta	3479.4236
1lqva	2901.1715
1lupa	962.3595
1m1eb	820.0554
1m5nq	451.2567
1mc2a	2319.1111
1mfta	700.3082
1mija	1052.018
1mkka	2189.6467
1mota	595.3237
1mqsb	669.8489
1mr1d	1989.4689
1mwqa	2068.5034
1mzka	1976.1803
1n0sa	3111.2427
1n81a	3078.7885
1n8ka	4740.4103
1nc7d	1766.6016
1ng7a	1703.7262
1nnha	5020.7652
1ntea	1555.3707
1nuwa	4218.5617
1nwwa	2518.335
1nwza	1642.5809
1nypa	1513.3756
1o7ia	1238.2171
1octc	1137.8675
1oe4a	2622.004
1oewa	588.6075
1ofcx	548.3883
1omba	794.3811
1onka	2774.8776
1op4a	2371.1359
1p9ga	918.58
1pb5a	492.193
1pkha	3761.714
1pkva	1189.1895
1pm4a	1621.0749
1poca	2207.1978
1pp7u	1472.4067
1pq4a	1061.6571
1pqha	2192.5672
1pugc	1416.674
1pxva	2360.1598
1pyod	2316.9855
1pyva	1124.9722
1q0ra	3719.3541
1q40c	1812.0631
1q8la	1608.1915
1qdpa	860.3563
1qeya	376.2986
1qj4a	3863.2547
1qk6a	876.9622
1qqfa	4277.8364
1qw2a	1559.6686
1r2ma	1756.8615
1r5sa	2668.2435
1r77b	1492.1479
1r7la	2125.656
1r8ua	1830.8131
1r8ub	1657.1613
1rh6b	1079.23
1rkia	1785.7051
1rroa	1454.6696
1rsoa	742.4601
1rssa	1743.8029
1rz4a	2604.0449
1s68a	3693.896
1s94a	760.9245
1saua	1495.4429
1sc3a	2705.2733
1sfpa	1915.8736
1sgfa	382.1823
1sh1a	957.2274
1sknp	931.3751
1ss3a	950.0937
1sx5b	1396.234
1syqb	751.7347
1syya	4194.4633
1t50a	763.189
1t61b	4116.9474
1t82b	0.0
1tafa	1485.2931
1tb7a	2297.6997
1tbxb	1641.6739
1tc1a	1588.4593
1tiic	592.1705
1trla	787.1398
1txua	2987.5371
1u1ze	1418.4853
1u61a	2069.1013
1u69d	698.9273
1uadc	1176.044
1uf5b	4241.2722
1ufid	910.583
1ugla	1004.9383
1uj8a	939.4593
1unqa	2136.5947
1upth	872.7568
1urfa	1775.2094
1urra	1602.7276
1usca	3293.1895
1usld	2372.8506
1uv7b	1460.1191
1uz3a	1911.923
1v76a	1711.007
1vf6d	960.7703
1vi4a	2035.7833
1vpma	2435.2763
1vr8a	1205.7701
1vs6m	2530.2132
1vs6x	1365.0631
1vsy3	1378.8399
1vyia	1880.7231
1w1na	667.5598
1w23a	4174.766
1w53a	1953.0588
1w7ca	10934.1478
1wf1a	1558.0633
1wfka	1741.1327
1wila	1398.6259
1wixa	1961.6506
1wlja	1778.7619
1wlpa	235.9718
1wpua	2392.5044
1wsoa	761.7243
1wwca	2182.5628
1wzaa	5188.1743
1x2ia	1495.0434
1x82a	3135.8939
1x8da	2143.3683
1x9ba	901.3107
1xg8a	1327.5993
1xk4c	1538.4042
1xpia	887.94
1xqoa	3333.1148
1xs8a	1675.4319
1xt5a	2086.6498
1y66a	1103.252
1y93a	2669.6356
1yg9a	5678.0521
1ymta	520.9017
1yn3a	1196.417
1ypya	2937.6084
1yuma	3002.0983
1yyvb	2178.6091
1z23a	2166.3356
1z3ea	1419.5006
1z6ha	1241.4839
1z8ma	1740.6991
1zaqa	1090.2099
1ze2b	757.418
1zgka	3224.8977
1zjra	3201.2467
1zkkb	2533.366
1zl0b	3719.4384
1zmaa	1471.9092
1zs3a	3401.5291
1zu4a	1336.3056
1zv1a	1404.6456
1zw0a	1628.6091
2a2va	752.8215
2a7oa	950.6579
2acaa	2251.623
2agyh	478.1284
2ah1a	4769.6531
2ahmg	4471.4126
2ar3b	2203.4686
2aska	2059.1723
2b0la	1468.3621
2b19a	802.0337
2b5ld	677.5933
2b9da	1698.8119
2b9sb	1769.1076
2bh1x	1590.6827
2bkma	2143.579
2bl0a	2671.4547
2bnua	3500.7113
2bo9b	2574.6092
2bptb	198.7669
2bsca	539.2301
2byea	1704.1844
2c0wa	1745.6748
2c3vb	844.0735
2c5kt	331.521
2c5za	1010.8618
2cg9x	809.958
2ch8d	2803.0012
2ckzd	1159.1534
2cl2a	3478.1553
2cmee	1941.859
2co8a	1445.0893
2czdb	2576.363
2czqa	3307.1284
2czra	3329.8122
2d0od	1512.2979
2dc3a	2768.058
2deba	7486.4395
2diia	825.0877
2djfb	3832.5554
2ds2b	1281.844
2ds5b	787.2297
2dvwb	1235.535
2dwva	480.2809
2dzra	1061.6088
2e2sa	772.575
2e2za	1640.4338
2e6va	291.9398
2ebna	4297.3656
2ecva	2022.0689
2edda	2213.2544
2enpa	2354.5935
2esya	1019.8533
2ezea	239.7508
2f3ja	3041.4146
2f40a	1567.6953
2f69a	3772.1606
2f76x	2112.8666
2fbia	2455.4033
2fe5a	1353.11
2fk4a	1021.547
2flhb	2221.1219
2fmnc	850.0358
2fs2a	1999.1103
2fu2a	1058.4849
2g2qa	915.4757
2g84a	4024.9531
2gaob	809.6812
2ghve	3736.4671
2giag	2062.2447
2gj4a	3790.4269
2gkti	1123.8754
2go8a	457.5049
2gpfa	1741.768
2gqja	1224.3369
2gsla	1767.712
2gtja	1280.8618
2guia	2935.2443
2h09a	2159.736
2h28a	1818.9156
2h4oa	1358.9854
2hbaa	960.3658
2hhga	1592.4158
2hkub	2180.6881
2hkxb	3142.0483
2hlga	913.5375
2hm3a	455.5565
2hn8a	1212.7295
2hqlf	2098.5025
2htga	818.8233
2hw0a	1147.2965
2hy5c	1583.8908
2hzqa	2729.3967
2i39e	1984.9091
2i4rb	1166.4814
2i8da	2214.0219
2ia7a	2243.5207
2idaa	2005.8308
2imja	2257.3111
2iyka	2415.1734
2j0st	467.2574
2j4wd	755.8063
2j5da	722.8802
2jaea	6183.9086
2jdqe	1016.4052
2jena	2819.3663
2jerd	2996.9961
2jjub	1507.6669
2jnca	1643.4159
2jodb	715.7468
2jona	1863.8537
2joza	2269.3104
2jp6a	578.3278
2jqha	1089.2281
2jr7a	1716.7493
2jx1a	607.2361
2jyaa	1910.8742
2k0ra	2277.9387
2k14a	1527.9527
2k2ya	541.3082
2k44a	704.0219
2k4xa	952.9829
2k59b	691.678
2k9ha	1138.0927
2kaea	1000.6231
2kc6a	929.3467
2kcna	824.7616
2kd2a	1065.8405
2ke4a	1158.4079
2ke7a	898.0549
2kgha	899.3867
2kifa	1643.5414
2kjxa	1012.0632
2kkra	1010.2425
2kmua	593.0105
2kmza	1421.4565
2kneb	530.4874
2knua	670.3757
2kona	1602.3926
2kqba	984.1175
2ks1b	1022.5755
2ks9a	9333.5638
2ksea	1030.6198
2kt5b	640.2886
2ku3a	1738.8533
2kuya	1117.1129
2kvha	295.2915
2kvra	1705.8104
2kw3c	931.6739
2kxoa	1620.3837
2kyba	1037.1869
2l0ra	1252.8674
2l27b	748.472
2l35b	1142.5257
2l5fa	1515.6412
2l5oa	1449.6824
2l6oa	2100.5248
2l7za	1435.6724
2laia	1508.1268
2lboa	1447.8414
2lc3a	1374.0385
2le2a	1319.3122
2liya	883.877
2ll1a	653.355
2ll3a	1373.3975
2lnaa	1187.1551
2loma	1641.4996
2lq2a	704.7455
2lr8a	1328.9282
2nr7a	3093.958
2nvqf	1915.5875
2nx7a	677.1857
2o23a	2292.2484
2o5ha	1473.9947
2o7aa	1274.1856
2o8xa	1788.3604
2o95a	2108.5159
2oaab	3308.0853
2ob0c	2379.1939
2oc5a	2815.9171
2odbb	723.8586
2ofqa	1869.0724
2ogga	2095.804
2oikc	1787.0441
2osda	733.8579
2ot4a	9515.7301
2ourb	2382.9752
2oy9a	1123.3909
2ozba	1617.0054
2p1ba	494.7367
2p22d	2671.1399
2p26a	4145.2275
2p5ka	813.1574
2p5ma	1832.8516
2pc1a	2380.5651
2pg1j	717.9162
2pkda	1596.3737
2plxb	483.013
2ppia	707.3848
2pttb	1650.2936
2pv9c	370.4407
2pzha	2865.7214
2q30a	1613.7038
2q8vb	1192.7183
2qb7b	3958.2107
2qe9b	2572.6982
2qesa	2642.1073
2qgsa	1209.1177
2qika	883.3743
2qjva	3275.4667
2qkhb	909.5415
2qm2a	1518.5311
2qora	2547.2169
2qs7a	1865.1988
2qsba	1428.887
2qsxa	739.4197
2qtpa	1641.7626
2qtvd	816.7915
2r01a	3248.3764
2r2cb	849.2798
2r5ob	3053.2058
2ra9a	2387.8446
2raqb	1277.6344
2rbba	2598.9733
2rbga	1855.5717
2rddb	949.0966
2rf9c	501.6976
2rgva	2728.2047
2rlwa	912.6966
2rp4a	1228.8266
2uwqa	1218.2485
2uy7b	2715.758
2uz0b	604.2066
2v1qb	1140.4449
2v5ta	968.9789
2v94b	2685.839
2v9va	2038.1438
2vc8a	1271.8754
2vcla	612.7249
2vhab	2822.2917
2vn5d	1018.8739
2vpbb	1134.2709
2vrda	1240.6543
2vuwa	4710.7187
2vwaa	1258.2565
2vx8c	345.2889
2vxqa	1051.1025
2vyoa	2418.2092
2w2gb	2484.2972
2w2hc	808.3635
2w6ba	469.0775
2wbvd	3180.664
2wlca	3447.6174
2wn2b	4495.6426
2wqia	1078.8575
2wtga	2645.2372
2wuha	3023.0682
2wx3c	762.288
2wy3d	2259.9326
2x1fa	1562.8227
2x2va	2663.7891
2x36a	851.4842
2x3ga	896.0388
2x4ja	1185.6706
2x5pa	468.9805
2xa6a	725.942
2xcme	1463.6482
2xdya	1960.0984
2xhfa	2234.7393
2xova	5636.1869
2xpca	2909.3694
2xqqd	1490.4193
2xr6a	1978.6566
2xrha	1551.6343
2xtcb	588.7979
2y1tc	402.4672
2y39a	1556.9937
2y43b	2247.265
2y4nb	1224.3149
2y5pa	1668.7186
2y78a	1783.5066
2y8nb	1660.0549
2yeoa	1626.1867
2yfab	3880.7059
2yhga	6602.341
2yiub	1450.4884
2ylna	2743.9325
2yu6a	1525.4911
2z0tb	1522.7916
2z2sg	1240.8219
2z7fi	1219.8783
2zi0b	670.826
2ziba	2944.9439
2zivb	1020.7622
2zoub	1046.8871
2zuga	1079.7122
3a2za	2875.8729
3a57a	2151.0271
3a71a	5726.8765
3a98a	1633.0416
3a9fb	1216.9115
3aa0a	4109.8837
3aara	5926.9365
3aj4a	1888.4213
3ajma	2958.1
3alja	4883.328
3alrd	1294.5015
3arcj	1041.4431
3ayjb	1772.8212
3b1bb	5099.3136
3b4ub	3580.6836
3b5ng	1645.3656
3b8fc	2457.8187
3bbpd	513.461
3bd1c	1250.7097
3bdvb	2265.5351
3bnyc	3412.1572
3bpqd	1505.989
3bs6a	1867.1831
3buua	3130.4864
3bv8a	1841.3049
3bvef	2779.8182
3bwud	2204.9765
3c0da	2076.0104
3c6vb	2198.3023
3c8xa	461.8546
3c95a	2070.076
3cc9c	1388.5402
3cfya	2038.5603
3cgxa	3152.213
3cl6a	4631.1498
3clma	5132.175
3cnhb	2950.9956
3cola	1600.9548
3cpfa	534.2515
3cqzl	603.5216
3csra	3292.7078
3ctpa	3783.9781
3cu2a	3778.1524
3cx5c	10438.7836
3cz9a	2505.1179
3d0td	715.6928
3d3ba	2353.5759
3df8a	1779.9937
3dhaa	3278.6653
3dhgf	1664.0937
3djja	6213.1688
3dl3a	1606.85
3dlca	2531.5172
3dm8a	2428.0472
3dnjb	1414.0962
3dqya	1547.5308
3dxkg	461.865
3dxrb	923.255
3e10b	2352.1835
3e19a	1024.4126
3e7ld	1163.4767
3e9ca	462.2726
3ea6a	2343.6666
3edob	2001.1313
3elia	1641.5518
3enga	2724.8075
3eu3a	2233.9042
3euna	1221.911
3eusb	1290.9685
3evia	1910.5847
3f2ia	433.5103
3f3xa	3116.1749
3fbid	1448.4994
3fdea	3103.2686
3ff5a	659.8326
3ff7c	1697.7498
3fgha	863.668
3fgva	1735.9912
3fs5a	2497.3642
3fwbb	1108.867
3fyma	1010.0908
3g07f	602.4247
3g0ka	2057.0549
3g36a	996.0935
3g5ta	754.8329
3g7zc	1061.7061
3g80a	1372.3075
3g8ka	2206.0831
3g9ob	1440.3801
3gaea	3917.312
3gaha	3138.196
3ge3a	7668.7225
3ggya	3298.1313
3gj3b	497.0509
3glab	1567.8966
3gqqd	900.1622
3gvoa	4177.8767
3gz7a	1531.0529
3h05b	841.6989
3h3lc	917.4318
3h4na	1459.4222
3h7hb	1968.3857
3hhtb	4768.5298
3hiaa	1101.6068
3hlsf	950.0193
3hnxa	1755.1494
3hp0b	3887.15
3hqxa	1744.9722
3htna	2222.9015
3htub	417.6426
3hxjd	785.2705
3hy3a	3073.7597
3hzpa	1830.0215
3i1ea	815.6662
3i5ra	1514.1644
3ibwa	1011.7348
3ic3d	667.0376
3igsb	3089.156
3iica	1745.5147
3im4b	1597.7644
3im4c	817.3533
3imka	2431.5115
3iqta	1615.4931
3irbb	511.1004
3iu5a	1776.998
3iufa	736.4852
3ixsb	446.4825
3j26n	6222.5154
3juda	1596.2122
3jvla	2198.794
3k1ha	2106.9533
3k2aa	1047.0498
3k2db	3322.3506
3k6ia	1465.8932
3k7uc	631.1665
3kavd	2069.1897
3kb9a	5346.7317
3kbra	2060.2876
3keva	1824.1487
3ktad	766.1903
3ku7a	1059.901
3kxta	1180.871
3l4ha	2349.8207
3laqa	2243.136
3ldca	3066.4077
3ldua	2157.2535
3lhkc	1955.9869
3ljda	1745.78
3lk4c	534.8558
3llua	2696.7681
3lrqd	1396.3028
3ltei	1687.6257
3luca	2091.68
3lv4b	5880.6431
3m20a	1170.7635
3m92b	1046.1101
3m9qa	1663.6889
3md1b	1283.0844
3meaa	1255.0313
3mlqf	228.9096
3mmyh	259.6441
3mn2a	1405.8694
3mqpb	685.7854
3mseb	2070.6775
3mswa	2269.9113
3mvsa	3664.5435
3n8bb	935.6857
3n9sa	4258.3256
3nbma	2431.7946
3ne0a	3977.8632
3npfb	5218.3274
3nybb	481.2178
3nyca	4595.3671
3o3xa	3277.5952
3o48a	2308.1326
3o6pa	2331.6546
3o6za	1700.7496
3o7aa	1192.4346
3obeb	1035.4713
3oe3f	1395.6976
3oiqb	618.9843
3oj6a	2249.4196
3ollb	2764.4672
3oopa	1595.217
3oqib	3509.8388
3ovua	1587.3979
3p45d	602.6622
3p4ea	468.4605
3p51a	2589.7645
3p52a	2857.7063
3pctc	3788.0334
3pg7a	3680.6718
3pkva	4441.3249
3pmca	2262.7578
3pnpa	2791.9736
3pp2a	617.0195
3pt3a	842.2907
3puca	1166.7273
3q2ua	3634.8976
3q4ra	1986.4795
3q8ga	4726.1558
3qh6a	980.5226
3qija	1031.4023
3ql9a	2630.9382
3qm3a	2610.7879
3qthb	1272.4684
3qura	1068.9109
3qwma	826.0071
3qwoc	831.8058
3qzmb	1870.8197
3qzrb	2435.4736
3r48b	632.3445
3r5ta	4723.1753
3r6da	3216.2198
3r6fa	2183.2343
3r9vb	800.4716
3rbgb	1562.5422
3rcpa	621.8283
3rkga	4015.3803
3rm3a	1476.2958
3rpfc	1340.6164
3rppa	1067.2967
3rt2a	2181.2828
3rzna	3617.5332
3s5ta	1356.7985
3s83a	1942.3425
3s8fc	920.9058
3shga	3150.068
3sqfa	1492.2175
3t0yd	588.7655
3t5sa	1389.8771
3t5xa	3747.3083
3t5xb	841.8846
3t7ka	1599.0306
3t7la	1886.4889
3t7za	2299.4832
3t8ja	4113.913
3t9ga	2469.4025
3tcqa	3028.6988
3td3h	1541.3173
3tdqb	1205.6964
3tj5b	648.7932
3tknb	743.5146
3tmpa	615.9598
3tr3a	1090.0966
3trtb	829.6056
3tvqa	2539.0638
3tyta	3610.0369
3tzgb	324.1507
3u1jb	2274.2869
3u1ub	560.8405
3u28b	1641.3303
3u43a	1251.2405
3u5co	2019.3383
3u5em	2616.4554
3u5eo	0.0
3ucab	2767.4764
3ue5b	445.3525
3ulbb	667.1275
3utmc	98.2545
3uv9a	3006.0903
3uwsa	1369.5472
3uyg5	1545.1846
3v1aa	613.8394
3v46a	2221.3145
3v4ka	2525.1712
3vcxa	1883.9952
3vlaa	7584.9908
3vusa	2534.1051
3zs9c	484.4332
3zwfb	807.2845
3zx7a	4425.7023
3zzpa	1149.6706
4a1sc	611.9902
4a3za	1684.4526
4a5ub	817.0148
4ac1x	4051.2839
4aeqa	1629.4256
4ajpb	378.4164
4akma	2504.9836
4ax1b	3872.8228
4aybp	1133.042
4aybq	817.7671
4ayie	2572.0816
4azza	2404.9327
4b2sa	2647.9464
4b8xb	1616.3153
4d8ba	3663.7667
4dgwb	1804.5774
4dhc9	426.3293
4dhxa	1482.2941
4dloa	1685.3509
4do4b	5977.3776
4doka	2944.8011
4dpzx	1219.3202
4ds7h	766.0578
4dxrb	638.2828
4e17b	486.7601
4e2ua	2798.0387
4e3aa	4076.402
4e4dr	2708.4669
4e7ud	710.4962
4ebya	3282.3479
4efob	1515.1667
4egda	1140.4354
4eq8a	2613.0726
4etna	1710.0818
4eu1b	5625.6793
4evxb	1729.1247
4ew7a	1973.9818
4ezia	6810.4028
4f87b	1033.8754
4f9cb	294.6563
4fa8e	2144.2634
4fhqa	652.7575
4ftda	6281.2793
4fu6a	871.6356
4fz0n	660.2583
4g27b	188.9732
4g2aa	4706.0506
4g2pa	1703.1032
4gekg	2858.5552
4ghgb	4968.4474
4gskz	1970.2379
4gz1a	3168.2849
4h75a	2031.2013
4hf7a	3012.2884
4mt2a	1248.3654
4sgbi	1216.2879
6rlxb	770.433
7ahla	3755.768
