id	A	C	D	E	F	G	H	I	K	L	M	N	P	Q	R	S	T	V	W	Y
1a1i_A	4	6	5	3	5	3	7	6	5	3	1	1	4	2	15	6	7	1	0	1
1a3p_A	0	4	4	1	0	6	1	2	0	3	1	2	2	1	3	5	2	2	0	4
1a6b_B	2	3	3	2	0	4	1	0	5	1	0	0	5	3	7	1	1	0	1	1
1aa2_A	8	1	9	3	5	3	7	6	10	12	3	8	4	3	2	6	6	4	2	6
1abz_A	7	0	2	6	0	1	0	1	4	5	1	1	0	3	3	1	1	1	1	0
1ahs_A	16	2	5	4	4	15	0	6	0	6	2	7	8	6	9	5	6	16	3	6
1aiw_A	6	2	3	1	0	7	1	1	2	1	1	7	3	3	0	7	4	5	4	4
1apy_B	16	4	6	6	8	15	4	12	8	3	4	6	6	5	5	8	11	9	0	5
1atx_A	3	6	1	1	1	8	0	3	2	1	1	4	2	1	2	4	2	1	2	1
1auy_A	12	4	5	4	5	7	3	15	6	15	3	1	16	10	2	17	23	10	2	3
1ayf_A	5	5	10	7	4	8	3	8	5	12	3	5	1	3	4	3	10	6	0	1
1b0n_B	2	0	1	7	1	0	0	2	2	5	1	2	1	1	1	1	0	2	1	1
1b64_A	6	2	10	7	2	5	0	6	8	8	4	1	2	5	1	6	3	11	2	2
1b93_C	14	1	10	4	4	8	7	10	4	16	6	7	9	7	5	5	10	12	3	2
1bd3_D	15	5	10	20	9	13	1	22	13	20	8	4	10	7	18	9	11	20	1	8
1bh1_A	2	0	0	0	0	3	0	3	3	4	0	0	1	2	2	1	2	2	1	0
1bh8_A	1	1	4	5	3	2	1	4	2	4	4	1	1	1	1	3	3	2	0	2
1bkj_A	21	3	11	13	6	12	5	13	3	19	5	11	7	16	8	13	10	16	0	7
1bol_A	16	10	16	8	6	18	3	7	9	11	4	13	9	5	4	35	15	11	5	17
1bp3_B	0	2	1	2	2	3	0	1	3	1	0	1	5	0	2	1	3	0	2	0
1bx7_A	4	10	1	4	0	6	1	1	6	2	0	3	1	1	2	2	2	3	0	2
1bzg_A	3	0	2	2	2	1	5	3	2	5	0	0	0	2	3	2	1	1	0	0
1c4q_A	4	2	5	3	3	6	1	3	5	5	1	5	1	2	2	3	10	6	0	2
1c6v_X	2	0	3	3	2	6	0	3	10	5	0	2	2	1	5	1	1	5	2	2
1c7k_A	11	2	7	5	3	15	4	3	0	6	1	11	8	11	7	12	8	7	2	9
1cby_A	18	1	9	10	14	5	5	21	12	21	3	21	8	14	2	17	13	22	3	8
1cd3_B	0	0	0	1	0	0	0	0	1	1	1	1	0	2	0	0	1	0	0	0
1cdy_A	4	4	10	9	5	12	2	10	18	21	0	9	6	15	5	19	13	12	3	1
1cfw_A	1	4	2	5	0	6	0	0	3	3	1	1	0	2	0	0	1	6	0	1
1cid_A	8	2	3	17	5	9	0	7	13	20	4	7	9	17	5	20	12	14	3	2
1cjw_A	15	6	4	13	11	12	11	5	1	22	2	3	9	6	12	10	6	13	3	2
1clv_I	0	6	2	1	0	3	0	1	2	0	1	2	4	0	1	2	2	1	1	3
1cyx_A	18	2	7	8	12	8	3	12	10	5	8	8	11	6	3	10	8	10	3	6
1d3b_G	3	3	3	7	1	6	2	8	3	5	2	4	2	3	5	1	5	7	0	3
1dan_U	0	0	3	7	4	3	0	2	2	8	0	5	4	3	4	3	8	6	1	5
1dfw_A	2	2	0	0	1	1	0	4	2	3	1	0	4	1	2	0	0	0	1	1
1dl2_A	18	2	23	24	15	32	12	18	18	42	12	15	11	11	16	33	22	16	7	24
1dok_A	6	4	5	2	2	0	1	6	8	2	2	3	4	5	4	5	5	5	1	2
1dxy_A	28	0	21	19	15	29	10	22	21	30	11	16	12	14	5	11	25	21	3	17
1e58_A	23	0	13	26	6	15	4	9	21	28	2	12	11	6	13	11	11	16	7	12
1eaj_B	6	2	11	6	2	7	2	10	12	12	1	5	7	5	1	8	7	9	1	6
1eci_A	2	3	1	3	0	3	0	4	6	1	0	0	3	0	1	1	3	3	2	1
1eit_A	0	8	2	4	1	2	1	1	1	0	0	4	3	1	3	1	0	1	1	2
1ejp_A	2	0	2	2	1	2	0	1	7	1	1	1	2	0	1	1	1	0	0	3
1epu_A	21	7	17	22	12	8	4	16	15	27	0	10	16	13	13	14	13	14	1	11
1erp_A	1	6	2	4	1	3	1	0	1	4	1	3	4	3	0	2	0	1	1	0
1euv_A	12	3	20	10	11	10	4	18	17	21	7	14	8	9	12	11	14	8	3	9
1ezg_A	8	16	4	1	1	7	1	0	3	0	0	9	2	3	0	7	17	2	0	1
1f08_A	12	5	2	8	13	7	3	4	11	21	4	7	4	7	8	11	10	7	3	1
1f8v_D	0	0	0	1	1	2	0	1	1	2	0	1	0	1	1	2	1	2	1	0
1fc3_A	13	0	4	8	2	5	5	13	10	10	2	5	4	0	6	11	6	8	1	6
1fdf_A	3	0	0	0	3	0	0	2	2	0	2	3	2	1	1	1	1	2	0	2
1fe0_B	3	3	4	5	1	6	2	2	8	8	3	2	2	0	1	5	5	6	0	2
1fgy_A	4	3	7	12	6	7	2	8	11	9	0	6	9	1	10	7	6	7	4	6
1fjg_Q	2	0	4	7	2	6	2	5	15	10	2	1	5	4	11	7	3	13	0	5
1fr5_A	16	2	4	6	5	8	0	6	7	5	2	11	5	3	4	11	9	15	2	4
1fry_A	2	0	0	0	0	5	1	4	3	3	0	0	1	0	6	0	1	2	0	1
1fs1_A	1	3	3	3	1	2	0	1	2	10	0	0	2	0	2	5	0	2	3	1
1fsg_A	9	4	21	14	16	16	7	17	18	20	4	7	10	3	13	14	10	16	1	11
1fxd_A	6	5	8	9	1	1	0	5	1	1	2	3	4	0	1	3	0	7	0	0
1g2y_B	4	0	0	3	0	1	0	1	2	8	1	0	0	3	0	4	1	1	0	0
1g8j_D	18	6	10	4	4	10	2	4	4	8	2	3	10	2	3	12	9	12	0	6
1gd2_I	1	0	0	0	0	0	0	0	1	0	0	1	0	1	2	0	0	0	0	0
1ghe_B	24	3	9	9	5	15	7	2	6	24	0	3	5	9	10	8	7	13	2	6
1got_G	0	2	5	11	2	2	0	1	9	6	2	1	3	1	3	2	2	5	0	1
1gp8_A	7	0	4	1	0	3	0	3	7	2	1	1	0	1	3	2	2	2	0	1
1gvn_A	3	0	2	10	2	0	2	3	7	14	1	11	0	4	4	6	2	9	1	6
1gwe_A	37	0	37	33	25	44	20	17	19	31	7	25	26	23	34	25	37	30	11	17
1gwm_A	7	1	14	9	8	15	7	10	8	9	3	11	6	2	6	11	6	10	3	7
1gxr_A	9	5	8	2	3	13	5	8	5	9	2	6	11	5	5	9	7	10	2	4
1gxu_A	3	3	5	6	5	7	2	4	1	9	0	3	6	7	8	3	3	10	2	1
1gyf_A	2	1	6	4	4	6	0	1	3	3	2	2	4	3	2	3	4	3	3	6
1h0x_A	6	0	3	5	1	5	0	11	8	6	1	4	2	4	8	7	4	13	0	1
1h41_B	34	0	21	9	9	26	8	17	13	39	3	18	17	17	21	18	10	20	7	15
1h4g_A	8	1	8	7	7	24	4	12	9	9	5	22	7	8	8	16	16	14	7	13
1h98_A	4	9	5	9	1	5	2	7	4	2	0	2	8	3	1	2	0	8	1	4
1hcn_B	7	12	4	4	1	7	1	4	3	9	1	4	12	3	10	4	9	12	0	3
1hky_A	11	6	10	4	4	6	0	2	10	7	0	2	1	3	3	8	4	3	0	2
1hst_A	9	0	1	2	1	7	3	6	8	6	1	1	1	4	6	10	2	3	0	3
1i8n_A	3	6	5	10	1	3	2	3	4	6	1	7	4	4	3	7	8	5	4	3
1icn_A	6	0	7	14	8	12	1	7	15	9	3	10	0	3	5	4	10	11	2	4
1icv_A	27	1	17	13	11	11	7	7	18	19	0	8	8	7	7	13	11	20	3	4
1ie6_A	2	6	3	1	0	3	1	0	6	2	0	2	1	0	5	0	1	0	0	0
1ifp_A	6	0	2	0	2	4	0	7	1	3	1	0	0	4	1	1	5	6	1	0
1iie_A	2	0	4	6	3	2	6	1	6	9	5	4	7	2	2	4	4	3	3	2
1ik9_C	1	1	4	2	2	2	0	2	2	2	0	1	0	1	1	2	1	1	0	3
1io0_A	11	1	6	12	5	6	1	9	10	21	6	23	6	6	8	11	11	11	0	2
1ioo_A	8	9	13	8	12	8	6	10	16	16	3	10	11	11	10	9	16	5	4	11
1iru_L	24	3	11	9	4	21	3	10	8	14	6	6	2	5	15	16	9	15	3	17
1isf_A	14	10	20	15	11	13	7	13	15	22	5	10	13	7	15	24	8	13	6	9
1it2_A	6	2	8	10	10	4	2	17	18	13	1	7	7	8	2	13	5	7	2	4
1iuq_A	19	4	18	20	13	15	9	21	15	31	0	15	21	7	15	21	9	15	2	8
1j75_A	1	1	3	3	0	4	0	3	8	7	0	2	4	5	2	4	2	6	1	1
1j98_A	11	3	11	14	7	9	8	9	11	13	4	4	5	6	5	6	9	13	1	4
1jb0_I	3	1	0	2	3	3	0	3	0	5	4	0	3	0	0	2	1	4	2	2
1jb0_X	9	0	0	0	4	0	0	1	0	4	0	1	1	0	1	0	2	2	1	3
1jbe_A	5	0	7	6	4	6	0	3	5	10	3	6	1	1	4	2	2	6	1	1
1jl0_A	0	0	0	3	3	1	1	0	1	2	0	0	0	1	1	1	1	1	1	0
1jm1_A	15	7	12	3	7	21	3	13	6	15	0	9	20	13	4	15	10	15	0	14
1jmv_D	4	0	3	2	1	1	3	5	5	5	1	1	1	0	1	4	0	5	0	1
1k5c_A	27	7	25	3	12	44	7	24	21	14	2	29	10	8	5	21	37	27	3	7
1k5r_A	2	0	4	2	2	2	1	2	2	2	1	1	4	3	2	1	4	1	2	1
1k9c_A	4	0	14	11	0	2	1	4	11	0	1	1	12	1	2	2	1	1	5	1
1ka8_A	5	0	4	6	3	9	2	4	7	13	5	6	5	3	4	4	6	2	1	11
1kj6_A	1	6	0	2	0	5	0	3	6	3	0	1	1	2	7	2	2	2	0	2
1kv4_A	7	0	1	0	2	3	0	5	9	2	0	3	2	0	2	1	2	3	0	0
1kxl_A	7	5	10	13	17	8	2	15	15	14	6	12	6	8	12	13	6	7	0	11
1kzq_A	21	12	11	12	6	18	3	10	20	17	2	10	18	8	3	23	32	21	3	3
1l0i_A	7	0	6	14	2	4	1	6	4	5	2	3	1	4	1	3	6	7	0	1
1l2h_A	1	1	2	4	1	3	1	0	2	6	3	2	1	7	2	7	1	4	1	1
1l2w_J	4	0	1	3	2	5	1	4	0	3	2	2	1	5	5	11	2	4	0	1
1lc5_A	41	8	20	17	11	19	8	22	5	52	5	17	21	16	31	16	14	13	8	11
1lm8_C	2	0	1	2	1	3	2	3	3	3	2	0	1	0	1	4	2	2	0	1
1lov_A	8	4	6	5	4	12	3	2	2	3	0	9	4	2	1	15	6	8	1	9
1lpb_A	4	10	3	6	2	7	2	6	4	9	0	7	1	2	3	8	5	3	0	3
1lqt_A	31	1	24	16	9	21	5	15	8	23	4	6	16	7	16	12	9	27	2	6
1lqv_A	8	3	4	11	10	11	8	5	1	22	1	5	8	16	12	11	13	13	3	7
1lup_A	0	6	1	3	0	1	0	2	3	2	2	1	0	1	3	0	1	1	3	1
1m1e_B	2	0	0	5	1	2	0	1	3	6	3	2	1	4	3	5	2	4	0	2
1m5n_Q	0	0	0	3	0	2	0	0	8	2	0	1	3	2	0	0	4	1	0	2
1mc2_A	4	14	7	7	4	9	2	3	17	8	3	7	4	4	5	6	5	4	2	7
1mft_A	3	0	2	10	0	0	1	3	7	7	1	2	1	3	3	2	1	1	1	3
1mij_A	5	0	1	3	7	0	1	2	7	5	0	4	3	3	4	5	4	4	2	5
1mkk_A	2	6	4	10	4	5	4	8	4	4	5	3	7	6	4	4	3	6	0	4
1mot_A	3	0	0	0	0	3	0	1	1	3	1	0	2	1	2	4	5	2	0	0
1mqs_B	2	0	1	1	1	2	0	1	3	1	2	2	0	2	2	3	1	1	0	1
1mr1_D	6	7	6	6	4	5	6	2	7	10	2	2	4	3	6	6	2	5	2	5
1mwq_A	14	0	6	7	5	4	2	5	6	8	0	5	6	7	4	2	4	8	1	4
1mzk_A	6	0	6	5	2	10	4	7	8	14	1	6	5	3	3	19	8	10	4	1
1n0s_A	8	4	12	10	4	16	6	6	17	5	2	7	7	2	5	14	8	19	6	15
1n81_A	8	2	19	14	6	1	5	19	17	12	3	8	6	5	15	9	6	15	1	15
1n8k_A	28	14	17	21	18	38	7	24	30	25	9	8	20	8	12	26	25	38	2	4
1nc7_D	3	2	5	8	4	9	5	8	9	10	0	5	7	1	5	9	6	8	2	5
1ng7_A	2	2	5	4	0	2	0	6	5	4	1	4	4	5	3	3	3	4	1	2
1nnh_A	19	0	13	37	17	21	4	28	20	22	8	5	18	6	20	12	8	18	6	11
1nte_A	5	1	5	2	3	8	3	11	5	4	3	5	2	2	2	7	9	5	0	0
1nuw_A	27	6	18	19	9	27	4	24	25	28	9	15	15	6	13	19	19	29	0	15
1nww_A	15	0	11	12	7	10	1	7	5	15	4	4	7	4	7	9	10	9	2	6
1nwz_A	9	1	12	7	9	13	2	5	11	7	5	6	4	5	2	5	7	9	1	5
1nyp_A	4	5	1	5	3	8	5	2	4	3	2	2	3	2	5	1	1	6	1	3
1o7i_A	10	0	2	13	2	10	1	7	10	5	2	7	5	6	4	8	10	11	2	0
1oct_C	4	1	4	6	6	5	0	2	8	11	2	4	1	4	3	3	4	1	1	1
1oe4_A	12	7	7	18	13	19	8	8	15	27	5	11	18	12	12	13	8	23	4	5
1oew_A	4	0	6	2	2	3	0	3	0	4	0	1	3	2	0	8	10	3	1	1
1ofc_X	3	0	1	1	1	0	0	0	0	1	0	0	0	0	1	0	0	1	0	1
1omb_A	1	8	1	2	0	5	0	2	2	0	1	1	1	0	3	1	4	0	1	1
1onk_A	17	1	12	11	13	16	4	17	0	25	3	10	12	17	20	21	20	17	2	11
1op4_A	11	2	6	17	6	5	3	4	12	10	1	4	9	9	7	8	6	11	1	4
1p9g_A	5	10	0	0	0	7	0	1	0	1	0	2	2	1	4	3	1	0	0	3
1pb5_A	3	6	3	5	0	4	1	0	1	2	0	3	1	2	0	2	0	1	1	0
1pkh_A	5	2	14	11	8	12	1	20	17	16	1	10	6	5	6	12	9	13	1	13
1pkv_A	4	2	6	6	3	8	4	4	4	9	3	6	2	1	3	3	8	10	1	0
1pm4_A	4	2	9	7	0	12	2	10	10	9	1	10	3	1	3	8	10	7	3	6
1poc_A	4	10	11	5	5	11	7	4	12	9	3	5	5	1	6	10	11	5	2	8
1pp7_U	6	0	6	8	6	5	2	4	10	15	3	7	5	4	8	10	6	5	3	1
1pq4_A	9	0	5	8	2	6	1	6	6	11	3	4	8	6	1	4	3	6	1	3
1pqh_A	15	1	8	8	4	9	4	11	4	5	4	6	2	2	9	6	7	8	2	3
1pug_C	9	1	5	12	1	4	1	4	6	6	5	3	1	6	4	3	3	6	0	0
1pxv_A	12	1	14	9	6	10	11	10	7	14	5	17	7	14	4	12	8	8	4	10
1pyo_D	9	6	4	6	3	6	4	3	6	8	6	2	6	1	8	5	6	4	1	5
1pyv_A	7	0	0	0	1	5	0	2	2	8	0	2	2	3	8	11	0	1	0	1
1q0r_A	40	0	24	17	7	30	14	13	3	34	6	3	23	5	20	15	13	20	5	5
1q40_C	5	1	6	4	8	7	3	5	6	15	0	4	10	14	5	13	8	5	1	3
1q8l_A	5	2	1	7	2	7	2	6	11	5	5	1	3	7	1	5	4	8	0	2
1qdp_A	2	8	1	1	1	3	0	2	6	1	1	3	1	3	1	1	3	0	2	2
1qey_A	2	0	4	3	1	0	0	0	5	4	1	1	0	1	2	1	3	2	0	1
1qj4_A	18	5	14	24	13	17	8	17	23	30	2	6	12	7	4	8	17	14	5	12
1qk6_A	2	6	2	1	1	2	1	0	6	1	0	2	2	0	1	1	1	2	2	0
1qqf_A	29	2	11	20	11	18	2	13	14	32	5	13	12	19	11	12	14	18	5	15
1qw2_A	6	1	7	4	4	12	1	7	9	8	1	6	2	5	2	6	2	10	0	4
1r2m_A	10	8	4	0	2	5	1	4	4	7	0	2	5	3	0	3	6	6	0	0
1r5s_A	13	3	8	4	3	9	2	3	6	6	2	11	14	8	8	20	3	3	1	5
1r77_B	2	0	8	4	2	10	1	4	11	8	2	5	4	2	5	7	11	7	3	7
1r7l_A	8	1	6	5	4	6	1	9	12	7	3	4	5	4	3	5	3	10	1	6
1r8u_A	0	1	5	6	4	2	0	3	2	6	3	1	2	3	2	3	2	4	1	0
1r8u_B	10	9	3	3	0	3	8	3	8	9	2	5	5	8	8	5	5	5	1	0
1rh6_B	2	0	2	5	2	1	1	1	2	5	1	1	4	2	9	3	2	5	2	2
1rki_A	0	6	5	7	3	4	3	13	13	7	1	6	5	1	3	6	2	10	0	6
1rro_A	9	1	15	9	8	6	1	6	7	8	3	2	2	9	2	11	5	2	0	2
1rso_A	2	0	4	6	3	0	1	5	2	9	0	2	0	7	6	6	3	2	0	2
1rss_A	16	1	6	11	3	8	1	6	12	9	5	5	6	9	14	3	2	14	1	3
1rz4_A	15	4	12	14	9	8	5	9	9	25	1	8	4	12	7	5	11	8	4	7
1s68_A	14	6	16	17	16	16	3	14	21	15	5	13	7	4	6	14	11	19	3	13
1s94_A	2	0	4	5	3	1	1	4	4	1	2	1	0	1	1	3	0	3	0	0
1sau_A	7	4	8	12	4	6	2	6	12	11	1	1	10	4	7	1	3	7	3	5
1sc3_A	10	4	10	12	6	10	4	14	14	14	6	8	7	6	8	16	11	9	2	2
1sfp_A	3	4	3	9	2	9	2	9	5	9	3	5	9	5	4	9	5	7	1	8
1sgf_A	3	2	2	0	1	3	2	0	3	4	0	4	1	3	2	1	1	5	3	4
1sh1_A	6	6	5	2	0	4	0	3	5	2	0	1	2	0	2	2	4	1	1	2
1skn_P	4	1	4	6	1	2	1	3	6	7	2	3	1	8	11	8	2	3	0	1
1ss3_A	1	6	6	6	3	2	1	0	9	1	1	3	1	1	0	2	3	2	0	2
1sx5_B	5	1	6	7	3	4	2	12	9	7	0	6	6	3	2	7	6	3	0	7
1syq_B	7	0	0	1	0	2	0	0	1	5	0	0	2	2	1	3	0	1	0	0
1syy_A	16	4	17	28	16	18	8	31	18	33	7	21	11	15	17	10	10	18	6	13
1t50_A	3	6	4	6	1	4	1	4	2	1	2	5	1	7	1	4	5	1	0	0
1t61_B	17	12	4	11	11	16	7	10	5	14	9	9	16	9	13	22	16	9	4	9
1t82_B	0	0	0	0	0	0	4	0	0	0	0	0	0	0	0	0	0	0	0	0
1taf_A	5	0	6	5	2	0	1	4	5	8	1	3	2	3	4	2	5	8	0	3
1tb7_A	16	1	15	14	8	4	12	13	12	28	7	12	4	8	5	10	14	18	1	4
1tbx_B	8	0	3	9	7	4	0	6	12	8	0	2	3	3	3	3	7	3	0	8
1tc1_A	5	3	4	7	6	3	0	6	6	7	2	2	3	0	6	4	3	7	0	4
1tii_C	2	1	2	0	2	0	1	2	5	6	1	3	0	1	1	3	5	0	0	1
1trl_A	8	0	3	1	3	5	0	2	4	5	0	1	1	5	3	6	5	7	0	3
1txu_A	12	8	18	21	12	7	4	21	22	18	0	9	12	12	15	12	16	14	1	11
1u1z_E	6	0	4	7	5	5	3	9	4	7	0	4	7	1	5	1	0	6	0	3
1u61_A	14	0	4	11	3	6	6	5	7	16	0	7	2	6	9	5	7	10	0	8
1u69_D	8	1	2	2	2	0	1	1	1	3	0	1	2	0	1	3	3	2	1	2
1uad_C	3	3	3	3	1	12	1	8	7	8	1	4	6	2	4	7	11	6	2	0
1uf5_B	28	4	12	25	16	26	13	15	12	27	9	9	17	11	20	9	16	20	4	10
1ufi_D	3	0	3	2	3	1	5	2	1	4	3	0	3	1	3	3	2	5	0	2
1ugl_A	0	8	2	3	1	3	1	0	7	4	2	2	1	1	4	4	6	0	0	1
1uj8_A	5	1	11	6	2	3	7	4	3	8	1	1	3	2	2	4	3	2	3	2
1unq_A	5	2	5	14	5	5	2	7	8	7	2	4	6	7	10	3	11	7	4	3
1upt_H	2	0	3	7	3	2	0	2	5	5	0	0	2	2	4	0	6	3	0	2
1urf_A	9	0	4	4	0	4	0	6	7	11	3	4	2	10	5	4	5	2	0	1
1urr_A	6	1	4	8	8	6	4	6	8	5	5	5	2	5	6	4	5	6	2	1
1usc_A	14	1	6	13	11	22	9	2	7	20	1	2	15	3	11	8	5	16	3	9
1usl_D	25	3	9	9	2	15	7	11	4	11	2	4	8	7	11	5	8	9	2	5
1uv7_B	2	0	3	3	2	3	0	7	0	5	0	3	4	9	5	4	2	6	2	1
1uz3_A	7	1	5	10	0	6	2	5	6	14	2	3	3	1	11	11	5	7	2	1
1v76_A	3	0	5	7	3	9	2	11	8	5	2	2	4	0	11	2	4	9	4	1
1vf6_D	2	0	5	2	3	0	3	3	2	7	0	3	0	6	1	5	2	4	0	0
1vi4_A	11	3	13	8	3	15	3	9	9	16	0	8	4	8	6	8	8	16	3	5
1vpm_A	14	0	6	14	4	8	4	6	9	13	0	5	8	4	10	11	17	15	0	4
1vr8_A	4	0	5	8	3	5	6	4	9	5	0	1	3	0	3	3	3	7	1	6
1vs6_M	14	0	3	7	6	13	1	6	16	10	6	2	7	5	14	2	9	11	2	2
1vs6_X	6	0	1	7	1	2	1	0	6	12	2	4	0	6	6	3	2	4	0	0
1vsy_3	3	1	4	6	3	0	4	4	3	9	1	3	4	3	5	9	3	4	1	6
1vyi_A	9	1	8	8	5	4	2	6	11	12	2	6	3	4	4	11	3	7	2	3
1w1n_A	1	2	2	3	1	1	1	3	1	3	0	1	2	4	1	1	1	2	2	1
1w23_A	29	2	13	24	15	22	8	23	22	39	10	29	14	23	10	25	18	18	2	14
1w53_A	3	0	3	10	4	2	4	9	4	9	3	0	4	5	5	6	3	4	0	6
1w7c_A	38	6	56	61	41	49	15	31	28	55	9	56	34	16	28	51	56	46	15	44
1wf1_A	9	1	4	4	3	13	2	4	8	7	2	9	4	3	6	15	4	9	0	3
1wfk_A	5	8	1	2	4	11	1	1	8	4	1	5	4	4	4	14	4	3	1	3
1wil_A	4	7	5	9	2	9	3	2	0	5	3	3	4	1	5	10	6	7	2	2
1wix_A	7	5	8	11	3	11	5	13	10	19	4	6	5	12	3	17	8	11	4	2
1wlj_A	8	2	8	8	3	10	5	4	6	14	4	1	4	3	8	5	7	12	1	4
1wlp_A	2	0	0	1	0	2	0	0	3	1	0	1	9	1	2	3	0	0	0	0
1wpu_A	12	1	3	17	2	17	7	9	7	18	3	3	2	2	9	10	8	11	2	4
1wso_A	3	4	1	1	0	3	2	1	1	6	0	1	2	1	2	1	2	0	0	1
1wwc_A	2	2	1	12	4	7	6	6	4	11	0	9	11	3	4	3	6	7	1	6
1wza_A	23	0	35	35	27	43	14	33	32	31	7	31	25	11	21	17	23	30	12	38
1x2i_A	8	0	0	8	2	4	2	6	4	8	1	0	2	1	7	3	4	7	0	1
1x82_A	13	0	11	22	11	18	4	9	19	9	0	4	10	2	6	4	8	21	4	10
1x8d_A	10	1	5	10	3	1	4	4	4	7	5	7	7	4	6	6	2	9	4	5
1x9b_A	4	0	2	4	2	1	0	2	7	6	1	4	1	2	5	6	0	4	1	1
1xg8_A	5	2	5	0	2	1	0	5	5	4	0	4	3	2	1	4	3	5	1	6
1xk4_C	3	0	5	11	5	2	4	6	9	10	4	7	1	5	3	4	5	3	1	1
1xpi_A	5	0	3	2	1	6	2	3	1	7	0	1	1	0	2	3	1	4	0	1
1xqo_A	19	6	10	20	8	17	5	15	14	33	2	6	13	7	25	7	10	20	5	11
1xs8_A	4	1	5	10	4	5	3	5	9	8	5	4	2	7	4	3	4	2	2	4
1xt5_A	9	2	6	7	5	14	5	3	6	10	1	4	6	7	6	11	12	13	4	4
1y66_A	2	0	0	10	4	1	2	2	4	4	0	1	0	8	5	1	2	2	1	1
1y93_A	12	0	14	4	10	19	9	11	7	9	3	7	6	2	7	9	10	9	3	7
1yg9_A	18	9	19	16	20	30	7	27	18	18	1	18	12	14	7	22	16	32	3	12
1ymt_A	1	1	1	4	0	4	0	2	0	6	0	1	3	4	2	2	0	3	0	0
1yn3_A	2	0	6	2	2	6	0	11	11	8	0	13	1	3	2	11	9	7	0	4
1ypy_A	22	6	7	9	4	9	1	12	11	11	3	15	5	13	3	14	19	13	0	5
1yum_A	26	2	14	13	7	13	8	8	3	26	4	2	16	10	19	9	9	16	4	3
1yyv_B	8	1	5	9	3	7	3	2	1	16	0	3	6	7	9	8	3	12	2	2
1z23_A	19	1	9	10	4	14	7	0	5	22	1	1	7	9	11	15	10	16	1	1
1z3e_A	2	2	6	13	4	3	3	12	6	12	3	5	7	4	12	8	6	7	1	3
1z6h_A	4	0	4	8	1	6	1	6	8	5	3	3	1	4	1	5	2	9	1	0
1z8m_A	1	1	9	5	6	3	3	3	12	19	1	3	4	3	3	4	1	5	1	1
1zaq_A	3	6	1	4	3	1	2	1	0	2	1	2	6	4	2	1	1	2	0	2
1ze2_B	2	1	4	2	2	8	3	4	10	6	1	1	3	1	3	1	4	8	0	3
1zgk_A	19	8	15	13	4	35	9	11	2	21	0	16	13	6	22	19	18	27	6	17
1zjr_A	11	1	7	20	6	10	3	15	21	17	3	9	5	9	10	10	6	22	3	9
1zkk_B	11	4	13	14	3	13	6	13	14	14	2	3	3	5	11	10	7	5	1	9
1zl0_B	34	5	13	18	5	34	15	14	3	44	2	4	17	13	22	18	10	17	6	9
1zma_A	10	3	7	8	8	7	2	8	7	7	0	5	4	6	6	8	9	8	0	3
1zs3_A	16	1	11	18	10	7	4	13	16	19	3	7	4	5	5	6	8	9	1	8
1zu4_A	5	0	9	7	5	1	0	3	14	8	5	4	1	3	2	6	4	5	1	3
1zv1_A	3	1	4	7	2	1	1	3	3	7	2	3	2	4	4	2	0	4	1	5
1zw0_A	6	0	3	6	0	3	2	4	5	7	5	1	0	6	3	3	4	4	1	2
2a2v_A	2	6	3	1	2	4	1	0	3	2	1	0	1	0	1	2	2	1	1	1
2a7o_A	3	4	4	10	4	3	3	3	19	6	3	5	4	3	4	4	7	6	0	5
2aca_A	13	2	10	18	12	8	6	11	10	15	0	6	3	12	10	9	8	9	2	5
2agy_H	1	7	2	1	1	5	2	2	0	1	0	2	5	0	1	5	6	2	1	1
2ah1_A	23	2	28	16	14	33	10	17	22	23	11	15	18	14	17	23	21	34	5	13
2ahm_G	27	2	13	9	4	4	0	9	14	17	9	13	6	10	7	13	12	13	2	7
2ar3_B	11	4	6	9	2	12	4	10	12	3	6	15	8	5	8	10	6	14	4	10
2ask_A	9	7	4	2	3	9	2	0	0	12	1	1	8	2	16	12	4	7	1	1
2b0l_A	7	0	2	10	2	6	7	9	7	12	3	5	0	1	4	11	2	8	0	2
2b19_A	3	0	3	1	1	3	3	2	4	4	1	0	0	2	1	4	1	2	0	1
2b5l_D	1	0	0	2	1	5	0	2	2	5	0	3	2	2	0	3	8	3	0	1
2b9d_A	5	4	1	3	0	0	1	2	2	9	2	1	2	3	4	3	2	5	0	2
2b9s_B	6	1	3	1	4	1	0	7	6	1	1	4	3	2	1	4	2	2	2	1
2bh1_X	6	0	2	6	6	0	1	3	4	9	1	2	2	5	4	6	2	5	1	3
2bkm_A	15	1	6	11	5	7	9	4	4	14	4	1	9	6	10	1	9	5	2	5
2bl0_A	9	0	1	4	3	2	1	5	6	4	0	2	1	3	9	2	0	6	4	1
2bnu_A	14	5	15	5	10	10	1	10	8	16	2	11	11	12	9	31	13	11	2	7
2bo9_B	12	2	8	18	7	9	6	14	15	13	6	14	14	18	7	8	14	17	5	10
2bpt_B	0	0	0	0	2	0	0	1	0	0	0	3	2	0	0	4	2	1	0	0
2bsc_A	1	0	1	1	1	3	0	1	0	1	0	1	1	0	0	5	1	2	0	1
2bye_A	2	2	2	14	6	8	2	8	9	7	3	3	7	10	5	3	9	6	1	3
2c0w_A	10	0	3	2	3	4	0	4	5	2	2	0	1	1	0	4	3	4	1	1
2c3v_B	3	0	2	0	0	4	3	3	2	3	1	1	3	1	0	3	7	1	2	3
2c5k_T	1	0	2	2	1	0	1	2	2	1	0	4	1	3	2	0	3	2	0	1
2c5z_A	4	1	6	4	5	1	3	7	20	6	1	6	4	6	3	7	3	4	1	1
2cg9_X	4	1	3	3	0	0	0	4	3	3	0	1	3	2	2	5	4	2	1	2
2ch8_D	5	2	4	10	11	8	8	6	4	13	3	4	8	4	8	10	11	16	4	2
2ckz_D	3	1	4	2	3	2	2	9	3	6	1	4	3	3	2	2	4	3	0	1
2cl2_A	33	8	19	7	13	29	9	15	3	9	5	32	17	6	10	18	30	17	9	9
2cme_E	6	0	4	4	2	1	1	5	3	11	2	2	7	4	4	5	7	8	0	1
2co8_A	4	7	3	5	4	13	8	0	0	8	0	1	4	5	3	8	3	2	1	3
2czd_B	23	0	12	16	5	20	2	29	14	13	5	7	10	1	14	5	5	18	1	7
2czq_A	24	5	8	1	6	28	3	9	5	12	2	15	6	13	5	19	18	16	1	9
2czr_A	13	2	14	23	11	18	10	15	20	16	2	12	4	4	7	11	6	22	3	13
2d0o_D	14	2	6	5	3	8	7	7	2	11	2	4	7	4	7	6	2	8	2	1
2dc3_A	20	2	5	15	8	6	6	4	11	15	4	5	11	7	8	11	6	20	3	5
2deb_A	52	9	42	30	39	31	22	23	35	67	0	27	32	28	31	46	39	34	6	22
2dii_A	3	0	2	6	3	5	0	1	5	6	1	5	2	3	3	9	0	5	1	1
2djf_B	10	8	6	10	9	15	7	6	6	10	5	6	8	6	5	13	6	10	2	13
2ds2_B	7	6	2	0	2	2	0	5	0	7	0	5	7	11	9	0	0	4	0	0
2ds5_B	1	5	3	4	1	3	1	5	3	4	0	1	1	1	2	4	0	3	0	2
2dvw_B	5	1	6	6	2	2	0	7	7	5	3	3	1	2	6	6	3	5	0	3
2dwv_A	1	0	1	5	1	8	2	0	1	2	0	1	5	1	4	9	2	2	1	3
2dzr_A	3	1	3	5	5	12	0	8	9	7	0	3	11	5	5	10	3	6	0	3
2e2s_A	1	6	1	1	1	4	1	1	2	5	0	2	2	0	3	4	0	0	1	0
2e2z_A	5	4	8	5	3	5	8	5	12	7	5	2	3	4	2	7	5	8	0	2
2e6v_A	0	0	0	2	0	2	2	1	2	2	0	0	1	1	1	1	0	1	0	1
2ebn_A	27	1	17	7	13	18	4	10	18	26	6	28	14	9	8	22	19	19	1	18
2ecv_A	4	7	2	6	1	6	3	5	4	8	2	5	5	3	3	11	3	6	0	1
2edd_A	10	0	4	4	3	7	2	0	6	6	4	4	8	2	6	22	16	11	3	5
2elf_A	19	3	11	12	5	11	7	18	14	18	0	13	5	2	5	13	13	9	1	2
2enp_A	4	3	8	6	6	11	7	6	11	15	2	3	10	7	8	15	7	12	2	4
2esy_A	2	0	1	0	3	2	1	2	1	7	0	0	5	0	3	2	0	1	0	1
2eze_A	2	0	0	0	0	3	0	0	6	0	0	1	4	0	4	1	3	1	0	0
2f3j_A	14	1	17	6	5	17	3	6	10	14	5	6	9	6	16	8	3	8	1	3
2f40_A	3	0	3	13	3	1	0	8	9	6	0	3	2	2	2	3	5	7	1	3
2f69_A	13	5	13	21	8	19	9	11	8	15	6	10	13	1	8	19	13	18	2	14
2f76_X	3	2	7	7	7	5	1	4	11	7	2	3	5	7	5	2	5	9	3	5
2fbi_A	8	2	3	12	4	7	1	6	8	18	5	5	5	14	15	7	5	6	2	3
2fe5_A	7	0	5	4	1	12	2	9	7	9	3	7	3	4	3	6	4	6	0	2
2fk4_A	1	4	2	3	1	3	2	3	5	7	2	3	3	5	8	8	3	0	1	3
2flh_B	2	0	8	17	6	9	3	11	10	17	2	4	5	6	5	14	12	14	1	7
2fmn_C	6	1	7	6	4	7	3	9	4	8	1	5	6	2	9	8	8	4	2	2
2fs2_A	20	4	7	3	6	11	6	6	5	9	0	5	1	11	4	8	10	8	1	3
2fu2_A	6	0	6	6	4	1	1	7	7	10	0	1	2	6	2	9	3	3	0	3
2g2q_A	1	2	5	4	3	2	1	5	4	5	0	2	1	0	0	6	0	4	0	2
2g84_A	32	8	10	12	5	17	3	8	1	21	4	9	10	2	13	8	6	15	2	3
2gag_D	11	3	4	6	5	6	3	4	6	4	2	5	7	2	7	2	2	3	3	6
2gao_B	1	0	1	0	2	4	1	0	5	9	1	1	0	1	0	2	2	2	0	1
2ghv_E	10	7	12	4	13	12	1	6	10	11	1	14	12	3	8	12	13	15	3	16
2gia_G	12	1	5	7	5	3	5	1	4	11	2	4	8	4	15	6	10	12	2	4
2gj4_A	19	3	12	18	9	20	7	7	9	24	7	14	9	9	16	5	14	16	6	15
2gkt_I	3	6	2	3	2	3	1	0	4	4	0	5	3	0	1	4	4	3	0	3
2go8_A	1	0	1	1	2	0	0	1	2	1	0	0	3	0	0	4	1	2	0	2
2gpf_A	5	1	6	6	2	4	2	4	5	4	3	1	3	5	4	4	2	5	3	3
2gqj_A	8	5	2	9	1	12	5	1	9	5	2	2	5	6	4	11	4	5	1	1
2gsl_A	5	0	6	5	4	4	0	8	11	8	0	5	1	2	3	3	1	3	1	7
2gtj_A	4	2	5	12	2	8	1	9	19	7	0	2	2	5	3	3	5	3	1	3
2gui_A	17	2	14	12	10	12	6	13	9	17	5	8	5	3	10	4	11	12	0	6
2h09_A	11	0	6	17	5	8	4	7	3	14	5	1	3	6	14	5	5	11	1	1
2h28_A	9	4	7	5	3	7	4	1	4	17	0	3	7	4	6	4	8	5	2	6
2h4m_D	0	0	0	0	3	7	0	0	1	0	1	5	2	1	1	4	0	0	0	2
2h4o_A	2	0	3	10	4	3	1	3	8	2	0	4	1	2	0	3	4	8	0	2
2h7d_B	4	0	1	4	2	0	2	2	4	3	0	0	1	0	4	2	1	1	1	1
2hba_A	7	0	2	3	3	5	0	3	9	5	2	4	1	3	0	0	1	3	0	1
2hhg_A	15	2	10	8	6	14	2	12	8	7	0	1	8	4	7	8	7	5	2	2
2hku_B	22	2	7	12	6	14	3	7	5	18	0	1	4	4	11	9	16	11	2	4
2hkx_B	10	1	7	12	10	5	1	9	8	23	3	8	2	4	10	5	12	12	0	6
2hlg_A	0	6	2	2	1	2	0	2	2	5	0	3	2	2	1	3	4	0	0	2
2hm3_A	0	6	1	1	0	4	0	0	1	1	0	2	3	1	0	2	1	1	0	1
2hn8_A	0	0	0	1	2	0	1	2	5	6	1	1	2	2	4	2	1	4	3	1
2hql_F	2	1	1	7	5	5	1	6	7	7	2	2	0	2	4	4	6	4	1	6
2htg_A	1	0	1	2	1	1	2	2	2	6	0	2	0	0	0	1	1	4	0	1
2hue_C	6	0	3	4	2	8	1	6	7	7	1	2	1	2	11	1	7	9	0	4
2hw0_A	4	3	4	10	6	11	3	4	13	7	1	8	7	7	8	6	4	4	2	3
2hy5_C	9	2	6	8	5	8	1	4	5	13	0	2	3	2	4	8	7	10	1	3
2hzq_A	10	4	7	12	7	6	3	10	11	13	0	15	12	6	4	9	11	13	3	7
2i39_E	4	1	15	7	4	5	1	11	5	15	7	7	2	2	10	5	6	4	2	5
2i4r_B	3	0	8	8	3	5	2	6	6	6	0	0	4	1	3	4	3	13	0	2
2i8d_A	8	0	9	5	9	4	5	10	8	9	0	3	9	11	5	4	9	2	4	3
2ia7_A	9	1	4	13	4	6	1	11	2	12	0	4	4	0	11	8	7	8	1	3
2iay_A	9	0	8	4	7	8	1	4	9	10	0	5	4	3	5	5	16	7	0	5
2ida_A	4	8	6	5	2	11	9	6	2	4	4	1	9	0	7	4	7	7	3	3
2imj_A	15	1	11	16	8	7	6	6	7	13	0	8	9	4	18	6	5	3	8	5
2iyk_A	8	12	6	8	4	8	5	9	10	16	0	9	7	10	7	12	5	11	5	3
2j0s_T	1	0	5	2	2	2	2	1	2	3	0	1	2	1	3	0	0	0	0	1
2j4w_D	0	5	1	5	2	0	0	4	3	0	0	3	2	0	1	4	1	2	0	1
2j5d_A	2	0	0	1	3	5	1	4	3	9	1	1	1	0	3	5	3	2	0	1
2jae_A	33	4	27	26	19	49	7	19	22	26	8	14	11	16	26	44	27	24	6	21
2jdq_E	4	0	3	4	1	6	0	3	5	8	1	3	1	1	5	4	0	6	0	1
2jen_A	17	0	12	4	8	21	4	14	14	7	2	23	6	6	4	28	19	15	15	14
2jer_D	17	10	30	27	16	32	6	21	20	20	9	19	20	24	15	14	18	35	8	10
2jju_B	8	2	2	6	4	8	1	7	5	6	2	4	5	3	6	8	7	7	1	3
2jnc_A	4	6	1	5	2	6	2	4	1	3	0	7	6	2	5	4	9	2	2	7
2jod_B	3	0	1	0	1	1	0	0	7	2	1	1	0	2	4	2	1	3	0	4
2jon_A	11	6	4	1	3	10	2	3	3	3	1	10	10	5	1	8	9	4	2	5
2joz_A	3	1	5	17	3	13	6	6	10	6	5	2	6	8	6	9	13	8	2	6
2jp6_A	4	6	1	2	0	6	0	0	4	1	2	0	1	3	0	3	4	0	0	0
2jqh_A	11	1	4	7	1	2	2	2	10	8	0	3	0	7	2	2	1	3	0	6
2jr7_A	4	4	9	11	5	3	2	5	5	4	1	3	5	2	0	6	4	7	0	4
2jx1_A	2	3	2	0	0	5	2	1	1	2	0	1	3	0	2	4	2	0	0	1
2jya_A	9	0	3	7	2	3	0	5	8	3	4	1	4	6	4	5	6	5	1	4
2k0r_A	14	1	9	10	8	11	3	3	7	8	2	4	10	6	3	3	6	11	0	9
2k14_A	4	0	5	7	2	10	2	7	2	6	1	3	3	2	3	9	5	11	0	2
2k2y_A	1	6	2	2	1	5	0	0	2	4	0	1	2	2	1	5	2	2	0	1
2k44_A	1	0	0	1	3	1	0	1	0	6	0	1	1	1	4	3	0	3	1	1
2k4x_A	4	4	2	4	3	5	2	1	8	3	1	0	2	1	6	3	1	2	0	3
2k59_B	1	1	0	1	1	0	0	3	2	7	1	0	2	0	0	3	3	3	0	0
2k9h_A	4	7	1	6	0	3	4	3	2	3	3	1	1	3	2	5	5	2	0	2
2kae_A	2	4	0	2	2	1	0	4	7	1	0	5	1	5	6	4	4	4	1	3
2kc6_A	4	8	4	2	2	3	0	0	0	0	1	2	3	4	0	4	9	2	2	2
2kcn_A	3	6	7	1	2	2	0	1	13	0	0	7	1	0	0	1	6	2	0	3
2kd2_A	2	2	8	9	2	9	3	5	6	7	2	4	2	2	5	6	9	8	2	1
2ke4_A	6	0	5	15	1	3	2	2	8	11	3	2	6	10	8	6	3	4	1	2
2ke7_A	2	0	3	4	2	6	2	5	1	9	3	5	2	8	2	3	1	3	1	1
2kgh_A	0	6	1	3	2	4	0	4	10	2	0	0	2	0	1	1	1	1	1	0
2kif_A	7	0	3	7	3	11	2	9	12	9	2	2	5	7	5	5	1	6	2	4
2kjx_A	3	6	0	9	4	4	0	1	5	2	2	2	4	1	4	8	4	4	1	1
2kkr_A	2	3	5	4	2	2	3	2	7	5	0	1	2	2	8	2	6	3	0	0
2kmu_A	5	0	3	7	1	3	0	0	1	4	1	0	2	4	14	2	4	2	1	2
2kmz_A	9	6	4	1	2	3	1	0	1	4	1	0	7	1	4	6	1	0	2	0
2kne_B	1	0	0	0	2	2	1	3	2	3	0	1	0	3	4	2	1	2	1	0
2knu_A	4	0	1	0	0	1	1	1	0	3	4	1	2	1	2	1	2	2	2	0
2kon_A	7	1	9	5	1	5	4	8	3	5	1	1	6	2	7	2	3	5	0	7
2kqb_A	1	2	5	2	2	9	3	1	3	1	1	3	3	3	2	5	2	4	0	3
2ks1_B	3	1	0	1	1	6	1	4	2	7	2	1	3	0	5	1	2	4	0	0
2ks9_A	30	10	9	12	22	11	9	28	13	30	13	15	18	10	12	22	24	42	9	24
2kse_A	2	0	1	0	3	1	0	2	2	8	1	1	0	2	3	4	5	3	2	0
2kt5_B	4	1	0	1	0	5	1	0	2	3	0	0	7	2	6	4	1	2	1	0
2ku3_A	4	7	4	4	1	3	2	4	0	5	2	3	3	5	3	5	0	4	1	2
2kuy_A	3	5	2	0	1	5	4	1	2	1	2	0	1	0	0	7	2	0	2	5
2kvh_A	1	2	1	1	2	1	2	0	2	2	1	0	2	1	3	4	2	0	0	0
2kvr_A	7	1	7	14	5	5	2	5	9	10	6	7	5	14	7	6	6	7	2	3
2kw3_C	1	0	1	3	3	5	1	0	2	10	1	2	4	13	5	4	3	4	0	0
2kxo_A	5	0	5	8	1	3	0	7	7	13	3	3	3	8	6	4	5	6	0	2
2kyb_A	3	0	0	4	1	7	1	5	6	2	1	3	0	0	1	11	4	7	0	4
2l0r_A	7	0	8	9	10	7	4	7	9	7	1	8	1	4	4	8	5	4	0	3
2l27_B	6	0	1	8	1	0	0	2	2	8	0	2	2	1	2	1	1	1	0	0
2l35_B	3	1	1	0	1	4	0	2	0	6	0	0	1	0	1	2	2	7	0	1
2l5f_A	6	1	6	10	0	6	1	0	12	6	1	2	5	3	2	10	9	1	4	7
2l5o_A	11	2	11	6	7	11	7	8	13	9	2	6	10	7	2	8	9	12	2	7
2l6o_A	10	6	9	5	4	7	9	3	4	17	3	5	8	6	3	4	4	3	3	1
2l7z_A	2	0	1	6	2	1	1	4	12	5	2	4	1	3	9	4	8	5	1	2
2lai_A	8	0	8	7	4	7	4	9	12	8	1	1	5	3	4	9	3	4	0	4
2lbo_A	9	8	9	8	2	9	1	4	8	6	1	3	8	8	5	18	7	3	1	5
2lc3_A	5	3	6	6	2	7	3	4	11	8	2	7	1	4	3	5	5	1	2	3
2le2_A	1	0	9	3	2	3	1	2	4	8	2	2	0	3	1	3	2	5	0	5
2liy_A	3	6	1	3	0	3	2	2	1	0	0	3	3	1	5	2	3	3	0	4
2ll1_A	0	6	3	0	0	4	3	1	1	3	0	1	3	1	4	0	1	1	0	1
2ll3_A	4	6	1	4	1	7	2	2	7	3	1	2	2	3	5	7	5	3	0	5
2lna_A	1	0	5	8	5	9	7	4	5	5	2	6	3	3	7	5	6	13	2	3
2lom_A	10	0	2	4	4	10	2	5	8	5	6	1	5	2	4	7	4	8	1	5
2lq2_A	6	0	3	0	1	2	0	2	3	1	0	0	3	0	1	3	1	3	1	0
2lr8_A	3	2	3	4	3	2	1	5	11	7	2	4	2	4	5	5	2	3	1	1
2nr7_A	14	0	21	11	6	16	2	14	16	21	0	9	5	4	14	6	8	14	7	5
2nvq_F	7	0	6	9	2	3	0	7	6	9	3	1	6	2	7	3	5	5	1	3
2nx7_A	4	6	0	0	0	2	0	0	0	3	0	1	3	3	1	5	0	0	0	0
2o23_A	27	2	8	7	6	28	1	10	10	18	4	9	7	10	8	9	12	21	0	2
2o5h_A	2	1	6	15	7	3	4	7	6	10	0	5	4	4	7	5	4	3	3	3
2o7a_A	13	0	7	4	4	5	0	3	8	8	3	7	2	5	10	3	7	8	3	3
2o8x_A	10	2	5	3	1	4	0	2	0	10	2	0	1	2	5	2	6	5	0	1
2o95_A	4	1	12	5	5	7	5	6	13	12	4	8	6	3	5	6	1	20	3	4
2oaa_B	10	1	19	19	8	16	7	18	28	20	4	20	3	7	9	16	15	13	3	12
2ob0_C	9	4	11	8	7	9	5	13	15	15	0	13	5	8	8	6	6	13	0	9
2oc5_A	27	3	15	23	10	11	5	15	11	25	0	9	7	7	13	6	12	8	1	8
2odb_B	1	0	2	2	3	2	2	2	2	2	0	2	4	4	1	2	1	2	1	0
2ofq_A	7	0	2	9	4	5	2	5	4	3	3	9	6	4	7	5	3	11	2	4
2ogg_A	4	2	13	15	8	6	6	10	10	14	0	3	4	4	12	7	7	10	1	7
2oik_C	9	4	8	10	5	6	8	5	7	13	0	6	7	5	12	7	6	14	3	1
2osd_A	2	0	2	5	4	1	0	7	6	3	0	1	3	0	1	1	0	2	0	1
2ot4_A	53	17	39	34	24	28	31	12	21	29	17	22	20	21	31	29	30	38	11	13
2our_B	4	8	4	8	9	6	9	7	6	13	6	5	4	3	7	6	6	7	3	4
2oy9_A	5	1	5	13	4	2	2	7	6	5	0	1	2	7	5	5	3	5	1	4
2ozb_A	12	4	5	8	2	5	2	9	10	16	1	5	6	10	6	8	4	10	0	3
2p0n_A	20	3	8	18	10	7	6	10	6	14	0	7	7	9	8	3	4	10	1	6
2p1b_A	1	1	3	1	2	1	1	0	3	2	0	1	0	1	0	0	0	1	0	2
2p22_D	1	3	5	7	4	1	1	2	7	9	2	4	6	6	4	3	4	3	2	5
2p26_A	10	26	19	13	10	24	11	13	12	19	2	10	12	21	18	19	19	16	1	5
2p5k_A	1	0	4	5	0	3	2	6	7	5	1	4	1	4	3	4	5	5	0	3
2p5m_A	6	2	8	4	2	5	1	7	5	11	6	4	3	2	4	3	5	3	1	0
2pc1_A	12	2	13	12	6	16	7	16	10	15	0	9	4	11	9	2	6	6	3	10
2pg1_J	1	0	1	2	1	1	0	3	3	1	1	0	3	2	1	0	5	3	0	1
2pkd_A	7	0	6	6	2	5	2	9	4	5	1	7	6	4	7	5	12	10	1	8
2plx_B	1	4	1	2	0	0	1	0	2	3	1	1	1	2	3	2	0	1	0	1
2ppi_A	4	0	1	1	2	0	1	0	0	3	1	0	1	2	3	4	0	1	0	1
2ptt_B	2	2	8	5	4	9	2	7	9	9	0	7	4	6	2	13	4	8	3	4
2pv9_C	1	1	3	1	1	2	0	0	3	2	0	2	4	0	1	3	1	0	0	1
2pzh_A	8	3	3	13	13	4	2	9	10	10	2	6	6	5	8	8	5	12	0	7
2q30_A	8	0	5	10	6	8	5	7	4	8	0	4	7	2	4	5	4	15	0	0
2q8v_B	5	0	1	6	2	0	0	1	2	8	5	1	0	5	6	5	0	4	0	0
2qb7_B	12	4	20	22	10	11	4	23	25	26	5	16	7	9	10	26	7	20	1	12
2qe9_B	6	1	8	13	8	7	12	15	7	16	0	6	2	10	7	9	10	11	6	6
2qes_A	15	4	13	13	8	12	2	17	20	25	6	26	9	9	9	23	21	16	2	11
2qgs_A	5	1	8	6	2	1	6	9	8	11	0	4	0	5	3	10	7	5	0	6
2qik_A	5	1	0	2	2	2	3	1	3	6	0	3	0	2	2	3	2	1	0	1
2qjv_A	22	5	12	20	8	17	10	9	0	22	0	12	15	10	15	18	14	23	6	14
2qkh_B	3	0	3	1	2	2	1	3	3	2	1	1	0	3	0	2	1	1	1	2
2qm2_A	12	2	7	11	11	7	2	5	5	10	0	12	3	5	3	4	9	3	1	2
2qor_A	6	3	12	18	12	16	1	12	19	18	0	11	8	5	13	9	8	11	0	10
2qs7_A	9	1	6	9	10	11	1	10	11	10	0	3	5	10	3	7	9	10	2	3
2qsb_A	6	1	8	6	1	1	1	3	5	12	0	6	3	4	4	7	4	8	0	2
2qsx_A	2	0	3	1	2	2	2	3	1	5	0	3	3	1	2	2	2	6	1	0
2qtp_A	14	1	2	14	2	9	2	8	5	9	0	2	5	2	7	3	4	7	0	2
2qtv_D	4	0	2	1	0	2	1	0	5	3	0	3	3	1	2	3	1	4	1	0
2r01_A	23	5	15	14	3	13	4	11	8	23	0	3	12	5	16	6	7	16	4	3
2r2c_B	3	0	2	3	1	2	0	4	6	4	0	2	1	2	0	1	4	5	0	2
2r5o_B	4	1	16	7	11	15	3	11	6	15	4	5	8	5	8	16	9	12	2	8
2ra9_A	7	2	10	7	7	6	4	7	6	19	0	7	6	3	4	8	6	10	2	5
2raq_B	4	0	6	12	1	7	2	12	5	7	0	3	4	1	4	4	7	10	0	3
2rbb_A	13	1	7	8	10	6	2	10	5	11	0	7	4	6	5	7	6	10	1	7
2rbg_A	2	2	9	10	8	3	0	12	13	16	0	12	1	2	5	7	6	9	1	5
2rdd_B	0	0	1	1	3	1	1	3	4	6	4	0	2	2	2	3	1	2	0	1
2rf9_C	1	0	1	0	1	1	0	0	3	2	1	1	5	1	0	5	1	2	0	2
2rgv_A	10	4	7	14	6	8	6	6	9	12	2	6	4	3	6	8	8	12	0	7
2rlw_A	5	0	1	0	2	4	2	2	1	0	0	2	1	0	3	3	0	5	1	2
2rp4_A	8	1	4	7	0	2	1	3	5	9	1	6	4	2	6	4	2	2	2	2
2uwq_A	2	4	5	10	6	5	3	1	1	6	4	4	5	3	7	5	4	9	1	1
2uy7_B	16	2	11	6	8	20	2	6	12	9	1	11	3	6	0	12	12	17	0	2
2uz0_B	2	0	3	2	0	2	0	1	1	2	0	1	2	1	0	1	0	4	1	3
2v1q_B	2	1	7	4	2	4	0	4	6	4	2	0	2	4	1	5	1	5	2	2
2v5t_A	3	1	1	4	2	1	0	0	1	2	1	0	3	2	2	6	1	6	1	1
2v7q_J	9	0	1	6	2	4	2	0	4	2	0	0	0	2	6	2	0	2	0	1
2v8t_A	33	0	16	24	14	28	9	14	19	32	12	14	18	4	12	10	11	17	2	13
2v94_B	2	0	5	10	2	6	1	12	11	6	0	2	5	1	5	4	4	4	0	11
2v9v_A	18	0	2	15	4	6	2	4	2	19	1	2	5	9	15	10	7	5	4	5
2vc8_A	2	2	5	3	2	8	1	6	2	6	0	3	4	4	3	6	5	8	1	1
2vcl_A	2	0	2	3	2	2	0	3	1	2	0	2	1	2	0	1	2	1	3	1
2vha_B	22	2	22	15	13	17	2	13	31	21	8	17	12	14	9	17	14	19	3	5
2vn5_D	3	0	4	0	1	3	0	2	2	2	1	3	0	0	0	0	0	2	0	3
2vpb_B	7	0	0	3	2	1	1	2	3	1	2	1	0	1	0	2	2	6	0	1
2vrd_A	3	3	5	3	2	2	3	1	8	2	2	1	2	5	2	4	5	2	1	5
2vuw_A	13	8	19	21	18	20	13	21	26	39	0	13	12	13	12	25	20	16	4	9
2vwa_A	3	0	5	7	3	1	4	7	11	8	0	15	1	8	3	7	0	7	0	6
2vx8_C	1	0	1	1	0	1	1	0	2	5	0	1	3	0	0	2	2	1	0	0
2vxq_A	5	0	5	12	6	9	2	1	8	5	3	3	4	1	2	3	8	10	2	3
2vyo_A	10	5	19	16	7	19	4	12	7	13	7	13	8	7	10	10	10	20	0	9
2w2g_B	9	4	8	10	4	9	1	6	12	13	4	3	6	2	2	7	13	8	0	6
2w2h_C	2	0	2	0	0	1	0	2	4	5	0	1	1	5	3	1	0	0	0	2
2w6b_A	2	0	5	6	0	0	0	0	10	7	0	3	0	3	4	3	1	5	0	1
2w7r_A	0	0	0	0	0	0	1	2	0	0	0	0	1	1	0	2	0	1	0	0
2wbv_D	8	5	7	5	11	16	1	13	5	13	4	13	13	6	9	15	21	11	4	4
2wkd_A	3	0	1	3	1	2	0	4	5	1	0	2	1	1	1	2	6	3	0	0
2wlc_A	7	6	8	10	3	18	8	25	13	13	7	23	5	4	5	15	15	16	2	8
2wn2_B	19	8	14	8	12	16	5	13	7	14	1	21	7	14	13	15	26	23	5	11
2wqi_A	0	0	2	6	1	1	0	1	2	9	2	1	2	6	3	2	1	3	0	3
2wtg_A	12	2	7	12	11	9	4	5	11	13	5	12	3	7	9	8	8	10	2	8
2wuh_A	8	4	12	10	6	15	6	12	5	12	4	6	11	5	10	10	7	9	5	6
2wuq_A	11	0	10	13	4	12	3	5	1	21	2	1	9	4	13	10	12	10	1	2
2wx3_C	1	0	4	1	1	0	3	4	4	10	0	4	0	3	0	6	3	2	0	1
2wy3_D	2	5	7	8	2	8	3	10	4	13	3	9	2	3	8	9	16	12	3	6
2wzr_3	19	3	12	8	12	18	7	5	7	13	6	11	18	9	4	14	20	16	2	17
2x1f_A	3	2	5	5	4	8	4	5	3	9	2	5	4	4	5	13	2	6	0	5
2x2v_A	15	0	0	3	3	6	0	11	1	9	1	0	3	2	2	1	5	6	0	0
2x36_A	2	0	1	1	1	4	0	0	0	3	3	0	3	1	2	2	4	4	1	1
2x3g_A	0	0	3	2	6	2	3	6	7	2	0	4	0	0	2	4	6	2	0	7
2x4j_A	2	2	3	3	3	5	1	5	5	2	1	4	1	0	0	3	1	8	1	1
2x5p_A	1	0	1	0	0	1	0	0	0	1	1	0	0	0	0	0	1	1	0	0
2xa6_A	3	0	2	5	1	1	1	2	4	5	2	1	3	2	0	2	2	0	0	1
2xcm_E	4	6	5	5	4	5	6	3	6	1	1	3	5	3	3	4	3	5	2	0
2xdy_A	10	2	2	8	10	10	2	5	13	10	5	6	6	3	4	8	6	13	1	3
2xgr_A	3	0	3	2	2	1	4	2	4	7	0	6	2	4	4	4	7	3	0	3
2xhf_A	9	2	12	8	7	12	5	13	9	12	5	6	9	2	9	12	6	12	1	5
2xiw_A	4	0	6	7	2	5	0	1	10	6	0	5	1	1	4	2	1	6	0	2
2xov_A	16	1	5	5	13	20	4	13	4	25	10	3	5	6	6	9	4	15	11	6
2xpc_A	27	4	14	13	5	19	3	13	5	26	7	8	10	6	9	11	14	20	1	5
2xqq_D	8	2	6	5	5	4	3	7	10	3	3	4	1	4	1	3	4	5	1	6
2xr6_A	7	6	6	9	8	9	1	3	7	8	2	12	5	9	4	14	4	5	9	2
2xrh_A	11	0	13	8	5	3	2	2	16	5	7	2	3	3	4	3	6	5	0	2
2xtc_B	1	0	1	3	4	2	2	3	0	2	0	1	0	2	1	7	2	2	0	2
2xu6_A	1	0	4	8	1	2	0	6	6	9	0	7	1	6	2	3	2	3	0	0
2y1t_C	0	0	1	1	0	0	0	3	2	1	1	1	0	2	1	0	2	0	0	1
2y39_A	18	0	7	14	2	5	4	5	4	12	1	3	5	4	13	2	3	6	1	1
2y43_B	3	8	4	3	4	2	2	7	5	11	2	6	5	3	5	5	5	4	1	3
2y4n_B	7	0	9	5	5	4	4	3	4	11	1	0	7	2	9	8	5	3	1	3
2y5p_A	4	0	4	4	4	7	1	2	7	1	2	4	3	1	1	2	10	7	2	6
2y78_A	7	0	7	7	4	21	2	3	5	10	3	2	6	4	6	7	9	14	2	3
2y8n_B	8	10	4	7	2	9	1	2	9	5	2	7	5	0	1	3	4	1	1	5
2yeo_A	6	8	3	2	1	5	0	2	4	3	1	6	3	1	4	2	1	4	2	7
2yfa_B	37	0	21	10	4	8	1	11	10	26	7	10	3	21	20	16	11	11	0	8
2yhg_A	40	4	31	11	6	36	10	21	11	23	11	30	18	15	19	45	19	27	10	24
2yiu_B	7	2	9	8	6	9	3	2	2	8	2	1	9	6	7	5	6	6	0	3
2yln_A	27	0	16	15	7	22	2	11	24	19	2	12	6	9	5	16	16	22	3	6
2yu6_A	3	0	3	11	8	14	3	7	8	13	2	7	4	11	9	20	2	8	6	2
2z0t_B	2	0	3	18	3	11	0	13	17	6	3	1	3	3	6	3	0	9	1	6
2z2s_G	14	1	6	4	6	2	3	4	5	4	0	1	2	4	8	6	4	6	3	0
2z7f_I	1	8	2	1	1	5	0	0	6	3	4	2	5	2	3	2	1	3	0	1
2zi0_B	2	0	0	7	0	1	4	4	7	5	0	2	2	5	9	4	0	1	1	0
2zib_A	18	10	9	4	1	9	7	8	6	8	3	3	6	3	2	8	8	7	7	3
2ziv_B	3	4	1	4	0	4	1	3	1	7	2	0	2	4	3	1	2	6	1	0
2zou_B	2	1	2	3	2	4	0	1	1	3	0	0	2	1	6	4	4	2	0	4
2zug_A	3	1	9	6	4	5	0	3	3	9	0	1	2	3	4	4	10	8	0	2
3a2z_A	12	2	15	13	11	16	4	11	5	16	4	7	9	10	8	8	11	14	5	9
3a57_A	6	2	11	10	9	8	4	5	10	5	4	10	4	6	3	17	11	18	2	9
3a71_A	15	2	17	20	11	32	5	13	10	31	4	19	29	10	15	30	29	29	7	25
3a98_A	4	1	3	3	3	8	3	7	6	4	0	1	3	5	4	3	1	4	2	3
3a9f_B	6	2	9	1	5	6	2	4	9	5	1	2	4	2	3	4	4	6	1	1
3aa0_A	20	3	21	18	14	11	8	18	18	16	2	16	11	18	14	15	16	17	5	9
3aar_A	19	5	19	17	10	21	12	25	13	34	8	27	18	29	4	28	15	19	7	22
3aj4_A	3	6	13	3	3	6	2	7	9	9	4	4	3	7	7	8	8	3	5	2
3ajd_A	8	2	8	8	8	7	1	15	18	16	7	10	9	3	6	8	9	9	0	6
3ajm_A	16	0	10	19	11	2	2	14	20	19	6	12	6	10	10	11	12	14	0	7
3alj_A	41	5	23	23	9	31	8	14	15	39	9	13	17	9	26	23	17	26	12	9
3alr_D	4	6	2	2	3	4	3	0	6	3	1	2	3	1	3	2	4	2	0	4
3arc_J	4	0	0	1	2	8	0	4	0	4	1	0	1	0	1	3	1	5	1	2
3ayj_B	16	0	5	3	1	12	2	7	1	9	0	2	6	1	6	5	3	5	0	5
3b1b_B	16	6	13	14	8	26	11	14	12	23	5	18	16	15	9	18	22	17	7	9
3b4u_B	32	3	22	13	13	26	4	19	11	27	3	7	11	6	18	23	17	28	3	2
3b5n_G	6	0	3	5	1	5	1	1	8	8	4	6	0	5	2	5	4	5	0	0
3b8f_C	11	5	6	15	3	6	5	10	9	10	2	5	6	9	4	6	8	10	4	6
3bbp_D	3	0	1	5	0	1	1	3	3	7	1	3	0	2	4	2	2	0	0	0
3bd1_C	9	2	3	3	1	5	0	7	1	4	1	4	2	1	8	5	1	6	1	0
3bdv_B	17	2	11	15	7	11	7	11	1	18	0	2	10	13	14	11	7	13	8	3
3bny_C	13	4	14	21	12	9	5	10	10	27	7	5	13	4	17	15	6	13	2	11
3bpq_D	1	1	5	3	4	5	4	12	10	7	0	6	2	1	7	4	2	6	0	6
3bs6_A	10	0	8	8	5	11	0	5	8	16	0	11	11	11	4	7	12	10	0	7
3buu_A	14	0	18	15	8	10	2	14	11	23	0	10	9	11	17	18	10	15	2	11
3bv8_A	6	1	6	10	7	4	0	9	7	4	0	3	4	3	2	6	3	3	1	5
3bve_F	11	1	9	17	8	6	12	14	14	17	4	12	3	9	1	15	4	7	2	7
3bwu_D	13	2	10	3	5	8	1	3	0	14	5	9	7	8	6	5	10	8	0	4
3c0d_A	7	5	9	6	3	8	2	6	7	12	0	2	4	5	3	5	4	11	2	5
3c6v_B	11	0	4	13	11	10	5	8	5	11	0	5	12	10	8	5	9	8	4	5
3c8x_A	3	0	1	1	1	0	0	0	1	2	0	0	0	0	0	0	0	2	0	0
3c95_A	16	3	13	12	12	9	6	9	4	12	1	10	12	6	11	6	10	7	4	8
3cc9_C	1	1	3	6	3	3	2	5	5	8	1	5	0	0	3	3	0	2	0	8
3cfy_A	9	0	13	9	3	5	4	12	9	18	1	4	6	5	6	7	5	10	1	3
3cgx_A	18	4	25	10	11	16	6	8	12	24	0	7	11	11	15	8	5	16	4	12
3cl6_A	25	3	19	24	13	23	13	16	9	26	10	9	18	9	23	11	14	13	7	17
3clm_A	62	3	21	21	11	21	5	15	19	40	0	8	10	18	16	19	22	26	3	8
3cnh_B	22	1	13	17	10	13	2	3	2	25	0	6	8	12	21	4	9	15	2	6
3col_A	11	0	8	2	1	4	0	11	7	10	0	6	2	9	6	8	9	10	0	6
3cpf_A	2	2	0	1	2	2	0	1	4	2	2	1	2	1	2	4	3	3	0	0
3cqz_L	2	3	1	1	0	0	0	1	2	3	0	0	0	0	2	4	2	1	0	1
3csr_A	9	1	4	10	3	9	0	9	9	14	8	19	7	9	5	13	8	5	7	10
3ctp_A	16	3	18	25	14	15	5	34	17	21	7	16	7	8	9	13	12	15	0	11
3cu2_A	13	3	10	14	8	12	5	17	16	35	0	12	7	17	6	14	14	18	4	7
3cx5_C	22	4	8	5	36	25	13	40	7	43	17	20	19	6	11	28	16	37	7	21
3cz9_A	24	3	8	14	3	18	3	10	16	19	4	6	9	4	7	9	8	19	0	3
3d0t_D	3	1	3	3	1	2	2	2	3	5	1	1	0	0	1	7	1	2	0	1
3d3b_A	18	1	9	12	4	5	1	5	10	17	2	5	5	6	9	7	2	13	1	7
3df8_A	2	1	6	4	1	8	1	12	4	14	0	7	3	3	9	14	7	5	0	4
3dha_A	10	4	11	27	12	19	9	20	14	26	5	10	16	6	8	15	13	17	1	11
3dhg_F	7	1	6	6	5	2	3	2	3	5	3	3	4	2	7	4	3	14	0	1
3djj_A	39	9	21	28	14	41	16	29	34	34	15	17	19	8	16	31	31	44	3	13
3dl3_A	7	1	5	6	7	4	3	7	3	3	0	7	6	6	3	5	8	8	3	3
3dlc_A	15	1	16	16	12	18	2	32	17	11	0	16	5	6	10	16	6	8	3	5
3dm8_A	14	1	9	6	7	7	3	9	1	13	6	5	3	6	15	8	8	8	2	4
3dnj_B	4	2	5	6	3	3	4	3	3	6	3	3	2	4	6	3	5	11	0	5
3dqy_A	4	4	10	8	5	12	3	4	7	8	2	2	7	3	3	1	6	11	2	3
3dxk_G	1	0	3	2	2	1	0	0	2	0	0	1	0	0	2	0	0	3	0	1
3dxr_B	4	4	3	7	2	2	0	2	7	5	3	8	0	5	1	5	3	5	0	3
3e10_B	17	1	8	18	6	5	1	15	18	15	0	13	6	5	8	9	1	7	3	5
3e19_A	2	0	1	2	0	7	1	3	2	6	3	2	3	2	1	3	2	6	0	0
3e7k_A	2	0	4	3	1	3	1	4	3	6	1	1	0	5	4	6	4	5	0	1
3e7l_D	2	0	4	9	2	1	0	7	11	9	0	2	0	0	5	5	1	1	0	4
3e9c_A	1	0	0	1	1	1	1	1	0	2	1	0	0	0	1	0	3	1	0	0
3ea6_A	3	1	19	12	15	15	5	16	27	13	0	23	3	5	3	15	14	10	1	15
3edo_B	10	0	14	10	5	9	2	11	15	10	0	9	4	4	2	13	8	8	4	8
3eli_A	8	1	9	7	6	10	5	1	3	8	0	1	7	5	6	5	3	11	6	1
3eng_A	20	14	16	5	15	26	1	6	8	7	1	12	15	9	11	15	10	11	6	5
3eu3_A	9	2	19	16	12	10	2	10	25	11	2	8	10	8	1	11	10	14	3	3
3eun_A	4	8	6	14	0	4	2	7	2	3	1	2	5	2	2	4	6	6	0	3
3eur_A	12	2	8	10	5	7	2	6	17	20	0	10	5	3	3	3	10	6	2	8
3eus_B	11	2	5	8	2	3	1	3	3	8	1	0	2	4	9	2	4	7	1	1
3evi_A	6	4	3	12	5	7	4	13	8	12	1	8	3	5	3	5	4	9	2	4
3f1n_A	3	2	5	7	4	8	5	3	6	9	4	2	1	4	3	7	7	4	1	7
3f2i_A	2	0	0	2	0	1	1	2	0	2	0	0	0	1	1	0	0	0	0	1
3f3x_A	8	0	6	13	3	5	0	12	11	19	5	10	2	4	12	9	5	11	0	4
3fbi_D	2	3	3	8	5	3	0	6	4	15	0	8	7	7	1	5	3	4	2	7
3fde_A	13	1	11	13	4	26	6	4	13	13	4	13	12	6	19	12	9	14	5	11
3ff5_A	5	0	2	4	4	3	0	2	4	7	0	1	4	4	5	4	3	2	0	0
3ff7_C	4	6	5	7	6	6	3	4	5	11	2	9	3	4	5	15	2	6	6	3
3fgh_A	4	0	3	9	1	2	2	1	10	3	1	4	3	3	4	5	2	3	2	4
3fgv_A	8	1	5	11	5	5	1	3	4	10	0	3	4	4	6	2	5	8	2	4
3fs5_A	11	1	11	8	3	12	6	3	5	19	5	2	5	7	14	11	7	8	5	8
3fwb_B	4	0	4	5	4	0	1	2	6	6	2	2	0	1	5	4	3	0	1	4
3fym_A	4	0	2	11	2	5	2	6	5	7	2	7	3	6	6	3	4	4	1	2
3g07_F	2	2	5	1	1	6	2	4	2	8	0	2	2	1	7	4	1	4	2	0
3g0k_A	13	0	11	9	4	7	7	8	2	6	0	5	7	4	8	8	4	16	2	3
3g36_A	5	0	3	3	2	1	0	2	3	9	0	2	5	4	2	2	2	4	0	2
3g5t_A	5	1	6	7	4	6	1	5	5	5	0	1	5	3	3	13	5	3	0	4
3g7z_C	5	0	2	6	2	2	0	1	1	1	2	3	0	1	4	1	0	1	2	0
3g80_A	11	2	2	5	2	1	1	4	4	10	1	3	3	6	5	3	5	3	0	2
3g8k_A	2	8	11	3	6	9	1	8	16	14	3	8	3	2	5	10	4	2	5	7
3g9o_B	6	10	3	3	2	6	3	3	6	5	2	4	1	2	7	4	1	4	0	3
3gae_A	17	2	14	19	10	11	1	23	16	27	3	22	8	8	7	17	16	16	4	12
3gah_A	13	1	12	13	7	8	5	13	12	17	2	10	6	15	11	8	10	12	2	9
3ge3_A	43	4	33	39	24	33	15	24	22	34	19	17	22	21	26	26	21	22	23	23
3ggy_A	11	4	11	19	3	2	5	20	18	25	3	6	5	11	7	8	6	14	1	7
3gj3_B	2	4	2	2	0	1	0	0	3	1	0	1	3	1	0	0	3	3	1	0
3gla_B	8	0	7	9	4	7	2	9	4	5	1	2	6	3	12	8	3	6	1	2
3gqq_D	0	1	7	5	3	4	0	7	5	6	0	2	7	2	6	3	2	4	0	2
3gvo_A	20	9	15	23	13	16	17	25	22	34	8	11	10	32	20	16	12	26	0	13
3gz7_A	10	2	5	9	6	6	5	4	2	6	0	1	5	9	8	3	2	10	2	1
3h05_B	2	0	1	2	3	2	2	4	3	5	1	1	3	0	0	6	0	2	0	0
3h3l_C	1	1	5	2	1	9	0	3	2	3	0	1	2	1	2	2	4	3	3	2
3h4n_A	6	6	2	5	1	11	6	1	12	1	2	2	1	0	0	0	5	5	1	0
3h7h_B	6	1	3	7	2	5	2	7	10	6	4	3	4	6	3	2	6	11	2	5
3hht_B	14	1	18	21	9	19	7	11	16	17	7	5	11	3	15	8	9	18	4	14
3hia_A	2	0	1	2	2	9	0	0	3	2	3	8	1	4	0	5	6	6	6	6
3hls_F	3	0	4	8	1	1	1	0	4	14	0	1	2	3	5	2	6	3	0	2
3hnx_A	8	2	9	7	5	10	4	5	1	8	1	12	2	5	11	4	6	5	2	1
3hp0_B	19	5	11	14	13	14	6	15	12	25	0	8	9	18	14	16	17	17	2	9
3hqx_A	3	3	5	11	7	7	4	7	6	8	0	2	4	4	3	8	9	10	0	3
3htn_A	8	1	6	10	6	12	4	14	9	12	0	13	2	3	6	12	7	6	0	9
3htu_B	2	0	2	3	0	1	0	2	4	4	0	0	0	8	5	1	1	1	0	1
3hxj_D	1	0	1	1	1	2	0	5	2	3	0	2	1	0	0	3	1	0	1	1
3hy3_A	12	3	7	16	7	12	4	14	13	18	6	4	8	12	16	15	4	8	1	6
3hzp_A	9	1	8	9	10	8	1	7	10	12	0	5	3	3	3	15	9	5	4	1
3i1e_A	5	0	7	6	2	9	9	10	11	5	0	2	2	2	0	6	4	6	0	3
3i5r_A	4	0	6	10	2	11	1	5	5	7	0	3	2	2	5	3	4	3	1	7
3ibw_A	2	1	6	2	5	6	0	8	7	7	0	7	0	2	4	2	10	7	0	0
3ic3_D	4	0	3	3	3	4	0	2	1	4	0	0	4	2	3	1	1	3	0	0
3igs_B	37	5	17	11	1	17	6	19	6	23	0	5	13	6	13	14	11	17	2	4
3iic_A	6	1	9	12	6	15	2	13	14	16	0	10	7	2	0	10	10	9	0	3
3im4_B	4	2	1	8	2	0	1	2	4	7	1	1	2	3	4	2	1	2	0	2
3im4_C	4	0	3	3	0	0	0	2	2	1	2	0	0	5	0	1	0	2	1	1
3imk_A	14	1	11	10	4	15	6	15	10	14	0	3	8	6	6	9	10	6	2	5
3iqt_A	8	2	8	14	1	8	2	4	6	21	0	8	5	7	6	5	3	9	1	1
3irb_B	1	0	1	3	0	1	0	0	0	2	0	0	0	0	2	1	1	1	1	3
3iu5_A	6	3	10	8	4	1	1	5	10	13	3	6	6	7	7	4	4	6	1	9
3iuf_A	3	2	3	1	0	2	3	1	3	2	0	1	2	0	3	2	0	0	0	4
3ixs_B	2	0	2	1	1	1	0	2	3	2	0	2	1	2	2	1	4	5	0	0
3j26_N	18	2	17	12	23	16	2	36	9	25	4	30	35	19	8	26	28	23	3	26
3jud_A	8	1	4	6	4	9	4	2	1	15	2	2	6	4	11	3	3	9	1	4
3jvl_A	11	4	9	8	6	5	4	5	12	7	8	2	6	3	5	7	1	6	1	6
3k1h_A	7	2	6	13	6	4	0	10	8	18	3	9	2	7	2	9	1	6	0	2
3k2a_A	4	0	1	2	2	1	2	4	3	5	0	4	4	6	4	1	4	3	2	1
3k2d_B	25	0	17	16	6	11	1	13	15	21	3	14	10	11	8	9	13	27	0	10
3k6i_A	4	0	8	8	3	9	0	12	5	7	0	3	8	2	8	8	4	9	0	1
3k7u_C	1	0	2	1	2	2	1	2	0	2	0	1	0	2	0	4	6	7	0	1
3kav_D	21	12	4	12	1	3	1	1	0	12	0	0	5	4	15	3	1	1	1	2
3kb9_A	35	4	24	27	14	19	17	11	6	37	4	9	17	4	32	16	16	22	12	14
3kbr_A	17	2	14	12	8	12	3	12	7	17	0	6	10	10	15	10	11	12	1	5
3kev_A	10	0	10	14	11	5	1	5	13	25	0	5	5	8	8	16	6	8	4	5
3kta_D	5	0	1	7	5	4	0	4	4	4	0	3	4	0	3	5	1	1	0	0
3ku7_A	5	0	2	4	1	0	1	5	6	6	2	1	1	1	3	2	5	1	0	2
3kwu_A	0	0	0	1	1	0	0	0	0	0	0	0	0	0	0	0	0	0	0	0
3kxt_A	4	0	3	4	2	5	1	2	11	4	1	0	7	0	2	0	2	5	1	2
3l4h_A	6	1	6	4	10	3	4	6	5	10	0	8	5	5	10	6	8	6	1	3
3laq_A	7	12	6	4	3	11	5	4	8	5	1	9	7	7	10	7	3	6	2	7
3ldc_A	6	1	1	4	6	8	2	8	0	11	1	0	3	0	2	3	10	9	2	5
3ldu_A	10	2	9	15	9	8	3	17	22	12	0	5	5	2	8	12	10	6	2	9
3lhk_C	6	0	6	12	6	8	4	15	22	12	0	7	2	5	7	6	7	9	1	7
3ljd_A	2	6	3	8	3	11	5	5	8	6	3	13	8	4	10	6	6	13	1	5
3lk4_C	2	0	2	1	1	2	1	1	1	4	1	3	3	0	3	2	1	1	0	0
3llu_A	8	0	18	8	14	7	7	15	13	15	6	7	5	7	7	14	8	10	1	7
3lrq_D	5	11	3	8	3	0	2	3	2	11	0	1	3	7	9	5	3	4	2	0
3lte_I	12	0	15	6	3	5	3	8	9	15	3	5	4	6	6	4	3	10	1	1
3luc_A	9	6	3	5	5	10	3	7	11	11	4	4	7	12	6	4	10	14	1	3
3lv4_B	26	1	30	26	18	49	15	23	34	28	0	22	20	9	16	32	19	26	8	27
3m20_A	5	0	3	5	1	6	1	6	4	5	1	1	4	0	4	2	2	7	0	2
3m92_B	6	0	4	8	4	5	4	4	6	9	0	4	2	3	3	2	8	6	0	2
3m9q_A	6	1	4	10	4	3	3	2	7	11	0	3	3	3	10	3	4	6	1	5
3md1_B	5	0	9	1	6	7	1	1	1	6	4	7	2	5	4	7	4	5	2	2
3mea_A	6	1	3	0	1	6	0	2	4	4	0	0	7	1	2	1	1	4	1	2
3mg1_A	26	2	6	7	7	11	0	10	3	18	6	8	8	12	6	7	10	7	3	4
3mlq_F	0	0	0	1	0	2	0	0	0	2	0	0	0	1	0	0	1	0	0	1
3mmy_H	0	0	1	0	1	2	0	1	1	0	1	1	2	0	0	0	5	0	0	0
3mn2_A	13	1	3	6	6	7	3	5	4	8	0	4	5	4	11	9	8	4	1	3
3mqp_B	2	1	1	3	2	1	0	0	2	5	0	1	0	2	3	0	1	1	0	0
3mse_B	4	1	4	4	2	4	5	16	7	8	4	15	1	1	5	7	4	4	2	6
3msw_A	7	1	7	10	3	6	1	10	13	6	0	14	2	6	4	10	13	6	4	12
3mvs_A	12	0	19	10	14	11	3	12	3	15	3	11	15	12	9	14	19	22	1	5
3n8b_B	2	0	2	11	6	2	1	4	7	3	0	6	1	1	4	8	3	6	0	4
3n9s_A	29	2	15	28	18	24	9	17	28	27	10	17	10	7	9	17	8	27	0	5
3nbm_A	12	1	3	7	1	8	3	8	5	11	0	4	2	5	5	6	4	9	0	7
3ne0_A	16	1	7	4	4	31	2	15	5	13	6	8	16	11	12	16	10	18	2	11
3npf_B	18	1	17	17	12	24	9	17	19	16	0	13	13	12	14	25	13	24	6	17
3nyb_B	1	3	0	1	0	0	1	2	4	2	0	0	1	1	2	3	1	1	1	1
3nyc_A	54	6	24	22	11	34	18	15	4	35	7	6	27	14	28	19	14	24	6	13
3o3x_A	9	0	2	17	0	22	5	18	5	29	2	14	0	32	8	15	5	6	7	2
3o48_A	6	2	7	13	4	7	1	7	10	13	2	5	4	8	8	6	7	7	2	10
3o6p_A	23	0	25	13	10	15	0	10	21	14	0	10	9	6	9	25	8	13	3	7
3o6z_A	4	2	7	9	2	6	2	10	8	10	0	7	1	4	7	3	10	7	1	4
3o7a_A	2	7	2	3	3	1	2	3	4	2	2	2	3	1	3	4	2	4	2	0
3obe_B	4	0	4	3	2	8	0	1	4	7	0	3	1	3	2	3	4	1	0	4
3oe3_F	8	2	4	7	0	4	0	7	7	5	0	9	2	2	1	6	5	6	0	7
3oiq_B	2	0	4	1	0	0	0	0	2	5	0	2	2	2	2	2	1	4	0	1
3oj6_A	18	3	8	6	3	14	3	12	5	10	1	5	7	2	5	9	4	14	1	4
3oll_B	10	3	7	13	6	5	4	8	9	27	11	1	9	3	6	12	7	10	3	2
3oop_A	5	0	5	8	2	2	1	8	6	7	0	4	3	2	5	6	6	7	2	3
3oqi_B	25	1	7	23	13	11	8	10	9	21	6	11	7	6	20	11	9	16	2	5
3ovu_A	5	0	6	8	5	2	0	2	6	12	2	7	3	7	4	4	3	7	1	4
3p45_D	2	1	1	0	1	1	0	0	0	2	1	0	1	0	0	1	0	1	0	1
3p4e_A	3	0	1	2	0	3	0	1	2	1	1	1	1	0	4	0	1	3	0	0
3p51_A	9	1	7	12	5	11	2	8	4	11	0	6	6	0	10	18	7	13	4	8
3p52_A	16	4	8	10	6	10	1	15	15	27	0	12	2	7	4	15	7	7	1	8
3pct_C	28	0	22	8	14	21	3	6	28	13	6	16	3	17	8	14	10	20	6	7
3pg7_A	18	4	10	18	14	12	9	17	19	26	1	10	9	11	9	14	19	19	3	14
3pkv_A	23	1	13	16	13	14	4	17	6	27	3	9	10	16	7	11	12	10	2	7
3pmc_A	7	2	5	14	5	1	4	18	16	13	2	7	2	7	6	5	4	5	1	8
3pnp_A	15	4	9	16	14	27	6	8	6	21	10	13	13	10	17	9	14	22	3	8
3pp2_A	3	0	3	1	2	4	2	0	8	4	0	0	0	0	3	4	5	3	2	0
3pt3_A	1	0	2	5	5	1	0	1	3	3	2	2	1	2	2	6	3	2	3	1
3puc_A	7	2	6	3	3	10	1	6	12	5	0	1	4	2	1	13	12	7	1	2
3q2u_A	14	11	13	5	9	10	6	11	13	9	2	15	12	7	7	13	10	11	6	8
3q4r_A	7	0	11	24	5	6	2	13	19	14	5	12	5	4	5	11	6	9	2	10
3q8g_A	13	3	15	25	15	17	5	23	26	29	7	15	18	7	16	18	16	14	2	22
3qh6_A	3	1	1	4	3	2	4	1	3	8	1	1	1	2	3	2	0	2	0	1
3qij_A	4	3	6	6	1	3	3	2	8	9	0	2	0	3	1	3	3	6	2	2
3ql9_A	4	14	9	7	4	6	4	8	5	10	4	9	3	7	6	9	3	5	2	6
3qm3_A	22	3	8	12	4	18	6	12	13	20	2	9	5	4	1	10	5	15	1	6
3qth_B	5	2	5	5	4	1	3	5	5	12	0	4	2	1	4	4	1	3	0	1
3qur_A	6	0	5	2	4	9	1	2	2	6	2	1	3	0	7	6	3	4	0	1
3qwm_A	0	2	2	2	4	1	2	2	3	7	0	2	3	3	4	0	1	4	0	1
3qwo_C	8	0	4	5	1	0	0	2	4	7	0	8	2	3	1	7	0	0	0	1
3qzm_B	9	0	5	6	5	3	4	6	12	5	2	13	5	9	2	7	11	10	1	8
3qzr_B	9	2	9	6	9	17	6	11	8	17	5	9	7	8	10	8	14	17	1	3
3r48_B	8	0	1	4	0	2	0	4	5	3	0	0	0	2	0	0	0	0	0	1
3r5t_A	30	0	15	15	10	14	7	20	9	33	3	8	15	28	15	20	20	23	6	5
3r6d_A	19	0	10	16	8	15	6	17	4	18	0	10	10	9	12	13	16	16	2	9
3r6f_A	6	2	5	11	8	6	9	9	8	12	2	7	5	3	8	8	3	10	1	7
3r9v_B	4	0	3	3	1	1	2	4	2	3	2	3	0	4	1	7	1	3	1	4
3rbg_B	2	2	2	6	2	3	4	4	7	14	0	6	3	5	1	11	12	10	1	4
3rcp_A	0	0	3	1	1	3	0	1	1	4	0	2	1	2	1	2	2	2	3	4
3rkg_A	9	5	20	17	11	1	5	26	21	37	6	17	7	9	8	27	13	10	1	8
3rm3_A	13	3	4	9	4	16	7	6	3	11	5	2	9	3	4	5	11	10	2	7
3rpf_C	4	2	5	7	4	6	1	6	6	11	0	5	4	1	2	1	1	5	1	0
3rpp_A	0	1	1	2	2	3	0	5	1	8	1	3	4	2	3	3	2	2	2	3
3rt2_A	6	4	8	19	5	9	8	12	13	17	1	5	5	5	8	16	10	16	1	3
3rzn_A	19	3	8	16	10	9	4	14	18	23	5	10	11	8	6	6	11	12	3	10
3s5t_A	9	2	6	10	5	5	2	4	10	6	0	7	4	2	1	4	7	5	0	7
3s83_A	21	0	9	12	4	14	4	8	2	23	0	3	10	3	14	7	8	8	2	1
3s8f_C	4	0	0	0	3	3	0	2	2	6	0	0	1	0	1	0	2	5	1	1
3shg_A	14	0	12	17	9	14	6	11	10	17	5	8	4	9	18	12	10	7	3	12
3sqf_A	1	0	7	2	2	6	0	8	8	13	2	9	8	3	3	6	8	3	5	1
3t0y_D	3	0	2	3	2	1	0	2	2	3	0	1	2	3	3	0	0	4	0	0
3t5s_A	7	6	7	1	5	5	0	2	4	3	4	1	2	2	1	4	6	5	0	2
3t5x_A	12	4	6	11	12	6	10	11	18	29	7	5	5	10	7	10	7	15	0	10
3t5x_B	1	0	6	4	1	1	1	0	2	2	1	3	0	1	1	1	0	2	2	1
3t7k_A	5	3	6	8	9	3	2	11	12	13	0	6	4	2	2	2	3	2	0	1
3t7l_A	4	10	1	4	3	3	2	1	8	4	1	3	3	5	5	2	4	8	1	2
3t7z_A	3	0	6	16	9	7	1	8	16	10	3	8	4	1	2	4	7	5	2	7
3t8j_A	25	1	22	20	10	15	6	32	22	24	8	22	12	5	10	12	17	28	7	13
3t9g_A	10	5	10	11	7	20	3	14	17	11	1	17	5	9	1	11	13	24	2	5
3tcq_A	13	0	9	2	7	7	4	9	5	17	5	8	14	8	5	8	14	10	2	3
3td3_H	12	0	7	10	4	5	2	5	9	9	3	11	4	3	10	8	9	6	1	3
3tdq_B	2	0	3	5	3	5	2	4	3	5	0	3	4	6	3	8	5	10	1	3
3tj5_B	4	0	0	0	0	3	1	0	0	5	2	4	0	1	0	3	1	1	0	2
3tkn_B	1	0	1	1	3	3	0	1	5	2	3	3	0	1	0	0	1	3	0	0
3tmp_A	5	0	1	3	0	1	0	1	0	0	0	1	0	0	1	0	0	0	0	2
3tr3_A	5	1	4	7	2	5	6	4	2	7	0	1	2	3	4	6	8	5	1	3
3trt_B	11	1	5	8	1	0	0	0	6	5	0	4	1	7	6	5	3	4	1	3
3tvq_A	15	0	11	13	7	9	6	6	5	6	6	8	7	3	15	4	11	11	6	3
3tyt_A	11	6	10	13	14	13	4	4	15	15	9	16	11	7	7	19	6	15	1	8
3tzg_B	0	0	1	0	0	0	0	0	1	1	0	0	0	0	0	0	4	2	0	1
3u1j_B	9	0	3	12	5	25	3	9	13	7	2	8	9	11	5	7	13	17	4	4
3u1u_B	1	2	0	3	3	3	2	2	2	4	0	2	3	1	5	3	2	4	1	0
3u28_B	2	0	3	2	1	3	2	2	5	4	2	0	3	1	4	4	5	2	0	3
3u43_A	5	1	8	14	4	6	8	5	8	6	0	2	3	1	6	5	3	3	1	3
3u5c_O	16	1	7	4	3	15	2	6	9	6	2	1	5	3	14	8	11	12	0	2
3u5e_M	22	1	4	5	3	7	0	8	17	11	1	2	4	7	11	6	7	15	4	1
3uca_B	15	1	15	9	2	10	3	17	14	16	8	9	4	2	5	10	4	7	0	10
3ue5_B	0	1	0	4	0	1	0	2	3	2	2	0	2	2	3	2	1	0	0	0
3ulb_B	1	0	2	1	1	1	1	4	3	1	1	1	1	2	3	1	1	2	1	3
3utm_C	1	0	1	3	0	2	0	0	0	0	0	0	4	0	1	0	0	1	0	0
3uv9_A	10	6	8	7	11	12	4	11	9	9	2	8	10	8	6	18	11	19	4	10
3uws_A	8	0	5	8	1	8	2	7	9	11	0	10	8	3	4	12	6	9	2	7
3uyg_5	5	4	1	3	0	2	4	0	8	3	1	0	9	0	5	2	4	5	0	2
3v1a_A	4	0	2	3	2	3	4	3	2	4	2	2	1	7	2	4	1	1	0	1
3v46_A	5	1	6	10	11	5	4	12	11	10	1	12	10	8	12	10	6	14	5	7
3v4k_A	11	8	13	11	13	10	10	7	9	15	4	7	8	10	12	10	10	7	6	5
3vcx_A	12	1	8	5	5	6	3	5	0	11	0	2	6	6	6	6	5	6	1	5
3vla_A	24	12	15	12	20	33	1	25	11	33	3	26	21	10	18	55	39	43	2	9
3vus_A	16	0	8	10	9	8	5	5	4	8	1	5	9	12	11	9	6	15	8	5
3zs9_C	2	0	0	3	1	2	0	1	4	4	0	2	0	1	6	3	2	0	0	0
3zwf_B	5	4	3	3	5	10	3	4	3	10	2	0	3	4	3	5	8	3	1	1
3zx7_A	13	2	15	23	8	24	7	24	19	13	0	9	9	10	14	24	27	26	6	17
3zzp_A	4	0	4	7	0	3	0	4	1	6	2	7	3	6	8	2	4	8	1	4
4a1s_C	3	1	0	4	0	1	2	1	1	1	2	0	3	2	1	3	1	2	2	0
4a3z_A	11	0	9	12	7	10	2	10	10	7	0	14	4	3	2	14	7	7	2	2
4a5u_B	5	0	2	3	2	3	2	2	1	4	0	2	0	3	1	4	5	3	0	0
4ac1_X	20	1	19	11	14	27	6	18	4	25	8	13	17	16	8	21	21	18	6	10
4aeq_A	4	2	7	10	2	6	1	3	8	6	3	3	4	4	5	2	5	6	2	7
4ajp_B	1	0	1	1	0	0	0	1	2	4	0	1	0	1	0	0	1	0	0	1
4akm_A	8	4	9	9	10	11	4	7	8	12	2	8	3	12	4	13	10	15	0	6
4ax1_B	45	6	22	9	6	21	7	10	4	22	3	7	19	6	19	15	18	19	5	7
4ayb_P	1	4	1	1	2	3	0	5	7	2	1	0	3	1	3	0	3	4	1	2
4ayb_Q	1	0	6	5	2	1	0	4	6	6	1	4	1	1	4	3	1	1	1	2
4ayi_E	5	8	6	5	4	10	7	4	6	4	2	5	11	4	5	6	6	6	3	12
4azz_A	14	0	17	9	11	15	4	8	13	9	3	9	2	3	5	13	12	10	3	5
4b2s_A	5	8	3	15	3	11	4	7	5	7	2	5	10	5	2	9	7	10	3	6
4b8x_B	7	0	2	4	2	6	1	4	4	10	4	2	6	2	6	7	6	10	0	2
4d8b_A	18	1	11	7	10	30	7	11	14	15	4	22	12	16	7	22	9	19	4	15
4dgw_B	7	2	9	9	9	2	3	7	15	6	0	3	2	6	8	7	7	6	2	5
4dhc_9	1	3	1	1	0	1	2	3	6	0	0	1	1	2	6	1	0	5	0	1
4dhx_A	5	4	3	11	3	1	1	1	2	10	3	1	0	5	5	3	4	10	0	0
4dlo_A	7	4	2	5	3	3	4	3	2	7	2	3	6	3	5	7	4	2	2	3
4do4_B	25	9	30	15	14	29	12	25	12	42	19	20	24	20	19	25	15	16	13	16
4dok_A	12	1	12	23	10	16	4	15	17	14	5	5	6	7	5	15	12	21	2	6
4dpz_X	6	0	2	1	1	4	2	3	0	4	0	0	3	0	4	1	0	3	1	3
4ds7_H	3	1	3	0	2	0	0	2	2	6	1	1	0	0	9	2	1	3	0	1
4dxr_B	2	1	0	0	2	1	1	0	0	3	1	3	4	0	2	3	1	0	0	1
4e17_B	3	1	3	3	0	1	0	1	0	3	1	1	0	2	5	1	0	2	0	1
4e2u_A	10	0	9	15	6	9	6	10	8	13	4	10	9	3	6	12	6	19	2	11
4e3a_A	42	7	24	20	13	31	4	21	11	26	0	12	9	12	21	16	17	21	1	12
4e4d_R	3	16	6	11	3	8	7	2	10	8	0	3	10	5	7	10	10	9	1	6
4e7u_D	1	2	0	2	2	3	2	0	0	4	0	1	1	1	1	1	1	3	0	2
4eby_A	11	6	11	7	10	12	1	11	4	17	2	19	16	7	11	23	9	13	0	10
4efo_B	3	0	1	7	4	2	6	9	4	8	2	3	3	5	4	5	6	6	0	4
4egd_A	1	0	7	6	5	7	0	5	10	4	4	6	2	3	5	2	9	3	1	5
4eq8_A	18	6	7	4	2	16	4	4	8	13	0	8	6	9	7	15	4	13	4	7
4etn_A	13	1	7	12	7	9	6	8	10	15	4	5	5	6	7	12	8	10	0	3
4eu1_B	35	10	21	17	11	30	12	17	16	38	11	17	18	15	22	22	18	30	4	16
4evx_B	5	2	7	5	7	5	2	7	0	14	0	4	3	7	6	5	5	1	2	2
4ew7_A	4	3	4	8	8	6	2	12	4	9	0	10	4	7	6	11	0	7	1	6
4ezi_A	31	0	21	23	20	22	11	20	19	37	0	16	25	13	10	23	18	20	3	27
4f87_B	3	0	3	4	4	7	1	9	5	1	1	3	1	4	2	5	2	5	0	2
4f9c_B	0	0	1	1	1	0	0	0	3	1	1	0	1	1	1	1	0	2	0	0
4fa8_E	5	7	11	12	9	2	3	7	11	16	4	9	4	10	5	10	8	7	1	4
4fhq_A	1	5	1	4	0	3	0	0	3	1	0	0	4	0	1	3	0	2	0	2
4ftd_A	31	4	30	32	18	38	8	28	32	31	0	30	17	8	13	28	28	34	2	21
4fu6_A	2	0	3	1	3	3	1	1	3	2	2	1	4	1	2	0	1	2	1	2
4fz0_N	0	6	2	3	1	3	1	1	4	1	0	1	2	0	4	1	1	3	2	0
4g27_B	1	0	0	2	0	1	0	0	2	2	0	0	0	0	1	0	1	0	0	0
4g2a_A	18	3	20	12	12	18	7	18	18	28	0	23	19	17	14	25	18	17	8	19
4g2p_A	14	0	8	5	4	7	5	8	8	10	0	2	6	5	4	8	6	4	2	1
4gek_G	18	4	15	18	13	14	8	16	10	22	8	11	8	8	13	16	7	15	2	5
4ghg_B	23	3	33	27	16	29	16	18	14	27	4	14	17	9	26	13	22	26	5	18
4gsk_Z	1	0	6	9	1	2	4	9	6	21	2	6	5	7	4	7	5	2	3	5
4gz1_A	14	8	11	13	12	14	4	14	14	20	4	13	10	6	13	12	14	11	3	7
4h75_A	7	2	13	10	3	11	3	7	8	13	6	5	9	5	9	6	7	14	4	8
4hf7_A	24	0	7	15	9	13	2	15	16	12	0	16	10	8	9	6	11	14	2	11
4mt2_A	5	20	3	1	0	4	0	1	8	0	1	1	2	2	0	10	2	1	0	0
4sgb_I	5	8	2	1	1	4	1	3	5	1	0	4	6	1	1	3	1	0	0	4
6rlx_B	2	2	0	3	0	2	0	3	1	2	2	0	0	1	2	2	1	2	2	0
